﻿time,proximal_x,proximal_y,proximal_z,distal_x,distal_y,distal_z
3.6,360.4315476,314.6875,321.7857143,360.4315476,309.9553571,317.0535714
8.9,272.0982143,278.4077381,11.83035714,272.0982143,281.5625,11.83035714
9.7,283.9285714,296.547619,11.83035714,268.9434524,296.547619,11.83035714
10,264.2113095,273.6755952,525.2678571,264.2113095,272.0982143,520.5357143
10.1,265.7886905,266.577381,508.7053571,264.2113095,265.7886905,504.7619048
10.2,265.7886905,266.577381,510.2827381,265,267.3660714,504.7619048
10.3,265.7886905,266.577381,508.7053571,265.7886905,267.3660714,505.5505952
10.4,265.7886905,267.3660714,503.9732143,263.422619,267.3660714,495.297619
10.5,262.6339286,266.577381,484.2559524,261.8452381,266.577381,480.3125
10.6,261.8452381,266.577381,477.9464286,261.0565476,265.7886905,472.4255952
10.7,261.8452381,266.577381,478.735119,261.0565476,265.7886905,473.2142857
10.8,261.8452381,266.577381,478.735119,261.8452381,265.7886905,473.2142857
10.9,261.8452381,266.577381,476.3690476,261.0565476,265.7886905,470.0595238
11,259.4791667,265,456.6517857,258.6904762,265,452.7083333
11.1,257.9017857,264.2113095,445.610119,257.1130952,261.8452381,438.5119048
11.2,257.9017857,264.2113095,448.764881,257.1130952,261.0565476,439.3005952
11.3,257.9017857,264.2113095,447.9761905,257.1130952,261.0565476,439.3005952
11.4,257.9017857,264.2113095,444.0327381,257.1130952,261.8452381,437.7232143
11.5,256.3244048,263.422619,425.8928571,256.3244048,261.8452381,421.1607143
11.6,255.5357143,272.0982143,407.7529762,258.6904762,266.577381,403.0208333
11.7,261.0565476,272.0982143,406.9642857,260.2678571,268.9434524,401.4434524
11.8,261.0565476,265.7886905,406.1755952,260.2678571,268.9434524,401.4434524
11.9,261.0565476,272.0982143,406.1755952,260.2678571,268.9434524,400.6547619
12,260.2678571,272.0982143,400.6547619,259.4791667,268.1547619,395.922619
12.1,257.1130952,272.0982143,383.3035714,256.3244048,276.8303571,378.5714286
12.2,256.3244048,273.6755952,380.1488095,255.5357143,278.4077381,373.8392857
12.3,256.3244048,273.6755952,381.7261905,255.5357143,278.4077381,375.4166667
12.4,256.3244048,272.8869048,382.514881,255.5357143,278.4077381,376.2053571
12.5,252.3809524,273.6755952,380.1488095,254.7470238,278.4077381,373.8392857
12.6,249.2261905,272.8869048,369.1071429,252.3809524,277.6190476,364.375
12.7,249.2261905,278.4077381,359.6428571,253.1696429,278.4077381,354.1220238
12.8,250.014881,277.6190476,356.4880952,253.1696429,278.4077381,351.7559524
12.9,250.014881,277.6190476,357.2767857,253.1696429,272.8869048,349.389881
13,250.014881,277.6190476,354.9107143,253.1696429,278.4077381,347.0238095
13.1,248.4375,277.6190476,347.8125,252.3809524,279.1964286,340.7142857
13.2,241.3392857,283.9285714,325.7291667,253.1696429,284.7172619,318.6309524
13.3,250.014881,284.7172619,325.7291667,249.2261905,287.8720238,318.6309524
13.4,242.9166667,283.9285714,321.7857143,239.7619048,275.2529762,314.6875
13.5,238.1845238,279.1964286,318.6309524,235.0297619,282.3511905,310.7440476
13.6,237.3958333,280.7738095,311.5327381,234.2410714,279.985119,303.6458333
13.7,236.6071429,278.4077381,298.9136905,235.8184524,276.0416667,291.0267857
13.8,237.3958333,271.3095238,288.6607143,236.6071429,270.5208333,283.9285714
13.9,240.5505952,269.7321429,291.0267857,239.7619048,268.9434524,286.2946429
14,240.5505952,268.9434524,292.6041667,239.7619048,268.1547619,285.5059524
14.1,253.9583333,257.9017857,287.0833333,253.9583333,257.9017857,281.5625
14.2,280.7738095,243.7053571,288.6607143,276.8303571,245.2827381,280.7738095
14.3,278.4077381,242.1279762,289.4494048,277.6190476,240.5505952,281.5625
14.4,276.8303571,235.0297619,282.3511905,276.0416667,235.0297619,274.4642857
14.5,286.2946429,231.0863095,278.4077381,283.139881,234.2410714,271.3095238
14.6,287.0833333,234.2410714,279.1964286,282.3511905,234.2410714,272.0982143
14.7,288.6607143,234.2410714,279.1964286,283.9285714,235.0297619,271.3095238
14.8,291.0267857,234.2410714,281.5625,286.2946429,234.2410714,274.4642857
14.9,283.139881,236.6071429,283.9285714,282.3511905,235.0297619,276.0416667
15,276.8303571,238.1845238,289.4494048,276.0416667,239.7619048,282.3511905
15.1,268.9434524,246.860119,284.7172619,268.9434524,244.4940476,276.8303571
15.2,275.2529762,245.2827381,280.7738095,275.2529762,246.0714286,276.8303571
15.3,280.7738095,248.4375,279.985119,278.4077381,246.0714286,272.8869048
15.4,283.9285714,246.0714286,284.7172619,282.3511905,243.7053571,276.8303571
15.5,285.5059524,242.1279762,280.7738095,283.9285714,241.3392857,273.6755952
15.6,292.6041667,233.452381,279.1964286,286.2946429,234.2410714,272.0982143
15.7,287.0833333,234.2410714,276.8303571,285.5059524,235.0297619,270.5208333
16.3,285.5059524,245.2827381,279.1964286,282.3511905,245.2827381,274.4642857
16.4,291.0267857,241.3392857,279.1964286,285.5059524,243.7053571,275.2529762
16.5,292.6041667,242.9166667,279.1964286,287.0833333,242.9166667,274.4642857
16.6,294.9702381,235.8184524,278.4077381,289.4494048,236.6071429,272.0982143
16.7,293.3928571,234.2410714,276.0416667,287.8720238,235.8184524,270.5208333
17,291.8154762,280.7738095,282.3511905,290.2380952,278.4077381,276.0416667
17.2,297.3363095,242.1279762,279.985119,293.3928571,245.2827381,274.4642857
17.3,300.4910714,242.9166667,277.6190476,294.1815476,246.860119,272.8869048
17.4,302.8571429,246.0714286,277.6190476,294.1815476,250.014881,274.4642857
17.6,302.8571429,246.0714286,279.985119,295.7589286,250.014881,275.2529762
17.8,304.4345238,246.0714286,276.8303571,298.125,250.8035714,272.8869048
17.9,305.2232143,246.0714286,269.7321429,297.3363095,250.8035714,268.9434524
18,306.0119048,245.2827381,269.7321429,299.702381,250.8035714,270.5208333
18.1,305.2232143,245.2827381,268.9434524,298.9136905,250.014881,269.7321429
18.2,306.0119048,246.860119,269.7321429,299.702381,251.5922619,270.5208333
18.3,305.2232143,247.6488095,268.1547619,298.9136905,252.3809524,268.1547619
18.4,296.547619,254.7470238,269.7321429,291.8154762,257.9017857,270.5208333
18.5,295.7589286,252.3809524,268.1547619,289.4494048,257.1130952,268.1547619
18.6,292.6041667,252.3809524,268.1547619,286.2946429,257.1130952,268.9434524
18.7,293.3928571,252.3809524,268.9434524,286.2946429,257.9017857,268.9434524
18.8,294.1815476,252.3809524,270.5208333,287.8720238,257.1130952,270.5208333
18.9,293.3928571,253.1696429,270.5208333,285.5059524,257.9017857,270.5208333
19,294.1815476,253.1696429,270.5208333,287.0833333,258.6904762,270.5208333
19.1,289.4494048,257.9017857,271.3095238,283.139881,260.2678571,274.4642857
19.2,286.2946429,256.3244048,269.7321429,279.985119,261.0565476,271.3095238
19.3,285.5059524,260.2678571,272.8869048,278.4077381,264.2113095,274.4642857
19.4,284.7172619,262.6339286,273.6755952,279.1964286,264.2113095,278.4077381
19.5,286.2946429,257.9017857,276.8303571,279.985119,262.6339286,278.4077381
19.7,287.8720238,256.3244048,276.0416667,279.985119,261.0565476,279.1964286
19.8,286.2946429,261.0565476,278.4077381,279.1964286,265,279.1964286
19.9,282.3511905,271.3095238,284.7172619,276.0416667,272.0982143,286.2946429
20,283.139881,273.6755952,284.7172619,277.6190476,276.8303571,288.6607143
20.1,283.9285714,274.4642857,286.2946429,277.6190476,279.985119,287.8720238
20.2,284.7172619,281.5625,287.8720238,279.1964286,272.0982143,292.6041667
20.3,285.5059524,275.2529762,286.2946429,279.1964286,279.985119,288.6607143
20.4,283.9285714,275.2529762,285.5059524,278.4077381,286.2946429,287.0833333
20.5,283.139881,274.4642857,284.7172619,277.6190476,272.0982143,287.8720238
20.6,283.139881,275.2529762,285.5059524,277.6190476,272.0982143,287.0833333
20.7,283.139881,275.2529762,283.9285714,277.6190476,286.2946429,287.0833333
20.8,279.1964286,274.4642857,280.7738095,273.6755952,285.5059524,283.139881
20.9,279.985119,275.2529762,280.7738095,274.4642857,285.5059524,283.139881
21,282.3511905,275.2529762,282.3511905,276.0416667,283.9285714,284.7172619
21.1,283.9285714,281.5625,283.139881,277.6190476,281.5625,286.2946429
21.2,283.139881,271.3095238,279.1964286,276.0416667,272.0982143,283.9285714
21.3,282.3511905,268.9434524,280.7738095,276.8303571,272.8869048,282.3511905
21.4,279.985119,267.3660714,276.8303571,275.2529762,268.9434524,281.5625
21.5,279.985119,265,275.2529762,275.2529762,269.7321429,276.8303571
21.6,276.0416667,268.1547619,274.4642857,272.8869048,270.5208333,276.0416667
21.7,276.0416667,264.2113095,272.0982143,271.3095238,266.577381,279.1964286
21.9,268.1547619,257.1130952,272.8869048,265.7886905,262.6339286,279.1964286
22,271.3095238,257.1130952,269.7321429,266.577381,261.0565476,277.6190476
22.1,271.3095238,253.9583333,269.7321429,265.7886905,258.6904762,272.8869048
22.2,272.8869048,252.3809524,261.0565476,268.1547619,257.1130952,265.7886905
22.3,268.9434524,252.3809524,253.1696429,264.2113095,257.1130952,259.4791667
22.4,265,260.2678571,251.5922619,261.0565476,264.2113095,257.9017857
22.9,271.3095238,264.2113095,263.422619,266.577381,267.3660714,267.3660714
23,267.3660714,266.577381,261.8452381,263.422619,269.7321429,266.577381
23.1,267.3660714,269.7321429,261.0565476,262.6339286,272.0982143,266.577381
23.2,268.1547619,269.7321429,264.2113095,263.422619,272.8869048,266.577381
23.3,269.7321429,268.1547619,265,264.2113095,271.3095238,268.1547619
23.4,272.8869048,274.4642857,285.5059524,265.7886905,271.3095238,287.8720238
23.5,294.9702381,290.2380952,289.4494048,288.6607143,289.4494048,291.0267857
23.6,287.8720238,272.8869048,287.0833333,282.3511905,270.5208333,288.6607143
23.7,290.2380952,294.1815476,288.6607143,284.7172619,288.6607143,290.2380952
23.8,292.6041667,292.6041667,290.2380952,287.0833333,288.6607143,291.0267857
23.9,294.1815476,273.6755952,294.9702381,288.6607143,286.2946429,293.3928571
24.1,293.3928571,293.3928571,292.6041667,287.8720238,287.8720238,291.0267857
24.2,291.8154762,294.1815476,288.6607143,286.2946429,289.4494048,291.0267857
24.3,291.8154762,294.1815476,287.8720238,286.2946429,289.4494048,290.2380952
24.4,291.8154762,294.1815476,287.8720238,286.2946429,289.4494048,289.4494048
24.5,291.8154762,294.1815476,287.0833333,286.2946429,289.4494048,288.6607143
24.7,288.6607143,294.9702381,279.1964286,283.139881,288.6607143,279.1964286
24.8,291.8154762,294.9702381,284.7172619,286.2946429,291.0267857,285.5059524
24.9,294.1815476,294.1815476,290.2380952,288.6607143,288.6607143,291.0267857
25,296.547619,292.6041667,298.9136905,291.0267857,287.0833333,293.3928571
25.1,298.9136905,291.0267857,301.2797619,294.1815476,285.5059524,293.3928571
25.2,298.9136905,291.8154762,298.9136905,293.3928571,286.2946429,294.1815476
25.3,296.547619,293.3928571,298.9136905,291.8154762,287.8720238,294.1815476
25.4,292.6041667,294.1815476,291.0267857,287.8720238,287.8720238,288.6607143
25.5,290.2380952,294.1815476,296.547619,285.5059524,287.8720238,288.6607143
25.6,291.8154762,293.3928571,298.9136905,287.0833333,287.8720238,293.3928571
25.7,294.1815476,291.0267857,303.6458333,289.4494048,286.2946429,298.125
25.8,295.7589286,288.6607143,309.1666667,291.0267857,283.139881,302.8571429
25.9,293.3928571,287.0833333,311.5327381,291.0267857,280.7738095,306.0119048
26,294.1815476,286.2946429,311.5327381,291.0267857,280.7738095,305.2232143
26.2,286.2946429,287.8720238,306.0119048,282.3511905,283.9285714,300.4910714
26.3,286.2946429,287.0833333,307.5892857,281.5625,281.5625,301.2797619
26.4,287.0833333,286.2946429,310.7440476,282.3511905,280.7738095,304.4345238
26.5,287.0833333,285.5059524,316.264881,283.139881,279.1964286,309.1666667
26.6,287.0833333,279.985119,318.6309524,283.139881,276.0416667,311.5327381
26.7,283.9285714,276.8303571,319.4196429,282.3511905,272.8869048,312.3214286
26.8,281.5625,278.4077381,314.6875,279.985119,274.4642857,308.3779762
26.9,282.3511905,283.139881,312.3214286,278.4077381,277.6190476,305.2232143
27,283.9285714,286.2946429,305.2232143,278.4077381,282.3511905,300.4910714
27.1,287.0833333,287.8720238,304.4345238,281.5625,281.5625,301.2797619
27.2,287.8720238,287.8720238,306.0119048,281.5625,281.5625,302.8571429
27.3,287.8720238,287.8720238,305.2232143,283.139881,282.3511905,302.0684524
27.4,289.4494048,290.2380952,298.9136905,284.7172619,283.9285714,294.1815476
27.5,288.6607143,291.0267857,293.3928571,283.9285714,286.2946429,293.3928571
27.6,289.4494048,292.6041667,291.8154762,284.7172619,287.0833333,292.6041667
27.7,286.2946429,294.1815476,284.7172619,280.7738095,287.0833333,285.5059524
27.8,286.2946429,274.4642857,283.139881,280.7738095,287.8720238,286.2946429
27.9,287.8720238,294.1815476,286.2946429,282.3511905,289.4494048,283.139881
28,290.2380952,294.9702381,287.8720238,285.5059524,288.6607143,290.2380952
28.1,292.6041667,293.3928571,290.2380952,287.0833333,287.8720238,291.8154762
28.2,293.3928571,275.2529762,291.0267857,287.8720238,287.8720238,288.6607143
28.3,293.3928571,293.3928571,287.8720238,287.8720238,288.6607143,288.6607143
28.4,291.8154762,294.9702381,286.2946429,286.2946429,288.6607143,288.6607143
28.5,287.0833333,295.7589286,279.985119,281.5625,288.6607143,280.7738095
28.6,287.8720238,294.9702381,279.985119,282.3511905,290.2380952,282.3511905
28.7,291.0267857,294.9702381,283.139881,284.7172619,290.2380952,280.7738095
28.8,292.6041667,294.9702381,285.5059524,287.0833333,289.4494048,286.2946429
28.9,294.1815476,293.3928571,287.8720238,288.6607143,287.8720238,288.6607143
29,294.9702381,292.6041667,288.6607143,289.4494048,287.8720238,288.6607143
29.1,293.3928571,294.1815476,284.7172619,287.8720238,289.4494048,285.5059524
29.3,287.8720238,276.0416667,281.5625,282.3511905,289.4494048,281.5625
29.6,294.1815476,276.0416667,286.2946429,288.6607143,289.4494048,286.2946429
29.7,295.7589286,292.6041667,287.8720238,289.4494048,287.8720238,288.6607143
29.8,295.7589286,292.6041667,286.2946429,290.2380952,288.6607143,287.8720238
29.9,293.3928571,294.1815476,284.7172619,287.8720238,290.2380952,285.5059524
30,288.6607143,295.7589286,279.1964286,283.139881,289.4494048,279.985119
30.1,288.6607143,294.9702381,279.1964286,283.139881,290.2380952,279.985119
30.2,290.2380952,295.7589286,280.7738095,284.7172619,291.0267857,283.139881
30.4,294.9702381,293.3928571,287.0833333,289.4494048,288.6607143,287.8720238
30.5,295.7589286,293.3928571,288.6607143,290.2380952,287.8720238,289.4494048
30.6,294.9702381,275.2529762,285.5059524,289.4494048,288.6607143,287.0833333
30.7,292.6041667,295.7589286,284.7172619,287.0833333,289.4494048,286.2946429
30.9,288.6607143,294.9702381,279.1964286,283.139881,290.2380952,281.5625
31,291.0267857,295.7589286,281.5625,285.5059524,290.2380952,282.3511905
31.2,295.7589286,275.2529762,287.8720238,289.4494048,272.0982143,288.6607143
31.3,295.7589286,275.2529762,288.6607143,290.2380952,287.0833333,289.4494048
31.5,292.6041667,293.3928571,283.9285714,287.0833333,288.6607143,284.7172619
31.8,291.8154762,296.547619,282.3511905,285.5059524,290.2380952,282.3511905
32,295.7589286,292.6041667,287.8720238,290.2380952,287.8720238,288.6607143
32.1,296.547619,275.2529762,287.8720238,290.2380952,287.0833333,288.6607143
32.4,288.6607143,276.0416667,276.8303571,283.139881,289.4494048,279.985119
32.5,290.2380952,295.7589286,277.6190476,284.7172619,291.0267857,279.1964286
32.8,297.3363095,291.8154762,287.8720238,291.8154762,287.0833333,283.9285714
32.9,297.3363095,276.0416667,287.0833333,291.8154762,287.0833333,284.7172619
33,294.9702381,276.0416667,283.139881,289.4494048,272.8869048,283.9285714
33.1,292.6041667,276.0416667,279.985119,287.0833333,272.8869048,279.985119
33.2,289.4494048,276.0416667,277.6190476,283.9285714,289.4494048,279.985119
33.3,290.2380952,276.0416667,278.4077381,285.5059524,272.8869048,279.1964286
33.5,295.7589286,276.0416667,285.5059524,290.2380952,289.4494048,283.139881
33.6,297.3363095,291.8154762,288.6607143,291.8154762,287.0833333,284.7172619
33.7,297.3363095,276.0416667,286.2946429,291.8154762,287.0833333,284.7172619
33.8,294.1815476,276.0416667,283.9285714,288.6607143,289.4494048,284.7172619
33.9,291.0267857,292.6041667,280.7738095,285.5059524,291.8154762,283.139881
34,287.8720238,294.9702381,279.1964286,282.3511905,291.0267857,280.7738095
34.2,291.8154762,294.9702381,287.0833333,285.5059524,290.2380952,287.0833333
34.4,294.1815476,274.4642857,289.4494048,287.8720238,286.2946429,292.6041667
34.5,294.1815476,294.9702381,291.0267857,287.8720238,287.8720238,291.0267857
35,290.2380952,295.7589286,284.7172619,284.7172619,290.2380952,288.6607143
35.2,294.9702381,292.6041667,289.4494048,288.6607143,287.0833333,291.0267857
35.3,294.9702381,274.4642857,291.0267857,288.6607143,287.8720238,291.0267857
35.5,291.8154762,294.9702381,283.9285714,286.2946429,289.4494048,287.0833333
36,294.9702381,274.4642857,288.6607143,288.6607143,287.0833333,290.2380952
36.1,295.7589286,274.4642857,288.6607143,289.4494048,287.0833333,291.0267857
36.4,287.8720238,295.7589286,283.139881,281.5625,289.4494048,280.7738095
36.5,288.6607143,296.547619,279.985119,282.3511905,289.4494048,282.3511905
36.6,290.2380952,296.547619,282.3511905,284.7172619,290.2380952,286.2946429
36.8,294.9702381,274.4642857,291.0267857,288.6607143,287.8720238,291.0267857
36.9,294.9702381,274.4642857,288.6607143,289.4494048,287.0833333,291.0267857
37.1,291.8154762,295.7589286,284.7172619,286.2946429,290.2380952,287.8720238
37.2,291.0267857,293.3928571,284.7172619,284.7172619,291.8154762,283.139881
37.4,287.8720238,296.547619,280.7738095,282.3511905,292.6041667,283.139881
37.5,291.0267857,295.7589286,285.5059524,285.5059524,290.2380952,287.0833333
37.7,294.9702381,274.4642857,288.6607143,289.4494048,287.0833333,291.0267857
37.8,294.9702381,274.4642857,287.8720238,289.4494048,287.8720238,290.2380952
37.9,292.6041667,294.9702381,284.7172619,286.2946429,289.4494048,287.8720238
38,291.8154762,295.7589286,287.0833333,285.5059524,290.2380952,287.8720238
38.1,288.6607143,295.7589286,282.3511905,282.3511905,288.6607143,280.7738095
38.2,287.8720238,295.7589286,279.985119,282.3511905,289.4494048,281.5625
38.5,294.1815476,274.4642857,287.8720238,288.6607143,287.8720238,290.2380952
38.6,294.9702381,274.4642857,288.6607143,288.6607143,287.0833333,291.0267857
38.7,294.1815476,274.4642857,286.2946429,288.6607143,287.8720238,289.4494048
38.9,291.8154762,294.9702381,283.9285714,285.5059524,288.6607143,287.8720238
39,287.0833333,294.9702381,282.3511905,281.5625,288.6607143,279.985119
39.2,290.2380952,296.547619,282.3511905,284.7172619,290.2380952,286.2946429
39.5,295.7589286,274.4642857,288.6607143,289.4494048,287.0833333,291.0267857
39.7,291.8154762,295.7589286,287.0833333,286.2946429,290.2380952,287.8720238
39.8,291.8154762,292.6041667,283.139881,285.5059524,288.6607143,287.0833333
39.9,287.0833333,294.9702381,282.3511905,281.5625,288.6607143,279.985119
40,287.8720238,296.547619,283.139881,282.3511905,289.4494048,282.3511905
40.1,291.0267857,296.547619,283.139881,284.7172619,290.2380952,286.2946429
40.3,294.9702381,274.4642857,288.6607143,288.6607143,287.0833333,291.0267857
40.4,295.7589286,274.4642857,287.8720238,289.4494048,287.0833333,291.0267857
40.6,291.8154762,295.7589286,287.0833333,286.2946429,290.2380952,287.8720238
40.7,290.2380952,293.3928571,283.9285714,284.7172619,291.8154762,282.3511905
40.9,288.6607143,296.547619,283.9285714,282.3511905,290.2380952,281.5625
41,291.0267857,296.547619,285.5059524,285.5059524,290.2380952,287.0833333
41.2,294.9702381,274.4642857,287.8720238,288.6607143,287.0833333,291.0267857
41.5,291.8154762,295.7589286,286.2946429,285.5059524,290.2380952,285.5059524
41.6,288.6607143,295.7589286,282.3511905,282.3511905,288.6607143,280.7738095
41.7,287.8720238,295.7589286,279.985119,282.3511905,289.4494048,281.5625
41.8,289.4494048,296.547619,282.3511905,283.9285714,290.2380952,283.139881
42.1,294.9702381,274.4642857,288.6607143,288.6607143,287.0833333,291.0267857
42.3,291.8154762,295.7589286,287.0833333,286.2946429,290.2380952,287.8720238
42.4,291.8154762,294.9702381,283.9285714,285.5059524,289.4494048,287.0833333
42.5,287.0833333,294.9702381,282.3511905,281.5625,288.6607143,279.985119
42.6,287.8720238,296.547619,279.985119,282.3511905,290.2380952,280.7738095
42.7,291.0267857,296.547619,282.3511905,284.7172619,290.2380952,286.2946429
43.4,287.8720238,294.9702381,282.3511905,282.3511905,288.6607143,284.7172619
43.5,288.6607143,295.7589286,280.7738095,282.3511905,290.2380952,281.5625
43.6,291.8154762,295.7589286,283.139881,285.5059524,289.4494048,287.0833333
43.8,295.7589286,274.4642857,287.8720238,289.4494048,286.2946429,291.0267857
43.9,295.7589286,274.4642857,289.4494048,289.4494048,287.0833333,290.2380952
44.3,288.6607143,275.2529762,279.1964286,282.3511905,288.6607143,280.7738095
44.4,290.2380952,294.9702381,282.3511905,283.9285714,289.4494048,283.9285714
44.6,294.9702381,274.4642857,287.0833333,288.6607143,287.0833333,290.2380952
44.7,294.9702381,274.4642857,288.6607143,288.6607143,286.2946429,291.0267857
44.9,292.6041667,294.1815476,287.0833333,286.2946429,288.6607143,287.0833333
45,291.8154762,291.8154762,283.139881,285.5059524,287.8720238,286.2946429
45.1,287.0833333,294.1815476,282.3511905,281.5625,287.8720238,279.985119
45.2,287.8720238,294.9702381,282.3511905,282.3511905,288.6607143,280.7738095
45.3,291.8154762,294.9702381,285.5059524,285.5059524,288.6607143,286.2946429
45.5,294.9702381,274.4642857,287.8720238,288.6607143,286.2946429,290.2380952
45.6,295.7589286,274.4642857,287.0833333,289.4494048,287.0833333,290.2380952
45.7,292.6041667,275.2529762,287.0833333,287.0833333,288.6607143,287.8720238
45.9,289.4494048,292.6041667,283.139881,283.139881,287.0833333,280.7738095
46,287.8720238,294.1815476,279.985119,282.3511905,287.8720238,280.7738095