%YAML 1.1
%TAG !u! tag:unity3d.com,2011:
--- !u!114 &11400000
MonoBehaviour:
  m_ObjectHideFlags: 0
  m_CorrespondingSourceObject: {fileID: 0}
  m_PrefabInstance: {fileID: 0}
  m_PrefabAsset: {fileID: 0}
  m_GameObject: {fileID: 0}
  m_Enabled: 1
  m_EditorHideFlags: 0
  m_Script: {fileID: 11500000, guid: bbb281ee3bf0b054c82ac2347e9e782c, type: 3}
  m_Name: Flow Aorta (sim)
  m_EditorClassIdentifier: 
  m_GroupName: Flow Aorta (sim)
  m_Data:
    m_SerializedData: []
  m_GUID: 5cc8965814c33fa478bca9a29da1f936
  m_SerializeEntries:
  - m_GUID: a8e9a70941e72664c889078f8fd9ca1b
    m_Address: Assets/Models/Flow Aorta (sim)/Assets
    m_ReadOnly: 0
    m_SerializedLabels: []
    FlaggedDuringContentUpdateRestriction: 0
  m_ReadOnly: 0
  m_Settings: {fileID: 11400000, guid: 93f02a1aa019b29498017fd53db231b9, type: 2}
  m_SchemaSet:
    m_Schemas:
    - {fileID: 11400000, guid: 7811efec6007bf0468a3dbdfb6ec7a90, type: 2}
    - {fileID: 11400000, guid: bfbece79718103e42b68cbc03cc989f3, type: 2}
