%YAML 1.1
%TAG !u! tag:unity3d.com,2011:
--- !u!114 &11400000
MonoBehaviour:
  m_ObjectHideFlags: 0
  m_CorrespondingSourceObject: {fileID: 0}
  m_PrefabInstance: {fileID: 0}
  m_PrefabAsset: {fileID: 0}
  m_GameObject: {fileID: 0}
  m_Enabled: 1
  m_EditorHideFlags: 0
  m_Script: {fileID: 11500000, guid: bbb281ee3bf0b054c82ac2347e9e782c, type: 3}
  m_Name: Human Skeleton
  m_EditorClassIdentifier: 
  m_GroupName: Human Skeleton
  m_Data:
    m_SerializedData: []
  m_GUID: d2041f06457b0904ab30f9c6c8b894f7
  m_SerializeEntries:
  - m_GUID: 930adfe252478e841b0b305b13299e4b
    m_Address: Assets/Models/Human Skeleton/Assets
    m_ReadOnly: 0
    m_SerializedLabels: []
    FlaggedDuringContentUpdateRestriction: 0
  - m_GUID: c9960ab477cdd6d4ea7fa2b1a04f57e7
    m_Address: Assets/Models/Human Skeleton/Ethmoid bone.prefab
    m_ReadOnly: 0
    m_SerializedLabels: []
    FlaggedDuringContentUpdateRestriction: 0
  - m_GUID: b738aac21cfa69544a7269c7595177a2
    m_Address: Assets/Models/Human Skeleton/Frontal bone.prefab
    m_ReadOnly: 0
    m_SerializedLabels: []
    FlaggedDuringContentUpdateRestriction: 0
  - m_GUID: eace01f12ea65d04b8f2ce188c457d89
    m_Address: Assets/Models/Human Skeleton/Occipital bone.prefab
    m_ReadOnly: 0
    m_SerializedLabels: []
    FlaggedDuringContentUpdateRestriction: 0
  - m_GUID: 1ef51dcb4d23b9844a80a13830113d4b
    m_Address: Assets/Models/Human Skeleton/Parietal bone.l.prefab
    m_ReadOnly: 0
    m_SerializedLabels: []
    FlaggedDuringContentUpdateRestriction: 0
  - m_GUID: ed22723c8c5ac1d49b3811ab37108a56
    m_Address: Assets/Models/Human Skeleton/Parietal bone.r.prefab
    m_ReadOnly: 0
    m_SerializedLabels: []
    FlaggedDuringContentUpdateRestriction: 0
  - m_GUID: 30ade00cae87ac0418ad10ebc00c2c4b
    m_Address: Assets/Models/Human Skeleton/Sphenoid bone.prefab
    m_ReadOnly: 0
    m_SerializedLabels: []
    FlaggedDuringContentUpdateRestriction: 0
  - m_GUID: 2eceecff107a39841b81b9db0de03957
    m_Address: Assets/Models/Human Skeleton/Temporal bone.l.prefab
    m_ReadOnly: 0
    m_SerializedLabels: []
    FlaggedDuringContentUpdateRestriction: 0
  - m_GUID: af656f2c84eec4641ae959fce8b78bb7
    m_Address: Assets/Models/Human Skeleton/Temporal bone.r.prefab
    m_ReadOnly: 0
    m_SerializedLabels: []
    FlaggedDuringContentUpdateRestriction: 0
  - m_GUID: 4f4e47be96af374429eaea9490d64505
    m_Address: Assets/Models/Human Skeleton/Inferior nasal concha bone.l.prefab
    m_ReadOnly: 0
    m_SerializedLabels: []
    FlaggedDuringContentUpdateRestriction: 0
  - m_GUID: d0564cf710b8de44d80948d0c73edbeb
    m_Address: Assets/Models/Human Skeleton/Inferior nasal concha bone.r.prefab
    m_ReadOnly: 0
    m_SerializedLabels: []
    FlaggedDuringContentUpdateRestriction: 0
  - m_GUID: e4f44ed3cfeeb404aa8c8153732263af
    m_Address: Assets/Models/Human Skeleton/Lacrimal bone.l.prefab
    m_ReadOnly: 0
    m_SerializedLabels: []
    FlaggedDuringContentUpdateRestriction: 0
  - m_GUID: 50e2aea6614b5184ab35d6fab00789a8
    m_Address: Assets/Models/Human Skeleton/Lacrimal bone.r.prefab
    m_ReadOnly: 0
    m_SerializedLabels: []
    FlaggedDuringContentUpdateRestriction: 0
  - m_GUID: bd56618c6d7a0ef46bbc5ce02a754e3e
    m_Address: Assets/Models/Human Skeleton/Mandible.prefab
    m_ReadOnly: 0
    m_SerializedLabels: []
    FlaggedDuringContentUpdateRestriction: 0
  - m_GUID: c93c5ed076dbb7f4f970d644bce0ed8c
    m_Address: Assets/Models/Human Skeleton/Maxilla.l.prefab
    m_ReadOnly: 0
    m_SerializedLabels: []
    FlaggedDuringContentUpdateRestriction: 0
  - m_GUID: 6d8952cef6ab88140aedd74e48aee0ea
    m_Address: Assets/Models/Human Skeleton/Maxilla.r.prefab
    m_ReadOnly: 0
    m_SerializedLabels: []
    FlaggedDuringContentUpdateRestriction: 0
  - m_GUID: 1378ddebd2a76494da1e192d52d7e32c
    m_Address: Assets/Models/Human Skeleton/Nasal bone.l.prefab
    m_ReadOnly: 0
    m_SerializedLabels: []
    FlaggedDuringContentUpdateRestriction: 0
  - m_GUID: 56b7f4357c2597b468e0745f7fa603e6
    m_Address: Assets/Models/Human Skeleton/Nasal bone.r.prefab
    m_ReadOnly: 0
    m_SerializedLabels: []
    FlaggedDuringContentUpdateRestriction: 0
  - m_GUID: 175b4c7f62e0e4a4e9286563dac0d1e0
    m_Address: Assets/Models/Human Skeleton/Palatine bone.l.prefab
    m_ReadOnly: 0
    m_SerializedLabels: []
    FlaggedDuringContentUpdateRestriction: 0
  - m_GUID: 04f3ebf752660804fbe6d4687610d22c
    m_Address: Assets/Models/Human Skeleton/Palatine bone.r.prefab
    m_ReadOnly: 0
    m_SerializedLabels: []
    FlaggedDuringContentUpdateRestriction: 0
  - m_GUID: 8c452e3bcdaec4e46a917f170118fd18
    m_Address: Assets/Models/Human Skeleton/Zygomatic bone.l.prefab
    m_ReadOnly: 0
    m_SerializedLabels: []
    FlaggedDuringContentUpdateRestriction: 0
  - m_GUID: 3bf3cf07ee427164aada727e6c9e0243
    m_Address: Assets/Models/Human Skeleton/Zygomatic bone.r.prefab
    m_ReadOnly: 0
    m_SerializedLabels: []
    FlaggedDuringContentUpdateRestriction: 0
  - m_GUID: 19d7b2ded9591d04aade698b7a117f2f
    m_Address: Assets/Models/Human Skeleton/Incus.l.prefab
    m_ReadOnly: 0
    m_SerializedLabels: []
    FlaggedDuringContentUpdateRestriction: 0
  - m_GUID: f9462364d35857f42be15996fb01a1cb
    m_Address: Assets/Models/Human Skeleton/Incus.r.prefab
    m_ReadOnly: 0
    m_SerializedLabels: []
    FlaggedDuringContentUpdateRestriction: 0
  - m_GUID: 501479025c5c2374286c3fa7dd8fdec1
    m_Address: Assets/Models/Human Skeleton/Malleus.l.prefab
    m_ReadOnly: 0
    m_SerializedLabels: []
    FlaggedDuringContentUpdateRestriction: 0
  - m_GUID: 8b8e7b151a1f8f648a263b057c5161b3
    m_Address: Assets/Models/Human Skeleton/Malleus.r.prefab
    m_ReadOnly: 0
    m_SerializedLabels: []
    FlaggedDuringContentUpdateRestriction: 0
  - m_GUID: a25c65b15d8e1b94c922431cbffa2b56
    m_Address: Assets/Models/Human Skeleton/Stapes.l.prefab
    m_ReadOnly: 0
    m_SerializedLabels: []
    FlaggedDuringContentUpdateRestriction: 0
  - m_GUID: 5906fa171972a3243a8362191f1ae758
    m_Address: Assets/Models/Human Skeleton/Stapes.r.prefab
    m_ReadOnly: 0
    m_SerializedLabels: []
    FlaggedDuringContentUpdateRestriction: 0
  - m_GUID: 19a23ac26b8152640932db4487251ee8
    m_Address: Assets/Models/Human Skeleton/Major alar cartilage.l.prefab
    m_ReadOnly: 0
    m_SerializedLabels: []
    FlaggedDuringContentUpdateRestriction: 0
  - m_GUID: ac7d5a6c12de0f443992816a39ba41c1
    m_Address: Assets/Models/Human Skeleton/Major alar cartilage.r.prefab
    m_ReadOnly: 0
    m_SerializedLabels: []
    FlaggedDuringContentUpdateRestriction: 0
  - m_GUID: dde36a6388e697a46a9e0a062658b982
    m_Address: Assets/Models/Human Skeleton/Lower canine.l.prefab
    m_ReadOnly: 0
    m_SerializedLabels: []
    FlaggedDuringContentUpdateRestriction: 0
  - m_GUID: c1713e75d8e25fd4c98a8183a13152f1
    m_Address: Assets/Models/Human Skeleton/Lower canine.r.prefab
    m_ReadOnly: 0
    m_SerializedLabels: []
    FlaggedDuringContentUpdateRestriction: 0
  - m_GUID: 96301d541d33c40468e2da4ea30f223d
    m_Address: Assets/Models/Human Skeleton/Lower first molar tooth.l.prefab
    m_ReadOnly: 0
    m_SerializedLabels: []
    FlaggedDuringContentUpdateRestriction: 0
  - m_GUID: bf57e9441f9f5c0468ab2739a6c70cd2
    m_Address: Assets/Models/Human Skeleton/Lower first molar tooth.r.prefab
    m_ReadOnly: 0
    m_SerializedLabels: []
    FlaggedDuringContentUpdateRestriction: 0
  - m_GUID: 95cc3a267f59e2940862e63e04edabc8
    m_Address: Assets/Models/Human Skeleton/Lower first premolar.l.prefab
    m_ReadOnly: 0
    m_SerializedLabels: []
    FlaggedDuringContentUpdateRestriction: 0
  - m_GUID: 4bfffa8844d9f4f4a95cb66ecce2170c
    m_Address: Assets/Models/Human Skeleton/Lower first premolar.r.prefab
    m_ReadOnly: 0
    m_SerializedLabels: []
    FlaggedDuringContentUpdateRestriction: 0
  - m_GUID: 37f1de2501ea6334e94ee4df07d08e08
    m_Address: Assets/Models/Human Skeleton/Lower lateral incisor.l.prefab
    m_ReadOnly: 0
    m_SerializedLabels: []
    FlaggedDuringContentUpdateRestriction: 0
  - m_GUID: dd79fa131d419d2408fe9ad30da38e9d
    m_Address: Assets/Models/Human Skeleton/Lower lateral incisor.r.prefab
    m_ReadOnly: 0
    m_SerializedLabels: []
    FlaggedDuringContentUpdateRestriction: 0
  - m_GUID: 74fe5bbfc27261b47a0d7720e0b53c9c
    m_Address: Assets/Models/Human Skeleton/Lower medial incisor.l.prefab
    m_ReadOnly: 0
    m_SerializedLabels: []
    FlaggedDuringContentUpdateRestriction: 0
  - m_GUID: d9b789fbf069688438cb32c3d0d73ead
    m_Address: Assets/Models/Human Skeleton/Lower medial incisor.r.prefab
    m_ReadOnly: 0
    m_SerializedLabels: []
    FlaggedDuringContentUpdateRestriction: 0
  - m_GUID: 69c98497709dee841a889d13ba9aae94
    m_Address: Assets/Models/Human Skeleton/Lower second molar tooth.l.prefab
    m_ReadOnly: 0
    m_SerializedLabels: []
    FlaggedDuringContentUpdateRestriction: 0
  - m_GUID: e70cd2bafb2ba65489c4ed59557ed2de
    m_Address: Assets/Models/Human Skeleton/Lower second molar tooth.r.prefab
    m_ReadOnly: 0
    m_SerializedLabels: []
    FlaggedDuringContentUpdateRestriction: 0
  - m_GUID: 46ff163391547734f8665a60ac1b389c
    m_Address: Assets/Models/Human Skeleton/Lower second premolar.l.prefab
    m_ReadOnly: 0
    m_SerializedLabels: []
    FlaggedDuringContentUpdateRestriction: 0
  - m_GUID: bcba6cc6137756447b4679c6c1b6e8f2
    m_Address: Assets/Models/Human Skeleton/Lower second premolar.r.prefab
    m_ReadOnly: 0
    m_SerializedLabels: []
    FlaggedDuringContentUpdateRestriction: 0
  - m_GUID: 98f85f32f09d000479b01bdf9a3619cb
    m_Address: Assets/Models/Human Skeleton/Upper canine.l.prefab
    m_ReadOnly: 0
    m_SerializedLabels: []
    FlaggedDuringContentUpdateRestriction: 0
  - m_GUID: 827dc3f57e09d554db4d7de2bdf97f57
    m_Address: Assets/Models/Human Skeleton/Upper canine.r.prefab
    m_ReadOnly: 0
    m_SerializedLabels: []
    FlaggedDuringContentUpdateRestriction: 0
  - m_GUID: 99194dbab119a22498dd8797d3514a12
    m_Address: Assets/Models/Human Skeleton/Upper first molar tooth.l.prefab
    m_ReadOnly: 0
    m_SerializedLabels: []
    FlaggedDuringContentUpdateRestriction: 0
  - m_GUID: e864f97142ee0d64785198ce0a8749fa
    m_Address: Assets/Models/Human Skeleton/Upper first molar tooth.r.prefab
    m_ReadOnly: 0
    m_SerializedLabels: []
    FlaggedDuringContentUpdateRestriction: 0
  - m_GUID: 2314ee06d17433d49821589ad3b8524a
    m_Address: Assets/Models/Human Skeleton/Upper first premolar.l.prefab
    m_ReadOnly: 0
    m_SerializedLabels: []
    FlaggedDuringContentUpdateRestriction: 0
  - m_GUID: 47aaa75e9a78a4d40ad2077e4707f188
    m_Address: Assets/Models/Human Skeleton/Upper first premolar.r.prefab
    m_ReadOnly: 0
    m_SerializedLabels: []
    FlaggedDuringContentUpdateRestriction: 0
  - m_GUID: 0f4581eb5e4996e4c945f562de3ec679
    m_Address: Assets/Models/Human Skeleton/Upper lateral incisor.l.prefab
    m_ReadOnly: 0
    m_SerializedLabels: []
    FlaggedDuringContentUpdateRestriction: 0
  - m_GUID: e5fddb914d1bcc54c9342821dc44a329
    m_Address: Assets/Models/Human Skeleton/Upper lateral incisor.r.prefab
    m_ReadOnly: 0
    m_SerializedLabels: []
    FlaggedDuringContentUpdateRestriction: 0
  - m_GUID: fbcba59b8ee17cb4aadac503344165be
    m_Address: Assets/Models/Human Skeleton/Upper medial incisor.l.prefab
    m_ReadOnly: 0
    m_SerializedLabels: []
    FlaggedDuringContentUpdateRestriction: 0
  - m_GUID: b6f12b6644e16b346bf50bb2c2712a8a
    m_Address: Assets/Models/Human Skeleton/Upper medial incisor.r.prefab
    m_ReadOnly: 0
    m_SerializedLabels: []
    FlaggedDuringContentUpdateRestriction: 0
  - m_GUID: b52c6f1266a7f91499e96f729082361e
    m_Address: Assets/Models/Human Skeleton/Upper second molar tooth.l.prefab
    m_ReadOnly: 0
    m_SerializedLabels: []
    FlaggedDuringContentUpdateRestriction: 0
  - m_GUID: c8d53cdf0eba20c4db09ae574ea75b50
    m_Address: Assets/Models/Human Skeleton/Upper second molar tooth.r.prefab
    m_ReadOnly: 0
    m_SerializedLabels: []
    FlaggedDuringContentUpdateRestriction: 0
  - m_GUID: 468cb981d0977ba45880ff75132e4ea7
    m_Address: Assets/Models/Human Skeleton/Upper second premolar.l.prefab
    m_ReadOnly: 0
    m_SerializedLabels: []
    FlaggedDuringContentUpdateRestriction: 0
  - m_GUID: 51fb4ad52f24d0b48be452f8cf19ac5f
    m_Address: Assets/Models/Human Skeleton/Upper second premolar.r.prefab
    m_ReadOnly: 0
    m_SerializedLabels: []
    FlaggedDuringContentUpdateRestriction: 0
  - m_GUID: affe119baab9f3744ad51b5bcaf62e50
    m_Address: Assets/Models/Human Skeleton/Arytenoid cartilage.l.prefab
    m_ReadOnly: 0
    m_SerializedLabels: []
    FlaggedDuringContentUpdateRestriction: 0
  - m_GUID: c92a43e9537d3404fa9c6f3bd71dd72e
    m_Address: Assets/Models/Human Skeleton/Arytenoid cartilage.r.prefab
    m_ReadOnly: 0
    m_SerializedLabels: []
    FlaggedDuringContentUpdateRestriction: 0
  - m_GUID: e4db1e394e385aa449e40dc11d7fe7d7
    m_Address: Assets/Models/Human Skeleton/Cricoid cartilage.prefab
    m_ReadOnly: 0
    m_SerializedLabels: []
    FlaggedDuringContentUpdateRestriction: 0
  - m_GUID: 56f1dd6dd017fb64f88d129dbb6c50c8
    m_Address: Assets/Models/Human Skeleton/Corniculate cartilage.l.prefab
    m_ReadOnly: 0
    m_SerializedLabels: []
    FlaggedDuringContentUpdateRestriction: 0
  - m_GUID: 29806a7a533c0a647b8c7657f1014ed8
    m_Address: Assets/Models/Human Skeleton/Corniculate cartilage.r.prefab
    m_ReadOnly: 0
    m_SerializedLabels: []
    FlaggedDuringContentUpdateRestriction: 0
  - m_GUID: 1284c15561d253d44943ba4fab79a7e3
    m_Address: Assets/Models/Human Skeleton/Vertebra C3.prefab
    m_ReadOnly: 0
    m_SerializedLabels: []
    FlaggedDuringContentUpdateRestriction: 0
  - m_GUID: f9074cd0ecbbcd44b91cd2e2518c2306
    m_Address: Assets/Models/Human Skeleton/Vertebra C4.prefab
    m_ReadOnly: 0
    m_SerializedLabels: []
    FlaggedDuringContentUpdateRestriction: 0
  - m_GUID: 38492df065cbfc244bf75c804e6a8532
    m_Address: Assets/Models/Human Skeleton/Vertebra C5.prefab
    m_ReadOnly: 0
    m_SerializedLabels: []
    FlaggedDuringContentUpdateRestriction: 0
  - m_GUID: 114d7cf247e3bc84fbe7476eba8213e0
    m_Address: Assets/Models/Human Skeleton/Vertebra C6.prefab
    m_ReadOnly: 0
    m_SerializedLabels: []
    FlaggedDuringContentUpdateRestriction: 0
  - m_GUID: f4922621f8602784a827903324afc8f3
    m_Address: Assets/Models/Human Skeleton/Vertebra C7.prefab
    m_ReadOnly: 0
    m_SerializedLabels: []
    FlaggedDuringContentUpdateRestriction: 0
  - m_GUID: 30dfaaeae4e07ca44a80a5a51f2086f6
    m_Address: Assets/Models/Human Skeleton/Vertebra T1.prefab
    m_ReadOnly: 0
    m_SerializedLabels: []
    FlaggedDuringContentUpdateRestriction: 0
  - m_GUID: e4a067edecabeb84c9db73a70c3e8f57
    m_Address: Assets/Models/Human Skeleton/Vertebra T10.prefab
    m_ReadOnly: 0
    m_SerializedLabels: []
    FlaggedDuringContentUpdateRestriction: 0
  - m_GUID: 55185b2a5f2846d4b8bc4c08e90cc35b
    m_Address: Assets/Models/Human Skeleton/Vertebra T11.prefab
    m_ReadOnly: 0
    m_SerializedLabels: []
    FlaggedDuringContentUpdateRestriction: 0
  - m_GUID: 3ed790c46fef16d40a85a9716e26db35
    m_Address: Assets/Models/Human Skeleton/Vertebra T12.prefab
    m_ReadOnly: 0
    m_SerializedLabels: []
    FlaggedDuringContentUpdateRestriction: 0
  - m_GUID: d919aa11db0a48145aa5e7dfbe38e334
    m_Address: Assets/Models/Human Skeleton/Vertebra T2.prefab
    m_ReadOnly: 0
    m_SerializedLabels: []
    FlaggedDuringContentUpdateRestriction: 0
  - m_GUID: f190cf215ac75674b943c2665141cbd8
    m_Address: Assets/Models/Human Skeleton/Vertebra T3.prefab
    m_ReadOnly: 0
    m_SerializedLabels: []
    FlaggedDuringContentUpdateRestriction: 0
  - m_GUID: 160f47186943d62438c8c87c6a831534
    m_Address: Assets/Models/Human Skeleton/Vertebra T4.prefab
    m_ReadOnly: 0
    m_SerializedLabels: []
    FlaggedDuringContentUpdateRestriction: 0
  - m_GUID: 76f1f14e38206c345a8397ff1c2ee1f8
    m_Address: Assets/Models/Human Skeleton/Vertebra T5.prefab
    m_ReadOnly: 0
    m_SerializedLabels: []
    FlaggedDuringContentUpdateRestriction: 0
  - m_GUID: 61a2bccaacd54004a9dd7e01a9bffa56
    m_Address: Assets/Models/Human Skeleton/Vertebra T6.prefab
    m_ReadOnly: 0
    m_SerializedLabels: []
    FlaggedDuringContentUpdateRestriction: 0
  - m_GUID: f0a33891f7c2fbb468619945b1f0dff8
    m_Address: Assets/Models/Human Skeleton/Vertebra T7.prefab
    m_ReadOnly: 0
    m_SerializedLabels: []
    FlaggedDuringContentUpdateRestriction: 0
  - m_GUID: 212cf1baee4302f45a49921ef32a9dcf
    m_Address: Assets/Models/Human Skeleton/Vertebra T8.prefab
    m_ReadOnly: 0
    m_SerializedLabels: []
    FlaggedDuringContentUpdateRestriction: 0
  - m_GUID: 65fa679ab032b8f4ea9c4b9ae3db1dfb
    m_Address: Assets/Models/Human Skeleton/Vertebra T9.prefab
    m_ReadOnly: 0
    m_SerializedLabels: []
    FlaggedDuringContentUpdateRestriction: 0
  - m_GUID: 8f44b801784e3474ab074df29fb196bd
    m_Address: Assets/Models/Human Skeleton/Vertebra L1.prefab
    m_ReadOnly: 0
    m_SerializedLabels: []
    FlaggedDuringContentUpdateRestriction: 0
  - m_GUID: 53b2f5c792734a44fbaffb1e7b371310
    m_Address: Assets/Models/Human Skeleton/Vertebra L2.prefab
    m_ReadOnly: 0
    m_SerializedLabels: []
    FlaggedDuringContentUpdateRestriction: 0
  - m_GUID: e990312403d73c0438738b29d0b8967c
    m_Address: Assets/Models/Human Skeleton/Vertebra L3.prefab
    m_ReadOnly: 0
    m_SerializedLabels: []
    FlaggedDuringContentUpdateRestriction: 0
  - m_GUID: a8054195721577a4daa90d8e438d63c6
    m_Address: Assets/Models/Human Skeleton/Vertebra L4.prefab
    m_ReadOnly: 0
    m_SerializedLabels: []
    FlaggedDuringContentUpdateRestriction: 0
  - m_GUID: 0e6f8a9a64847044d9916a3a2ff6d916
    m_Address: Assets/Models/Human Skeleton/Vertebra L5.prefab
    m_ReadOnly: 0
    m_SerializedLabels: []
    FlaggedDuringContentUpdateRestriction: 0
  - m_GUID: e958d42d9a08305489b70b86a1276b45
    m_Address: Assets/Models/Human Skeleton/Sacrum.prefab
    m_ReadOnly: 0
    m_SerializedLabels: []
    FlaggedDuringContentUpdateRestriction: 0
  - m_GUID: 847e0b046fafeaa4a9b41253d79fce96
    m_Address: Assets/Models/Human Skeleton/Coccyx.prefab
    m_ReadOnly: 0
    m_SerializedLabels: []
    FlaggedDuringContentUpdateRestriction: 0
  - m_GUID: f97bcf4d6a2ee91409c98bd44e2cc231
    m_Address: Assets/Models/Human Skeleton/Costal cartilage of eighth rib.l.prefab
    m_ReadOnly: 0
    m_SerializedLabels: []
    FlaggedDuringContentUpdateRestriction: 0
  - m_GUID: 2d662b782647a7c4eb1db4b1a0060e88
    m_Address: Assets/Models/Human Skeleton/Costal cartilage of eighth rib.r.prefab
    m_ReadOnly: 0
    m_SerializedLabels: []
    FlaggedDuringContentUpdateRestriction: 0
  - m_GUID: 84f32499ee7947d46bba2f3ba630e718
    m_Address: Assets/Models/Human Skeleton/Costal cartilage of fifth rib.l.prefab
    m_ReadOnly: 0
    m_SerializedLabels: []
    FlaggedDuringContentUpdateRestriction: 0
  - m_GUID: 580f6bc422e7b7640ae9f86a8df4a16d
    m_Address: Assets/Models/Human Skeleton/Costal cartilage of fifth rib.r.prefab
    m_ReadOnly: 0
    m_SerializedLabels: []
    FlaggedDuringContentUpdateRestriction: 0
  - m_GUID: cda7ac603e9fdcc4990e75940d2a1f66
    m_Address: Assets/Models/Human Skeleton/Costal cartilage of first rib.l.prefab
    m_ReadOnly: 0
    m_SerializedLabels: []
    FlaggedDuringContentUpdateRestriction: 0
  - m_GUID: ad296c533ad33054ab9b36fa3a3d91c0
    m_Address: Assets/Models/Human Skeleton/Costal cartilage of first rib.r.prefab
    m_ReadOnly: 0
    m_SerializedLabels: []
    FlaggedDuringContentUpdateRestriction: 0
  - m_GUID: c81c773e4fc4cff45a4a1c2b5fec2790
    m_Address: Assets/Models/Human Skeleton/Costal cartilage of fourth rib.l.prefab
    m_ReadOnly: 0
    m_SerializedLabels: []
    FlaggedDuringContentUpdateRestriction: 0
  - m_GUID: 082a100267232c441b66ac6db0396573
    m_Address: Assets/Models/Human Skeleton/Costal cartilage of fourth rib.r.prefab
    m_ReadOnly: 0
    m_SerializedLabels: []
    FlaggedDuringContentUpdateRestriction: 0
  - m_GUID: f58d587e806117a4c8d5d531e172eca3
    m_Address: Assets/Models/Human Skeleton/Costal cartilage of ninth rib.l.prefab
    m_ReadOnly: 0
    m_SerializedLabels: []
    FlaggedDuringContentUpdateRestriction: 0
  - m_GUID: 5b2019e13916ad74085fa56a2f7e2ce6
    m_Address: Assets/Models/Human Skeleton/Costal cartilage of ninth rib.r.prefab
    m_ReadOnly: 0
    m_SerializedLabels: []
    FlaggedDuringContentUpdateRestriction: 0
  - m_GUID: 404feb0eb5eae664aa297a536bea2f4a
    m_Address: Assets/Models/Human Skeleton/Costal cartilage of second rib.l.prefab
    m_ReadOnly: 0
    m_SerializedLabels: []
    FlaggedDuringContentUpdateRestriction: 0
  - m_GUID: e573151a939293e40b5dca0714977b3b
    m_Address: Assets/Models/Human Skeleton/Costal cartilage of second rib.r.prefab
    m_ReadOnly: 0
    m_SerializedLabels: []
    FlaggedDuringContentUpdateRestriction: 0
  - m_GUID: 2d9a40d43d9984642bf90aab9bedb587
    m_Address: Assets/Models/Human Skeleton/Costal cartilage of seventh rib.l.prefab
    m_ReadOnly: 0
    m_SerializedLabels: []
    FlaggedDuringContentUpdateRestriction: 0
  - m_GUID: 726a07020b51bea418c7245595bb75e6
    m_Address: Assets/Models/Human Skeleton/Costal cartilage of seventh rib.r.prefab
    m_ReadOnly: 0
    m_SerializedLabels: []
    FlaggedDuringContentUpdateRestriction: 0
  - m_GUID: b81294f9ac4bffc4491d967073b75ed5
    m_Address: Assets/Models/Human Skeleton/Costal cartilage of sixth rib.l.prefab
    m_ReadOnly: 0
    m_SerializedLabels: []
    FlaggedDuringContentUpdateRestriction: 0
  - m_GUID: 24c287b3143f7054ba335aef4a70191e
    m_Address: Assets/Models/Human Skeleton/Costal cartilage of sixth rib.r.prefab
    m_ReadOnly: 0
    m_SerializedLabels: []
    FlaggedDuringContentUpdateRestriction: 0
  - m_GUID: d246809a1abcf604fb8c6b189d15d635
    m_Address: Assets/Models/Human Skeleton/Costal cartilage of tenth rib.l.prefab
    m_ReadOnly: 0
    m_SerializedLabels: []
    FlaggedDuringContentUpdateRestriction: 0
  - m_GUID: e45378ddcdcce884c837b96d81b73d65
    m_Address: Assets/Models/Human Skeleton/Costal cartilage of tenth rib.r.prefab
    m_ReadOnly: 0
    m_SerializedLabels: []
    FlaggedDuringContentUpdateRestriction: 0
  - m_GUID: 2c3b6c780c548e64485b578fa0decf5f
    m_Address: Assets/Models/Human Skeleton/Costal cartilage of third rib.l.prefab
    m_ReadOnly: 0
    m_SerializedLabels: []
    FlaggedDuringContentUpdateRestriction: 0
  - m_GUID: 667af213d3efd9d4d9d9498bbfb242b5
    m_Address: Assets/Models/Human Skeleton/Costal cartilage of third rib.r.prefab
    m_ReadOnly: 0
    m_SerializedLabels: []
    FlaggedDuringContentUpdateRestriction: 0
  - m_GUID: 86114fb3093a973439e0e045bc782c2a
    m_Address: Assets/Models/Human Skeleton/First rib.l.prefab
    m_ReadOnly: 0
    m_SerializedLabels: []
    FlaggedDuringContentUpdateRestriction: 0
  - m_GUID: cabb89e5cbf1c4e4ab58c8f5bb66a513
    m_Address: Assets/Models/Human Skeleton/First rib.r.prefab
    m_ReadOnly: 0
    m_SerializedLabels: []
    FlaggedDuringContentUpdateRestriction: 0
  - m_GUID: 77e04cc68844af64cba8b931b6ed8705
    m_Address: Assets/Models/Human Skeleton/Second rib.l.prefab
    m_ReadOnly: 0
    m_SerializedLabels: []
    FlaggedDuringContentUpdateRestriction: 0
  - m_GUID: b486dd35ed7bc614e9caae5fdc876368
    m_Address: Assets/Models/Human Skeleton/Second rib.r.prefab
    m_ReadOnly: 0
    m_SerializedLabels: []
    FlaggedDuringContentUpdateRestriction: 0
  - m_GUID: 6437f51fb6bf83949bd93f5628fcdafc
    m_Address: Assets/Models/Human Skeleton/Third rib.l.prefab
    m_ReadOnly: 0
    m_SerializedLabels: []
    FlaggedDuringContentUpdateRestriction: 0
  - m_GUID: 1ee95eddadfb91c4ba8bde388afb0c89
    m_Address: Assets/Models/Human Skeleton/Third rib.r.prefab
    m_ReadOnly: 0
    m_SerializedLabels: []
    FlaggedDuringContentUpdateRestriction: 0
  - m_GUID: d4e2f888aa782804fb71e0538ac6222b
    m_Address: Assets/Models/Human Skeleton/Fourth rib.l.prefab
    m_ReadOnly: 0
    m_SerializedLabels: []
    FlaggedDuringContentUpdateRestriction: 0
  - m_GUID: 0f25f9ed6a3459b4bbc878e2a6dd9ec7
    m_Address: Assets/Models/Human Skeleton/Fourth rib.r.prefab
    m_ReadOnly: 0
    m_SerializedLabels: []
    FlaggedDuringContentUpdateRestriction: 0
  - m_GUID: 5ace13508c714b649930742ef6c66b3d
    m_Address: Assets/Models/Human Skeleton/Fifth rib.l.prefab
    m_ReadOnly: 0
    m_SerializedLabels: []
    FlaggedDuringContentUpdateRestriction: 0
  - m_GUID: 379fb8d14658e5a48b4e1c52151a4947
    m_Address: Assets/Models/Human Skeleton/Fifth rib.r.prefab
    m_ReadOnly: 0
    m_SerializedLabels: []
    FlaggedDuringContentUpdateRestriction: 0
  - m_GUID: 0d3a9a72b69e8c946860a06eb20f4ff4
    m_Address: Assets/Models/Human Skeleton/Sixth rib.l.prefab
    m_ReadOnly: 0
    m_SerializedLabels: []
    FlaggedDuringContentUpdateRestriction: 0
  - m_GUID: a20cd6bec0ae22040afbe1434f61b4cb
    m_Address: Assets/Models/Human Skeleton/Sixth rib.r.prefab
    m_ReadOnly: 0
    m_SerializedLabels: []
    FlaggedDuringContentUpdateRestriction: 0
  - m_GUID: 58ac1c694d7c71043983c3beb58cad48
    m_Address: Assets/Models/Human Skeleton/Seventh rib.l.prefab
    m_ReadOnly: 0
    m_SerializedLabels: []
    FlaggedDuringContentUpdateRestriction: 0
  - m_GUID: 0b899f8a3cf73254d91dd4898dc4cc5e
    m_Address: Assets/Models/Human Skeleton/Seventh rib.r.prefab
    m_ReadOnly: 0
    m_SerializedLabels: []
    FlaggedDuringContentUpdateRestriction: 0
  - m_GUID: 485254d775f00444bb84bae02582f7cf
    m_Address: Assets/Models/Human Skeleton/Eighth rib.l.prefab
    m_ReadOnly: 0
    m_SerializedLabels: []
    FlaggedDuringContentUpdateRestriction: 0
  - m_GUID: 013114f4ca196d145ad9ebc9433b05f6
    m_Address: Assets/Models/Human Skeleton/Eighth rib.r.prefab
    m_ReadOnly: 0
    m_SerializedLabels: []
    FlaggedDuringContentUpdateRestriction: 0
  - m_GUID: 784e562c35ef1e546be176cd0404c12c
    m_Address: Assets/Models/Human Skeleton/Ninth rib.l.prefab
    m_ReadOnly: 0
    m_SerializedLabels: []
    FlaggedDuringContentUpdateRestriction: 0
  - m_GUID: e0a0eefc0b54fd64f8f90222fa7b10a8
    m_Address: Assets/Models/Human Skeleton/Ninth rib.r.prefab
    m_ReadOnly: 0
    m_SerializedLabels: []
    FlaggedDuringContentUpdateRestriction: 0
  - m_GUID: 053a59d6849f72f4fac1ac76bad573d9
    m_Address: Assets/Models/Human Skeleton/Tenth rib.l.prefab
    m_ReadOnly: 0
    m_SerializedLabels: []
    FlaggedDuringContentUpdateRestriction: 0
  - m_GUID: 254eb35b0bd65b247817c27f35427172
    m_Address: Assets/Models/Human Skeleton/Tenth rib.r.prefab
    m_ReadOnly: 0
    m_SerializedLabels: []
    FlaggedDuringContentUpdateRestriction: 0
  - m_GUID: a74d2801d018c004cb79a779e09d8768
    m_Address: Assets/Models/Human Skeleton/Eleventh rib.l.prefab
    m_ReadOnly: 0
    m_SerializedLabels: []
    FlaggedDuringContentUpdateRestriction: 0
  - m_GUID: e74da247905870647922f05fcd6e169f
    m_Address: Assets/Models/Human Skeleton/Eleventh rib.r.prefab
    m_ReadOnly: 0
    m_SerializedLabels: []
    FlaggedDuringContentUpdateRestriction: 0
  - m_GUID: ed6bfc888dea20247a10baafd6646648
    m_Address: Assets/Models/Human Skeleton/Clavicle.l.prefab
    m_ReadOnly: 0
    m_SerializedLabels: []
    FlaggedDuringContentUpdateRestriction: 0
  - m_GUID: ef070a0f23552bc41871c962393e10b6
    m_Address: Assets/Models/Human Skeleton/Clavicle.r.prefab
    m_ReadOnly: 0
    m_SerializedLabels: []
    FlaggedDuringContentUpdateRestriction: 0
  - m_GUID: ba2b8c70874fda342a081904f7a98a41
    m_Address: Assets/Models/Human Skeleton/Scapula.l.prefab
    m_ReadOnly: 0
    m_SerializedLabels: []
    FlaggedDuringContentUpdateRestriction: 0
  - m_GUID: 8d7c1d69875bb414a851b7d860175227
    m_Address: Assets/Models/Human Skeleton/Scapula.r.prefab
    m_ReadOnly: 0
    m_SerializedLabels: []
    FlaggedDuringContentUpdateRestriction: 0
  - m_GUID: c06f292fd3bba2749967020e7f13f6c7
    m_Address: Assets/Models/Human Skeleton/Hip bone.l.prefab
    m_ReadOnly: 0
    m_SerializedLabels: []
    FlaggedDuringContentUpdateRestriction: 0
  - m_GUID: 456857a3406545b4b9fdb53fb6eaa4fd
    m_Address: Assets/Models/Human Skeleton/Hip bone.r.prefab
    m_ReadOnly: 0
    m_SerializedLabels: []
    FlaggedDuringContentUpdateRestriction: 0
  - m_GUID: 216d1051d9c05424eabb6629f8437ba7
    m_Address: Assets/Models/Human Skeleton/Hamate bone.l.prefab
    m_ReadOnly: 0
    m_SerializedLabels: []
    FlaggedDuringContentUpdateRestriction: 0
  - m_GUID: 92ddebb965d3219409d157afacedc5f5
    m_Address: Assets/Models/Human Skeleton/Hamate bone.r.prefab
    m_ReadOnly: 0
    m_SerializedLabels: []
    FlaggedDuringContentUpdateRestriction: 0
  - m_GUID: 0c39b86abb0689f419401d5f491da201
    m_Address: Assets/Models/Human Skeleton/Lunate bone.l.prefab
    m_ReadOnly: 0
    m_SerializedLabels: []
    FlaggedDuringContentUpdateRestriction: 0
  - m_GUID: 63accb0525e2b0c45802e10b4f8997eb
    m_Address: Assets/Models/Human Skeleton/Lunate bone.r.prefab
    m_ReadOnly: 0
    m_SerializedLabels: []
    FlaggedDuringContentUpdateRestriction: 0
  - m_GUID: ad08b405759f5d74a991e027e2414466
    m_Address: Assets/Models/Human Skeleton/Pisiform bone.l.prefab
    m_ReadOnly: 0
    m_SerializedLabels: []
    FlaggedDuringContentUpdateRestriction: 0
  - m_GUID: 84c56afcea3338443a2bd23d843b83c2
    m_Address: Assets/Models/Human Skeleton/Pisiform bone.r.prefab
    m_ReadOnly: 0
    m_SerializedLabels: []
    FlaggedDuringContentUpdateRestriction: 0
  - m_GUID: fd30718c1b87bd94c97be8685d21e9a0
    m_Address: Assets/Models/Human Skeleton/Scaphoid bone.l.prefab
    m_ReadOnly: 0
    m_SerializedLabels: []
    FlaggedDuringContentUpdateRestriction: 0
  - m_GUID: 800a68b6088322f4085092ce2fb25473
    m_Address: Assets/Models/Human Skeleton/Scaphoid bone.r.prefab
    m_ReadOnly: 0
    m_SerializedLabels: []
    FlaggedDuringContentUpdateRestriction: 0
  - m_GUID: e15bb84961c4a79459a8ca8da294396a
    m_Address: Assets/Models/Human Skeleton/Trapezium bone.l.prefab
    m_ReadOnly: 0
    m_SerializedLabels: []
    FlaggedDuringContentUpdateRestriction: 0
  - m_GUID: ea22490b139d19744891f0263730cef3
    m_Address: Assets/Models/Human Skeleton/Trapezium bone.r.prefab
    m_ReadOnly: 0
    m_SerializedLabels: []
    FlaggedDuringContentUpdateRestriction: 0
  - m_GUID: 5e6bbf8ab78c0ed44a5f00eff2d6b094
    m_Address: Assets/Models/Human Skeleton/Trapezoid bone.l.prefab
    m_ReadOnly: 0
    m_SerializedLabels: []
    FlaggedDuringContentUpdateRestriction: 0
  - m_GUID: f1c2c3dbb2a2ecc409b9d09d4404045e
    m_Address: Assets/Models/Human Skeleton/Trapezoid bone.r.prefab
    m_ReadOnly: 0
    m_SerializedLabels: []
    FlaggedDuringContentUpdateRestriction: 0
  - m_GUID: f361a585be93b984280c44eac34c9216
    m_Address: Assets/Models/Human Skeleton/Triquetrum bone.l.prefab
    m_ReadOnly: 0
    m_SerializedLabels: []
    FlaggedDuringContentUpdateRestriction: 0
  - m_GUID: 0c6eac14f0fb17548aabf72e20027e12
    m_Address: Assets/Models/Human Skeleton/Triquetrum bone.r.prefab
    m_ReadOnly: 0
    m_SerializedLabels: []
    FlaggedDuringContentUpdateRestriction: 0
  - m_GUID: 23facaffd1dc4eb45b235daf942b046b
    m_Address: Assets/Models/Human Skeleton/First metacarpal bone.l.prefab
    m_ReadOnly: 0
    m_SerializedLabels: []
    FlaggedDuringContentUpdateRestriction: 0
  - m_GUID: 90b0c802af5e882499ca79563929b772
    m_Address: Assets/Models/Human Skeleton/First metacarpal bone.r.prefab
    m_ReadOnly: 0
    m_SerializedLabels: []
    FlaggedDuringContentUpdateRestriction: 0
  - m_GUID: be1c9c20ebea2e7469da7a2ebf165c49
    m_Address: Assets/Models/Human Skeleton/Second metacarpal bone.l.prefab
    m_ReadOnly: 0
    m_SerializedLabels: []
    FlaggedDuringContentUpdateRestriction: 0
  - m_GUID: 6e19c805a629c644aaa0dc2a6cc9cbc0
    m_Address: Assets/Models/Human Skeleton/Second metacarpal bone.r.prefab
    m_ReadOnly: 0
    m_SerializedLabels: []
    FlaggedDuringContentUpdateRestriction: 0
  - m_GUID: 3c3953baf3499f64584fed256cb99d7d
    m_Address: Assets/Models/Human Skeleton/Third metacarpal bone.l.prefab
    m_ReadOnly: 0
    m_SerializedLabels: []
    FlaggedDuringContentUpdateRestriction: 0
  - m_GUID: efe9713ebc2221d4d975aa15a0c634aa
    m_Address: Assets/Models/Human Skeleton/Third metacarpal bone.r.prefab
    m_ReadOnly: 0
    m_SerializedLabels: []
    FlaggedDuringContentUpdateRestriction: 0
  - m_GUID: d404d01b4a939d0478077ad1f46ba4bc
    m_Address: Assets/Models/Human Skeleton/Fourth metacarpal bone.l.prefab
    m_ReadOnly: 0
    m_SerializedLabels: []
    FlaggedDuringContentUpdateRestriction: 0
  - m_GUID: cb64554424cdd7f428d12f904ce5aa13
    m_Address: Assets/Models/Human Skeleton/Fourth metacarpal bone.r.prefab
    m_ReadOnly: 0
    m_SerializedLabels: []
    FlaggedDuringContentUpdateRestriction: 0
  - m_GUID: 7e0a41c294a84234691d9e12ca509618
    m_Address: Assets/Models/Human Skeleton/Fifth metacarpal bone.l.prefab
    m_ReadOnly: 0
    m_SerializedLabels: []
    FlaggedDuringContentUpdateRestriction: 0
  - m_GUID: 67d458e43feaf9f4c9945448d25baf0b
    m_Address: Assets/Models/Human Skeleton/Fifth metacarpal bone.r.prefab
    m_ReadOnly: 0
    m_SerializedLabels: []
    FlaggedDuringContentUpdateRestriction: 0
  - m_GUID: 44334637424241b4b83e5de01b3f9343
    m_Address: Assets/Models/Human Skeleton/Distal phalanx of fifth finger of hand.l.prefab
    m_ReadOnly: 0
    m_SerializedLabels: []
    FlaggedDuringContentUpdateRestriction: 0
  - m_GUID: b30aee22e99c26242a18aaee3b325095
    m_Address: Assets/Models/Human Skeleton/Distal phalanx of fifth finger of hand.r.prefab
    m_ReadOnly: 0
    m_SerializedLabels: []
    FlaggedDuringContentUpdateRestriction: 0
  - m_GUID: 756ee34aeac421a43988fd60a6ff981a
    m_Address: Assets/Models/Human Skeleton/Distal phalanx of first finger of hand.l.prefab
    m_ReadOnly: 0
    m_SerializedLabels: []
    FlaggedDuringContentUpdateRestriction: 0
  - m_GUID: 99ee4bda0be552e4ba79cfa4aabc54e5
    m_Address: Assets/Models/Human Skeleton/Distal phalanx of first finger of hand.r.prefab
    m_ReadOnly: 0
    m_SerializedLabels: []
    FlaggedDuringContentUpdateRestriction: 0
  - m_GUID: dca1d57f88e867a4cbe72b06cb846a64
    m_Address: Assets/Models/Human Skeleton/Distal phalanx of fourth finger of hand.l.prefab
    m_ReadOnly: 0
    m_SerializedLabels: []
    FlaggedDuringContentUpdateRestriction: 0
  - m_GUID: c595779cbab3d944fabe9afad7a5076a
    m_Address: Assets/Models/Human Skeleton/Distal phalanx of fourth finger of hand.r.prefab
    m_ReadOnly: 0
    m_SerializedLabels: []
    FlaggedDuringContentUpdateRestriction: 0
  - m_GUID: 0f47a2a4a5379814bb60b101d377eb91
    m_Address: Assets/Models/Human Skeleton/Distal phalanx of second finger of hand.l.prefab
    m_ReadOnly: 0
    m_SerializedLabels: []
    FlaggedDuringContentUpdateRestriction: 0
  - m_GUID: 28e681a6a2aecee49915c1ff2459afe9
    m_Address: Assets/Models/Human Skeleton/Distal phalanx of second finger of hand.r.prefab
    m_ReadOnly: 0
    m_SerializedLabels: []
    FlaggedDuringContentUpdateRestriction: 0
  - m_GUID: c6a4b31835749374d81968ddd3ca2302
    m_Address: Assets/Models/Human Skeleton/Distal phalanx of third finger of hand.l.prefab
    m_ReadOnly: 0
    m_SerializedLabels: []
    FlaggedDuringContentUpdateRestriction: 0
  - m_GUID: 73fcff5650bccd546a64d60d786f9e35
    m_Address: Assets/Models/Human Skeleton/Distal phalanx of third finger of hand.r.prefab
    m_ReadOnly: 0
    m_SerializedLabels: []
    FlaggedDuringContentUpdateRestriction: 0
  - m_GUID: 9f144a04f039c6e429a98910acfbc3cd
    m_Address: Assets/Models/Human Skeleton/Middle phalanx of fifth finger of hand.l.prefab
    m_ReadOnly: 0
    m_SerializedLabels: []
    FlaggedDuringContentUpdateRestriction: 0
  - m_GUID: 16eac7d2b38d56f4da2fe731de5f4619
    m_Address: Assets/Models/Human Skeleton/Middle phalanx of fifth finger of hand.r.prefab
    m_ReadOnly: 0
    m_SerializedLabels: []
    FlaggedDuringContentUpdateRestriction: 0
  - m_GUID: 77aa3bf773b4c694193a9e7c879db586
    m_Address: Assets/Models/Human Skeleton/Middle phalanx of fourth finger of hand.l.prefab
    m_ReadOnly: 0
    m_SerializedLabels: []
    FlaggedDuringContentUpdateRestriction: 0
  - m_GUID: fd7cc0ffeb1436e4b9b63020e5ac6c36
    m_Address: Assets/Models/Human Skeleton/Middle phalanx of fourth finger of hand.r.prefab
    m_ReadOnly: 0
    m_SerializedLabels: []
    FlaggedDuringContentUpdateRestriction: 0
  - m_GUID: 9c5422f7affaa874cad6ab04f582740c
    m_Address: Assets/Models/Human Skeleton/Middle phalanx of second finger of hand.l.prefab
    m_ReadOnly: 0
    m_SerializedLabels: []
    FlaggedDuringContentUpdateRestriction: 0
  - m_GUID: d781926b0080e7b4aa51227483cfeb25
    m_Address: Assets/Models/Human Skeleton/Middle phalanx of second finger of hand.r.prefab
    m_ReadOnly: 0
    m_SerializedLabels: []
    FlaggedDuringContentUpdateRestriction: 0
  - m_GUID: 3852dda0abfcfe6429acafe38fa1cd93
    m_Address: Assets/Models/Human Skeleton/Middle phalanx of third finger of hand.l.prefab
    m_ReadOnly: 0
    m_SerializedLabels: []
    FlaggedDuringContentUpdateRestriction: 0
  - m_GUID: a568d559211093f4cbacd9c45622030f
    m_Address: Assets/Models/Human Skeleton/Middle phalanx of third finger of hand.r.prefab
    m_ReadOnly: 0
    m_SerializedLabels: []
    FlaggedDuringContentUpdateRestriction: 0
  - m_GUID: e707abeb94b7996499cc9a2ff984b10d
    m_Address: Assets/Models/Human Skeleton/Proximal phalanx of fifth finger of hand.l.prefab
    m_ReadOnly: 0
    m_SerializedLabels: []
    FlaggedDuringContentUpdateRestriction: 0
  - m_GUID: e9ca31b008f235c46a7cc6d9a36e0de9
    m_Address: Assets/Models/Human Skeleton/Proximal phalanx of fifth finger of hand.r.prefab
    m_ReadOnly: 0
    m_SerializedLabels: []
    FlaggedDuringContentUpdateRestriction: 0
  - m_GUID: 1abb3021e2f52bc40bb7f0a06737146b
    m_Address: Assets/Models/Human Skeleton/Proximal phalanx of first finger of hand.l.prefab
    m_ReadOnly: 0
    m_SerializedLabels: []
    FlaggedDuringContentUpdateRestriction: 0
  - m_GUID: e5606ae1c1e7b1a448b29beb310a7997
    m_Address: Assets/Models/Human Skeleton/Proximal phalanx of first finger of hand.r.prefab
    m_ReadOnly: 0
    m_SerializedLabels: []
    FlaggedDuringContentUpdateRestriction: 0
  - m_GUID: d70b225a9a0d39c4098d1b1d13eb53aa
    m_Address: Assets/Models/Human Skeleton/Proximal phalanx of fourth finger of
      hand.l.prefab
    m_ReadOnly: 0
    m_SerializedLabels: []
    FlaggedDuringContentUpdateRestriction: 0
  - m_GUID: 5528e99fd191cd64f83013d8e2ef7215
    m_Address: Assets/Models/Human Skeleton/Proximal phalanx of fourth finger of
      hand.r.prefab
    m_ReadOnly: 0
    m_SerializedLabels: []
    FlaggedDuringContentUpdateRestriction: 0
  - m_GUID: ba2e883ffd5a147488cdc2718de86da4
    m_Address: Assets/Models/Human Skeleton/Proximal phalanx of second finger of
      hand.l.prefab
    m_ReadOnly: 0
    m_SerializedLabels: []
    FlaggedDuringContentUpdateRestriction: 0
  - m_GUID: 6462b5669c3ab044496da19d66471428
    m_Address: Assets/Models/Human Skeleton/Proximal phalanx of second finger of
      hand.r.prefab
    m_ReadOnly: 0
    m_SerializedLabels: []
    FlaggedDuringContentUpdateRestriction: 0
  - m_GUID: f0b8192946894e54bbac6ffaa4ca3aab
    m_Address: Assets/Models/Human Skeleton/Proximal phalanx of third finger of hand.l.prefab
    m_ReadOnly: 0
    m_SerializedLabels: []
    FlaggedDuringContentUpdateRestriction: 0
  - m_GUID: 5f3187e9593c6cc4ea3b48bcc2fe22bd
    m_Address: Assets/Models/Human Skeleton/Proximal phalanx of third finger of hand.r.prefab
    m_ReadOnly: 0
    m_SerializedLabels: []
    FlaggedDuringContentUpdateRestriction: 0
  - m_GUID: fa952ac58de65c74490917b457dcd918
    m_Address: Assets/Models/Human Skeleton/Radius.l.prefab
    m_ReadOnly: 0
    m_SerializedLabels: []
    FlaggedDuringContentUpdateRestriction: 0
  - m_GUID: ead4c5a163f2a3049adb7f69f8376896
    m_Address: Assets/Models/Human Skeleton/Radius.r.prefab
    m_ReadOnly: 0
    m_SerializedLabels: []
    FlaggedDuringContentUpdateRestriction: 0
  - m_GUID: 2c11e31f01d98b64f9377e3fb4654847
    m_Address: Assets/Models/Human Skeleton/Ulna.l.prefab
    m_ReadOnly: 0
    m_SerializedLabels: []
    FlaggedDuringContentUpdateRestriction: 0
  - m_GUID: 38e8fb6ecca64aa44a0644b8bdc1b46e
    m_Address: Assets/Models/Human Skeleton/Ulna.r.prefab
    m_ReadOnly: 0
    m_SerializedLabels: []
    FlaggedDuringContentUpdateRestriction: 0
  - m_GUID: e741de1cd0faca34bbad3486ae034423
    m_Address: Assets/Models/Human Skeleton/Calcaneus.l.prefab
    m_ReadOnly: 0
    m_SerializedLabels: []
    FlaggedDuringContentUpdateRestriction: 0
  - m_GUID: e7ce06f902706114e843c73ddcde9e49
    m_Address: Assets/Models/Human Skeleton/Calcaneus.r.prefab
    m_ReadOnly: 0
    m_SerializedLabels: []
    FlaggedDuringContentUpdateRestriction: 0
  - m_GUID: 5b4ed65915ccdc745a07d99dcddb1550
    m_Address: Assets/Models/Human Skeleton/Cuboid bone.l.prefab
    m_ReadOnly: 0
    m_SerializedLabels: []
    FlaggedDuringContentUpdateRestriction: 0
  - m_GUID: 81685a3a9fd55084a9b5343b59292190
    m_Address: Assets/Models/Human Skeleton/Cuboid bone.r.prefab
    m_ReadOnly: 0
    m_SerializedLabels: []
    FlaggedDuringContentUpdateRestriction: 0
  - m_GUID: 2f32cfb59e5c88b49befe1e3592d5473
    m_Address: Assets/Models/Human Skeleton/Navicular bone.l.prefab
    m_ReadOnly: 0
    m_SerializedLabels: []
    FlaggedDuringContentUpdateRestriction: 0
  - m_GUID: d6e98a7a3f410094e9df17179bab9282
    m_Address: Assets/Models/Human Skeleton/Navicular bone.r.prefab
    m_ReadOnly: 0
    m_SerializedLabels: []
    FlaggedDuringContentUpdateRestriction: 0
  - m_GUID: c53488635c2bf654cba5569432e4470a
    m_Address: Assets/Models/Human Skeleton/Talus.l.prefab
    m_ReadOnly: 0
    m_SerializedLabels: []
    FlaggedDuringContentUpdateRestriction: 0
  - m_GUID: 9b080b5067ba1ae4c929af9f0505ce95
    m_Address: Assets/Models/Human Skeleton/Talus.r.prefab
    m_ReadOnly: 0
    m_SerializedLabels: []
    FlaggedDuringContentUpdateRestriction: 0
  - m_GUID: 160e6c775c98385448af7e34e7d732f1
    m_Address: Assets/Models/Human Skeleton/First metatarsal bone.l.prefab
    m_ReadOnly: 0
    m_SerializedLabels: []
    FlaggedDuringContentUpdateRestriction: 0
  - m_GUID: eeb192389dc1dda4d9e21828ad0c5c4e
    m_Address: Assets/Models/Human Skeleton/First metatarsal bone.r.prefab
    m_ReadOnly: 0
    m_SerializedLabels: []
    FlaggedDuringContentUpdateRestriction: 0
  - m_GUID: 02d5e339d9f706b478d38d477ef94a20
    m_Address: Assets/Models/Human Skeleton/Second metatarsal bone.l.prefab
    m_ReadOnly: 0
    m_SerializedLabels: []
    FlaggedDuringContentUpdateRestriction: 0
  - m_GUID: 451f3b98d0dd02c4daa642f5751b8bb6
    m_Address: Assets/Models/Human Skeleton/Second metatarsal bone.r.prefab
    m_ReadOnly: 0
    m_SerializedLabels: []
    FlaggedDuringContentUpdateRestriction: 0
  - m_GUID: 9eb7bcd09fe0d614880bdbd0dcc10adf
    m_Address: Assets/Models/Human Skeleton/Third metatarsal bone.l.prefab
    m_ReadOnly: 0
    m_SerializedLabels: []
    FlaggedDuringContentUpdateRestriction: 0
  - m_GUID: 7eb4f99575d8a584295c8a0e5ecbfb13
    m_Address: Assets/Models/Human Skeleton/Third metatarsal bone.r.prefab
    m_ReadOnly: 0
    m_SerializedLabels: []
    FlaggedDuringContentUpdateRestriction: 0
  - m_GUID: 1db592fbc888d46499077c9689225aea
    m_Address: Assets/Models/Human Skeleton/Fourth metatarsal bone.l.prefab
    m_ReadOnly: 0
    m_SerializedLabels: []
    FlaggedDuringContentUpdateRestriction: 0
  - m_GUID: aa0281c1af272b84a8f03ea94da983e7
    m_Address: Assets/Models/Human Skeleton/Fourth metatarsal bone.r.prefab
    m_ReadOnly: 0
    m_SerializedLabels: []
    FlaggedDuringContentUpdateRestriction: 0
  - m_GUID: ace34a7839a088a4d95d32c605655b8f
    m_Address: Assets/Models/Human Skeleton/Fifth metatarsal bone.l.prefab
    m_ReadOnly: 0
    m_SerializedLabels: []
    FlaggedDuringContentUpdateRestriction: 0
  - m_GUID: 135360bb0dc61b64e9d5d69131e59572
    m_Address: Assets/Models/Human Skeleton/Fifth metatarsal bone.r.prefab
    m_ReadOnly: 0
    m_SerializedLabels: []
    FlaggedDuringContentUpdateRestriction: 0
  - m_GUID: 68ba5ba41741cee45a9b3645e927439a
    m_Address: Assets/Models/Human Skeleton/Distal phalanx of fifth finger of foot.l.prefab
    m_ReadOnly: 0
    m_SerializedLabels: []
    FlaggedDuringContentUpdateRestriction: 0
  - m_GUID: 58a8cf6ae464c7547a60659156df8422
    m_Address: Assets/Models/Human Skeleton/Distal phalanx of fifth finger of foot.r.prefab
    m_ReadOnly: 0
    m_SerializedLabels: []
    FlaggedDuringContentUpdateRestriction: 0
  - m_GUID: 798401f4cfe09854087dd7aea2eca90d
    m_Address: Assets/Models/Human Skeleton/Distal phalanx of first finger of foot.l.prefab
    m_ReadOnly: 0
    m_SerializedLabels: []
    FlaggedDuringContentUpdateRestriction: 0
  - m_GUID: 55984c21c27c31c47ba69bca0c6c7ca3
    m_Address: Assets/Models/Human Skeleton/Distal phalanx of first finger of foot.r.prefab
    m_ReadOnly: 0
    m_SerializedLabels: []
    FlaggedDuringContentUpdateRestriction: 0
  - m_GUID: 71f55e6f529c04f4181219868bbb3f01
    m_Address: Assets/Models/Human Skeleton/Distal phalanx of fourth finger of foot.l.prefab
    m_ReadOnly: 0
    m_SerializedLabels: []
    FlaggedDuringContentUpdateRestriction: 0
  - m_GUID: 4f269a5d5838be349aba94a319d924c8
    m_Address: Assets/Models/Human Skeleton/Distal phalanx of fourth finger of foot.r.prefab
    m_ReadOnly: 0
    m_SerializedLabels: []
    FlaggedDuringContentUpdateRestriction: 0
  - m_GUID: ded10ad4e84c954429817e9de4d2aa3e
    m_Address: Assets/Models/Human Skeleton/Distal phalanx of second finger of foot.l.prefab
    m_ReadOnly: 0
    m_SerializedLabels: []
    FlaggedDuringContentUpdateRestriction: 0
  - m_GUID: e30ca88b384923547859f949f0fa08d7
    m_Address: Assets/Models/Human Skeleton/Distal phalanx of second finger of foot.r.prefab
    m_ReadOnly: 0
    m_SerializedLabels: []
    FlaggedDuringContentUpdateRestriction: 0
  - m_GUID: fbc83c5ddaadb3848be6b9790fb30391
    m_Address: Assets/Models/Human Skeleton/Distal phalanx of third finger of foot.l.prefab
    m_ReadOnly: 0
    m_SerializedLabels: []
    FlaggedDuringContentUpdateRestriction: 0
  - m_GUID: deeb67e9018741e4998222a1fa772cfa
    m_Address: Assets/Models/Human Skeleton/Distal phalanx of third finger of foot.r.prefab
    m_ReadOnly: 0
    m_SerializedLabels: []
    FlaggedDuringContentUpdateRestriction: 0
  - m_GUID: 912fbc0e72608384fb744f1b25d4194c
    m_Address: Assets/Models/Human Skeleton/Middle phalanx of fifth finger of foot.l.prefab
    m_ReadOnly: 0
    m_SerializedLabels: []
    FlaggedDuringContentUpdateRestriction: 0
  - m_GUID: b3de2b96358627443b3532ff905cf818
    m_Address: Assets/Models/Human Skeleton/Middle phalanx of fifth finger of foot.r.prefab
    m_ReadOnly: 0
    m_SerializedLabels: []
    FlaggedDuringContentUpdateRestriction: 0
  - m_GUID: 2817671b41e3a304ebd75798a7562b14
    m_Address: Assets/Models/Human Skeleton/Middle phalanx of fourth finger of foot.l.prefab
    m_ReadOnly: 0
    m_SerializedLabels: []
    FlaggedDuringContentUpdateRestriction: 0
  - m_GUID: 97ee9accb39fe8a40be2980e019435a4
    m_Address: Assets/Models/Human Skeleton/Middle phalanx of fourth finger of foot.r.prefab
    m_ReadOnly: 0
    m_SerializedLabels: []
    FlaggedDuringContentUpdateRestriction: 0
  - m_GUID: 7576ed170bf581e4c9a71493456f8d28
    m_Address: Assets/Models/Human Skeleton/Middle phalanx of second finger of foot.l.prefab
    m_ReadOnly: 0
    m_SerializedLabels: []
    FlaggedDuringContentUpdateRestriction: 0
  - m_GUID: 8faad5bea84e71346afc1baeb52f3d77
    m_Address: Assets/Models/Human Skeleton/Middle phalanx of second finger of foot.r.prefab
    m_ReadOnly: 0
    m_SerializedLabels: []
    FlaggedDuringContentUpdateRestriction: 0
  - m_GUID: 039a890a65087854e9afbd14d0a4ec8c
    m_Address: Assets/Models/Human Skeleton/Middle phalanx of third finger of foot.l.prefab
    m_ReadOnly: 0
    m_SerializedLabels: []
    FlaggedDuringContentUpdateRestriction: 0
  - m_GUID: d98463bfd086cdc44bd8a64527af698b
    m_Address: Assets/Models/Human Skeleton/Middle phalanx of third finger of foot.r.prefab
    m_ReadOnly: 0
    m_SerializedLabels: []
    FlaggedDuringContentUpdateRestriction: 0
  - m_GUID: 83c40a15b6c37af48aa8ddb389fbeff1
    m_Address: Assets/Models/Human Skeleton/Proximal phalanx of fifth finger of foot.l.prefab
    m_ReadOnly: 0
    m_SerializedLabels: []
    FlaggedDuringContentUpdateRestriction: 0
  - m_GUID: 5d869a7718bddfa49b4e9edb68ce1bbc
    m_Address: Assets/Models/Human Skeleton/Proximal phalanx of fifth finger of foot.r.prefab
    m_ReadOnly: 0
    m_SerializedLabels: []
    FlaggedDuringContentUpdateRestriction: 0
  - m_GUID: 8ccfe7344684de94c973f4cd76898152
    m_Address: Assets/Models/Human Skeleton/Proximal phalanx of first finger of foot.l.prefab
    m_ReadOnly: 0
    m_SerializedLabels: []
    FlaggedDuringContentUpdateRestriction: 0
  - m_GUID: 4eaec6472cc8352499ad979f91ae6e84
    m_Address: Assets/Models/Human Skeleton/Proximal phalanx of first finger of foot.r.prefab
    m_ReadOnly: 0
    m_SerializedLabels: []
    FlaggedDuringContentUpdateRestriction: 0
  - m_GUID: 0a921fb50b564504a8c3a351357920c9
    m_Address: Assets/Models/Human Skeleton/Proximal phalanx of fourth finger of
      foot.l.prefab
    m_ReadOnly: 0
    m_SerializedLabels: []
    FlaggedDuringContentUpdateRestriction: 0
  - m_GUID: e65e4d671b57e53459e5cd14196c817d
    m_Address: Assets/Models/Human Skeleton/Proximal phalanx of fourth finger of
      foot.r.prefab
    m_ReadOnly: 0
    m_SerializedLabels: []
    FlaggedDuringContentUpdateRestriction: 0
  - m_GUID: 7567eac62870c9d43a87ce31101c8741
    m_Address: Assets/Models/Human Skeleton/Proximal phalanx of second finger of
      foot.l.prefab
    m_ReadOnly: 0
    m_SerializedLabels: []
    FlaggedDuringContentUpdateRestriction: 0
  - m_GUID: f8624d079fe855b42bd6e06623cb4320
    m_Address: Assets/Models/Human Skeleton/Proximal phalanx of second finger of
      foot.r.prefab
    m_ReadOnly: 0
    m_SerializedLabels: []
    FlaggedDuringContentUpdateRestriction: 0
  - m_GUID: 9bc41a092a55dd74582e76b7da3d7fb7
    m_Address: Assets/Models/Human Skeleton/Proximal phalanx of third finger of foot.l.prefab
    m_ReadOnly: 0
    m_SerializedLabels: []
    FlaggedDuringContentUpdateRestriction: 0
  - m_GUID: 9f364d5c317a2144b926b7d17dbc6cbc
    m_Address: Assets/Models/Human Skeleton/Proximal phalanx of third finger of foot.r.prefab
    m_ReadOnly: 0
    m_SerializedLabels: []
    FlaggedDuringContentUpdateRestriction: 0
  - m_GUID: eeb7c99cb8940a94a8ce2fb2812168dd
    m_Address: Assets/Models/Human Skeleton/Fibula.l.prefab
    m_ReadOnly: 0
    m_SerializedLabels: []
    FlaggedDuringContentUpdateRestriction: 0
  - m_GUID: 16559aa1ecee07944b69c6064436351a
    m_Address: Assets/Models/Human Skeleton/Fibula.r.prefab
    m_ReadOnly: 0
    m_SerializedLabels: []
    FlaggedDuringContentUpdateRestriction: 0
  - m_GUID: 107151def4ad7514ea50c24be87c5fe8
    m_Address: Assets/Models/Human Skeleton/Femur.l.prefab
    m_ReadOnly: 0
    m_SerializedLabels: []
    FlaggedDuringContentUpdateRestriction: 0
  - m_GUID: c2a0b9a7cba25fb439ff514d620c0bfb
    m_Address: Assets/Models/Human Skeleton/Femur.r.prefab
    m_ReadOnly: 0
    m_SerializedLabels: []
    FlaggedDuringContentUpdateRestriction: 0
  - m_GUID: fa7341f47497a6041afeb52ae4b19d01
    m_Address: Assets/Models/Human Skeleton/Patella.l.prefab
    m_ReadOnly: 0
    m_SerializedLabels: []
    FlaggedDuringContentUpdateRestriction: 0
  - m_GUID: 2efb35356136a6941ad88623aa46a9dc
    m_Address: Assets/Models/Human Skeleton/Patella.r.prefab
    m_ReadOnly: 0
    m_SerializedLabels: []
    FlaggedDuringContentUpdateRestriction: 0
  - m_GUID: 2879e17cb124a1848b5c4ca1c7094245
    m_Address: Assets/Models/Human Skeleton/Tibia.l.prefab
    m_ReadOnly: 0
    m_SerializedLabels: []
    FlaggedDuringContentUpdateRestriction: 0
  - m_GUID: 2f9faab51cd299849ae76c42a8f5b4ab
    m_Address: Assets/Models/Human Skeleton/Tibia.r.prefab
    m_ReadOnly: 0
    m_SerializedLabels: []
    FlaggedDuringContentUpdateRestriction: 0
  - m_GUID: 8cfe0ac3e87a53c4ba6e753592807091
    m_Address: Assets/Models/Human Skeleton/Vomer.prefab
    m_ReadOnly: 0
    m_SerializedLabels: []
    FlaggedDuringContentUpdateRestriction: 0
  - m_GUID: 10dcb667db8ecc34193034e7a6bff6f2
    m_Address: Assets/Models/Human Skeleton/Lateral process of nasal septal cartilage.l.prefab
    m_ReadOnly: 0
    m_SerializedLabels: []
    FlaggedDuringContentUpdateRestriction: 0
  - m_GUID: 95ee8a7b4cefb3b419f46235d9f043f9
    m_Address: Assets/Models/Human Skeleton/Lateral process of nasal septal cartilage.r.prefab
    m_ReadOnly: 0
    m_SerializedLabels: []
    FlaggedDuringContentUpdateRestriction: 0
  - m_GUID: 6447af2f9d252ae45968cd63e24242a7
    m_Address: Assets/Models/Human Skeleton/Nasal septal cartilage.prefab
    m_ReadOnly: 0
    m_SerializedLabels: []
    FlaggedDuringContentUpdateRestriction: 0
  - m_GUID: aff9441146d228e469b2a58b442a1adb
    m_Address: Assets/Models/Human Skeleton/Thyroid cartilage.prefab
    m_ReadOnly: 0
    m_SerializedLabels: []
    FlaggedDuringContentUpdateRestriction: 0
  - m_GUID: 2f018606a9bbb0445a1b170e9fc6283d
    m_Address: Assets/Models/Human Skeleton/Hyoid bone.prefab
    m_ReadOnly: 0
    m_SerializedLabels: []
    FlaggedDuringContentUpdateRestriction: 0
  - m_GUID: 7988a7300f221e847844801ed5d2f568
    m_Address: Assets/Models/Human Skeleton/Atlas (C1).prefab
    m_ReadOnly: 0
    m_SerializedLabels: []
    FlaggedDuringContentUpdateRestriction: 0
  - m_GUID: 9b12f254d446816438a1a27a7e007c52
    m_Address: Assets/Models/Human Skeleton/Axis (C2).prefab
    m_ReadOnly: 0
    m_SerializedLabels: []
    FlaggedDuringContentUpdateRestriction: 0
  - m_GUID: 6537bdb2f20cd9a4fb7b47797a46098f
    m_Address: Assets/Models/Human Skeleton/Body of sternum.prefab
    m_ReadOnly: 0
    m_SerializedLabels: []
    FlaggedDuringContentUpdateRestriction: 0
  - m_GUID: 523c991636f1ede4590240665c7dbb32
    m_Address: Assets/Models/Human Skeleton/Manubrium of sternum.prefab
    m_ReadOnly: 0
    m_SerializedLabels: []
    FlaggedDuringContentUpdateRestriction: 0
  - m_GUID: 187ce90e2162d6349913236d85d015ad
    m_Address: Assets/Models/Human Skeleton/Xiphoid process.prefab
    m_ReadOnly: 0
    m_SerializedLabels: []
    FlaggedDuringContentUpdateRestriction: 0
  - m_GUID: 198b21c0a213c774881de282f9b59279
    m_Address: Assets/Models/Human Skeleton/Capitate bone.l.prefab
    m_ReadOnly: 0
    m_SerializedLabels: []
    FlaggedDuringContentUpdateRestriction: 0
  - m_GUID: 40d342d848756ee42994a266c6eb3de4
    m_Address: Assets/Models/Human Skeleton/Capitate bone.r.prefab
    m_ReadOnly: 0
    m_SerializedLabels: []
    FlaggedDuringContentUpdateRestriction: 0
  - m_GUID: 2ed8176158cb3df4db007aa4b08bc7a3
    m_Address: Assets/Models/Human Skeleton/Humerus.l.prefab
    m_ReadOnly: 0
    m_SerializedLabels: []
    FlaggedDuringContentUpdateRestriction: 0
  - m_GUID: 83a1157ca9854494f9d146abca56763a
    m_Address: Assets/Models/Human Skeleton/Humerus.r.prefab
    m_ReadOnly: 0
    m_SerializedLabels: []
    FlaggedDuringContentUpdateRestriction: 0
  - m_GUID: 3cb2aebd82a24654e94b11dd5fdbca13
    m_Address: Assets/Models/Human Skeleton/Intermediate cuneiform bone.l.prefab
    m_ReadOnly: 0
    m_SerializedLabels: []
    FlaggedDuringContentUpdateRestriction: 0
  - m_GUID: c641982ff72a90042a7e7d55c13cf9ab
    m_Address: Assets/Models/Human Skeleton/Intermediate cuneiform bone.r.prefab
    m_ReadOnly: 0
    m_SerializedLabels: []
    FlaggedDuringContentUpdateRestriction: 0
  - m_GUID: c8bd0650666fba644bdae6c7aced79d2
    m_Address: Assets/Models/Human Skeleton/Medial cuneiform bone.l.prefab
    m_ReadOnly: 0
    m_SerializedLabels: []
    FlaggedDuringContentUpdateRestriction: 0
  - m_GUID: 4c493b8d23a200141a722b22b337f2b9
    m_Address: Assets/Models/Human Skeleton/Medial cuneiform bone.r.prefab
    m_ReadOnly: 0
    m_SerializedLabels: []
    FlaggedDuringContentUpdateRestriction: 0
  - m_GUID: 91a893d4447dc7041be59a5522b27597
    m_Address: Assets/Models/Human Skeleton/Lateral cuneiform bone.l.prefab
    m_ReadOnly: 0
    m_SerializedLabels: []
    FlaggedDuringContentUpdateRestriction: 0
  - m_GUID: 9823eda50506c1442812791d54e766b3
    m_Address: Assets/Models/Human Skeleton/Lateral cuneiform bone.r.prefab
    m_ReadOnly: 0
    m_SerializedLabels: []
    FlaggedDuringContentUpdateRestriction: 0
  - m_GUID: 87b25d098d7b3ef41bdae5c7ee1f825f
    m_Address: Assets/Models/Human Skeleton/Sesamoid bones of foot.l.prefab
    m_ReadOnly: 0
    m_SerializedLabels: []
    FlaggedDuringContentUpdateRestriction: 0
  - m_GUID: efd24061eee6a584e8eea333284ff520
    m_Address: Assets/Models/Human Skeleton/Sesamoid bones of foot.r.prefab
    m_ReadOnly: 0
    m_SerializedLabels: []
    FlaggedDuringContentUpdateRestriction: 0
  m_ReadOnly: 0
  m_Settings: {fileID: 11400000, guid: 93f02a1aa019b29498017fd53db231b9, type: 2}
  m_SchemaSet:
    m_Schemas:
    - {fileID: 11400000, guid: 7a83a2cf61412e14ea6b06117a02652a, type: 2}
    - {fileID: 11400000, guid: 8d868202ab43e454d96cd5d4bdcb374e, type: 2}
