%YAML 1.1
%TAG !u! tag:unity3d.com,2011:
--- !u!114 &11400000
MonoBehaviour:
  m_ObjectHideFlags: 0
  m_CorrespondingSourceObject: {fileID: 0}
  m_PrefabInstance: {fileID: 0}
  m_PrefabAsset: {fileID: 0}
  m_GameObject: {fileID: 0}
  m_Enabled: 1
  m_EditorHideFlags: 0
  m_Script: {fileID: 11500000, guid: fb1059335113d6c4a9b5cd5c961a2560, type: 3}
  m_Name: Model
  m_EditorClassIdentifier: 
  Name: Aorta Flow Model
  Description: This flow simulation of the aorta provides a dynamic visualization
    of blood circulation, allowing for a detailed examination of flow patterns and
    pressures within this vital vessel. It serves as a valuable tool for understanding
    the hemodynamics of the aorta.
  Icon: {fileID: 0}
  VolumetricTextures: []
  serializedNodes:
  - data: {fileID: 11400000, guid: 4656143ac02797b4493f0d1b32f94c4f, type: 2}
    parentIdx: -1
    children: 0100000002000000
  - data: {fileID: 11400000, guid: a7f61451516c88848ba2792002ac549e, type: 2}
    parentIdx: 0
    children: 
  - data: {fileID: 11400000, guid: a1546bfd591524242850f1906d90425e, type: 2}
    parentIdx: 0
    children: 
  annotations: []
