{
    "name": "InputSystem_Actions",
    "maps": [
        {
            "name": "CompanionApp",
            "id": "5dff20cf-b8eb-440f-abfe-67ea809501b1",
            "actions": [
                {
                    "name": "MoveCameraRig",
                    "type": "Value",
                    "id": "69520b24-550d-43c4-ae3c-7375d500b0e7",
                    "expectedControlType": "Vector2",
                    "processors": "",
                    "interactions": "",
                    "initialStateCheck": true
                },
                {
                    "name": "RotateCameraRig",
                    "type": "Value",
                    "id": "ec8e62b7-80a1-4346-b7ce-5a586261076f",
                    "expectedControlType": "Vector2",
                    "processors": "",
                    "interactions": "",
                    "initialStateCheck": true
                },
                {
                    "name": "Zoom",
                    "type": "Value",
                    "id": "2369828e-0789-4662-8de0-60b9ec153559",
                    "expectedControlType": "Axis",
                    "processors": "",
                    "interactions": "",
                    "initialStateCheck": true
                }
            ],
            "bindings": [
                {
                    "name": "One Modifier",
                    "id": "c82a2b4d-f291-45d2-959a-222193bca56d",
                    "path": "OneModifier",
                    "interactions": "",
                    "processors": "",
                    "groups": "",
                    "action": "MoveCameraRig",
                    "isComposite": true,
                    "isPartOfComposite": false
                },
                {
                    "name": "modifier",
                    "id": "edeb5a89-aa01-4766-8545-140e5da97cad",
                    "path": "<Mouse>/middleButton",
                    "interactions": "",
                    "processors": "",
                    "groups": "",
                    "action": "MoveCameraRig",
                    "isComposite": false,
                    "isPartOfComposite": true
                },
                {
                    "name": "binding",
                    "id": "73496efc-8e39-4a58-9e03-c1dd2e007d23",
                    "path": "<Mouse>/delta",
                    "interactions": "",
                    "processors": "",
                    "groups": "",
                    "action": "MoveCameraRig",
                    "isComposite": false,
                    "isPartOfComposite": true
                },
                {
                    "name": "One Modifier",
                    "id": "90692d6a-2c8d-4105-b046-88955ba1b74e",
                    "path": "OneModifier",
                    "interactions": "",
                    "processors": "",
                    "groups": "",
                    "action": "RotateCameraRig",
                    "isComposite": true,
                    "isPartOfComposite": false
                },
                {
                    "name": "modifier",
                    "id": "028fc4ee-5a70-4f25-a210-a4f6fbcdaec6",
                    "path": "<Mouse>/rightButton",
                    "interactions": "",
                    "processors": "",
                    "groups": "",
                    "action": "RotateCameraRig",
                    "isComposite": false,
                    "isPartOfComposite": true
                },
                {
                    "name": "binding",
                    "id": "7d671837-996e-4fb0-bbc9-1a50b4f17bd0",
                    "path": "<Mouse>/delta",
                    "interactions": "",
                    "processors": "",
                    "groups": "",
                    "action": "RotateCameraRig",
                    "isComposite": false,
                    "isPartOfComposite": true
                },
                {
                    "name": "",
                    "id": "1000dee3-64fc-4b4b-96fd-1c2276f1acb4",
                    "path": "<Mouse>/scroll/y",
                    "interactions": "",
                    "processors": "",
                    "groups": "",
                    "action": "Zoom",
                    "isComposite": false,
                    "isPartOfComposite": false
                }
            ]
        }
    ],
    "controlSchemes": []
}