%YAML 1.1
%TAG !u! tag:unity3d.com,2011:
--- !u!114 &11400000
MonoBehaviour:
  m_ObjectHideFlags: 0
  m_CorrespondingSourceObject: {fileID: 0}
  m_PrefabInstance: {fileID: 0}
  m_PrefabAsset: {fileID: 0}
  m_GameObject: {fileID: 0}
  m_Enabled: 1
  m_EditorHideFlags: 0
  m_Script: {fileID: 11500000, guid: 997bf3f184894634c92d6ab0cbc7999b, type: 3}
  m_Name: Arytenoid cartilage (right)
  m_EditorClassIdentifier: 
  Name: Arytenoid cartilage (right)
  Description: The right arytenoid cartilage is a small, pyramid-shaped piece of
    cartilage situated in the larynx, specifically in the posterior part of the vocal
    folds. It is involved in sound production and helps regulate the flow of air
    during breathing and speech.
  nodeType: 1
  mesh: {fileID: 0}
  meshFilePath: 
  meshReference:
    m_AssetGUID: 5e3ffa880c528cd4bbe63563204dda43
    m_SubObjectName: 
    m_SubObjectType: 
    m_EditorAssetChanged: 0
  IsInteractable: 1
  IsAnimated: 0
  Color: {r: 1, g: 1, b: 1, a: 1}
  MainTexture: {fileID: 0}
  Metallic: 0.89
  Smoothness: 0.5
  BaseOpacity: 1
