%YAML 1.1
%TAG !u! tag:unity3d.com,2011:
--- !u!114 &11400000
MonoBehaviour:
  m_ObjectHideFlags: 0
  m_CorrespondingSourceObject: {fileID: 0}
  m_PrefabInstance: {fileID: 0}
  m_PrefabAsset: {fileID: 0}
  m_GameObject: {fileID: 0}
  m_Enabled: 1
  m_EditorHideFlags: 0
  m_Script: {fileID: 11500000, guid: 997bf3f184894634c92d6ab0cbc7999b, type: 3}
  m_Name: Coccyx
  m_EditorClassIdentifier: 
  Name: Coccyx
  Description: The coccyx is the tailbone, formed by fused vertebrae at the base
    of the spine, providing attachment for various muscles.
  nodeType: 1
  mesh: {fileID: 0}
  meshFilePath: 
  meshReference:
    m_AssetGUID: a091b30730d3dc14bb314d3c697d1cc8
    m_SubObjectName: 
    m_SubObjectType: 
    m_EditorAssetChanged: 0
  IsInteractable: 1
  IsAnimated: 0
  Color: {r: 1, g: 1, b: 1, a: 1}
  MainTexture: {fileID: 0}
  Metallic: 0.89
  Smoothness: 0.5
  BaseOpacity: 1
