%YAML 1.1
%TAG !u! tag:unity3d.com,2011:
--- !u!114 &11400000
MonoBehaviour:
  m_ObjectHideFlags: 0
  m_CorrespondingSourceObject: {fileID: 0}
  m_PrefabInstance: {fileID: 0}
  m_PrefabAsset: {fileID: 0}
  m_GameObject: {fileID: 0}
  m_Enabled: 1
  m_EditorHideFlags: 0
  m_Script: {fileID: 11500000, guid: 7321e6491318b224b9743ddba93fe51d, type: 3}
  m_Name: Cranium
  m_EditorClassIdentifier: 
  Name: Cranium
  Description: The cranium is a protective enclosure for the brain, composed of several
    bones that articulate to form the skull's vault.
