%YAML 1.1
%TAG !u! tag:unity3d.com,2011:
--- !u!114 &11400000
MonoBehaviour:
  m_ObjectHideFlags: 0
  m_CorrespondingSourceObject: {fileID: 0}
  m_PrefabInstance: {fileID: 0}
  m_PrefabAsset: {fileID: 0}
  m_GameObject: {fileID: 0}
  m_Enabled: 1
  m_EditorHideFlags: 0
  m_Script: {fileID: 11500000, guid: 997bf3f184894634c92d6ab0cbc7999b, type: 3}
  m_Name: Proximal phalanx of fourth finger of hand ( right)
  m_EditorClassIdentifier: 
  Name: Proximal phalanx of fourth finger of hand ( right)
  Description: The right proximal phalanx of the fourth finger, situated in the hand's
    skeletal structure, contributes to grip strength, intricate hand movements, and
    fine motor skills.
  IsAnimated: 0
  LayerPrefabReference:
    m_AssetGUID: 5528e99fd191cd64f83013d8e2ef7215
    m_SubObjectName: 
    m_SubObjectType: 
    m_EditorAssetChanged: 0
  OpaqueMaterial: {fileID: 2100000, guid: 4707b7a7a890c784eaf9a14eb4397be9, type: 2}
  TransparentMaterial: {fileID: 2100000, guid: 9c838485901a0bc4691a6071881b4cf7, type: 2}
  Color: {r: 1, g: 1, b: 1, a: 1}
