%YAML 1.1
%TAG !u! tag:unity3d.com,2011:
--- !u!114 &11400000
MonoBehaviour:
  m_ObjectHideFlags: 0
  m_CorrespondingSourceObject: {fileID: 0}
  m_PrefabInstance: {fileID: 0}
  m_PrefabAsset: {fileID: 0}
  m_GameObject: {fileID: 0}
  m_Enabled: 1
  m_EditorHideFlags: 0
  m_Script: {fileID: 11500000, guid: 997bf3f184894634c92d6ab0cbc7999b, type: 3}
  m_Name: Left Atrium Endocardium
  m_EditorClassIdentifier: 
  Name: Left Atrium Endocardium
  Description: The endocardium of the left atrium lines its inner surface, playing
    a crucial role in maintaining the heart's integrity. The left atrium receives
    oxygenated blood from the lungs and passes it to the left ventricle.
  meshFilePath: 
  meshReference:
    m_AssetGUID: c05a7f93a72b20a4a89fae3c22be905f
    m_SubObjectName: 
    m_SubObjectType: 
    m_EditorAssetChanged: 0
  IsAnimated: 1
  LayerPrefabReference:
    m_AssetGUID: aab42514db83fe044a562a54034a299f
    m_SubObjectName: 
    m_SubObjectType: 
    m_EditorAssetChanged: 0
  Color: {r: 1, g: 0.972549, b: 0.8666667, a: 1}
  MainTexture: {fileID: 0}
  Metallic: 0.89
  Smoothness: 0.5
  BaseOpacity: 1
