%YAML 1.1
%TAG !u! tag:unity3d.com,2011:
--- !u!114 &11400000
MonoBehaviour:
  m_ObjectHideFlags: 0
  m_CorrespondingSourceObject: {fileID: 0}
  m_PrefabInstance: {fileID: 0}
  m_PrefabAsset: {fileID: 0}
  m_GameObject: {fileID: 0}
  m_Enabled: 1
  m_EditorHideFlags: 0
  m_Script: {fileID: 11500000, guid: 997bf3f184894634c92d6ab0cbc7999b, type: 3}
  m_Name: Right Coronary Artery
  m_EditorClassIdentifier: 
  Name: Right Coronary Artery
  Description: The right coronary artery supplies oxygenated blood to the right side
    of the heart. It follows a branching pattern and nourishes the right atrium,
    right ventricle, and parts of the conduction system.
  meshFilePath: 
  meshReference:
    m_AssetGUID: 0157c29dcadb2754eb3ba34c1df74c8f
    m_SubObjectName: 
    m_SubObjectType: 
    m_EditorAssetChanged: 0
  IsAnimated: 1
  LayerPrefabReference:
    m_AssetGUID: 334087a0eb27ff149b6c93599df76893
    m_SubObjectName: 
    m_SubObjectType: 
    m_EditorAssetChanged: 0
  Color: {r: 1, g: 0, b: 0, a: 1}
  MainTexture: {fileID: 0}
  Metallic: 0.89
  Smoothness: 0.5
  BaseOpacity: 1
