%YAML 1.1
%TAG !u! tag:unity3d.com,2011:
--- !u!114 &11400000
MonoBehaviour:
  m_ObjectHideFlags: 0
  m_CorrespondingSourceObject: {fileID: 0}
  m_PrefabInstance: {fileID: 0}
  m_PrefabAsset: {fileID: 0}
  m_GameObject: {fileID: 0}
  m_Enabled: 1
  m_EditorHideFlags: 0
  m_Script: {fileID: 11500000, guid: 997bf3f184894634c92d6ab0cbc7999b, type: 3}
  m_Name: Right Coronary Vein
  m_EditorClassIdentifier: 
  Name: Right Coronary Vein
  Description: The right coronary vein collects deoxygenated blood from the heart's
    right side and delivers it to the coronary sinus. The blood then enters the right
    atrium before proceeding to the lungs.
  meshFilePath: 
  meshReference:
    m_AssetGUID: 3bdb3b1a64eea2440aea98196d6e5879
    m_SubObjectName: 
    m_SubObjectType: 
    m_EditorAssetChanged: 0
  IsAnimated: 1
  LayerPrefabReference:
    m_AssetGUID: 8b7b1dcdbe984014293af983701a0a0d
    m_SubObjectName: 
    m_SubObjectType: 
    m_EditorAssetChanged: 0
  Color: {r: 0, g: 0.4, b: 1, a: 1}
  MainTexture: {fileID: 0}
  Metallic: 0.89
  Smoothness: 0.5
  BaseOpacity: 1
