%YAML 1.1
%TAG !u! tag:unity3d.com,2011:
--- !u!114 &11400000
MonoBehaviour:
  m_ObjectHideFlags: 0
  m_CorrespondingSourceObject: {fileID: 0}
  m_PrefabInstance: {fileID: 0}
  m_PrefabAsset: {fileID: 0}
  m_GameObject: {fileID: 0}
  m_Enabled: 1
  m_EditorHideFlags: 0
  m_Script: {fileID: 11500000, guid: 4cb41d08a317d9d4b9070183659d13d6, type: 3}
  m_Name: DefaultAssetLocations2
  m_EditorClassIdentifier: 
  ModelAddressableLocations:
  - Assets/Models/Heart/Model.asset
  - Assets/Models/Human Skeleton/Model.asset
  ModelFileLocations: []
  CheckpointAddressableLocations: []
  CheckpointFileLocations: []
