%YAML 1.1
%TAG !u! tag:unity3d.com,2011:
--- !u!114 &11400000
MonoBehaviour:
  m_ObjectHideFlags: 0
  m_CorrespondingSourceObject: {fileID: 0}
  m_PrefabInstance: {fileID: 0}
  m_PrefabAsset: {fileID: 0}
  m_GameObject: {fileID: 0}
  m_Enabled: 1
  m_EditorHideFlags: 0
  m_Script: {fileID: 11500000, guid: 7321e6491318b224b9743ddba93fe51d, type: 3}
  m_Name: Human Heart
  m_EditorClassIdentifier: 
  Name: Human Heart
  Description: 'The human heart, a vital organ in the circulatory system, pumps oxygenated
    blood to all parts of the body. About the size of a fist, it has four chambers:
    the atria receive blood, and the ventricles pump it out. Deoxygenated blood enters
    the right atrium and is sent to the lungs for oxygenation. Oxygen-rich blood
    returns to the left atrium and is pumped to the body''s tissues via the left
    ventricle. The heart''s rhythm is controlled by an electrical system, ensuring
    coordinated contractions. It''s nourished by coronary arteries branching from
    the aorta and drained by coronary veins.'
