%YAML 1.1
%TAG !u! tag:unity3d.com,2011:
--- !u!114 &11400000
MonoBehaviour:
  m_ObjectHideFlags: 0
  m_CorrespondingSourceObject: {fileID: 0}
  m_PrefabInstance: {fileID: 0}
  m_PrefabAsset: {fileID: 0}
  m_GameObject: {fileID: 0}
  m_Enabled: 1
  m_EditorHideFlags: 0
  m_Script: {fileID: 11500000, guid: 997bf3f184894634c92d6ab0cbc7999b, type: 3}
  m_Name: Left Atrium
  m_EditorClassIdentifier: 
  Name: Left Atrium
  Description: The left atrium is responsible for receiving oxygenated blood and
    forwarding it to the left ventricle.
  nodeType: 1
  mesh: {fileID: 0}
  meshFilePath: 
  meshReference:
    m_AssetGUID: aabe6f5b632e94d47aa6419882132c1c
    m_SubObjectName: 
    m_SubObjectType: 
    m_EditorAssetChanged: 0
  IsInteractable: 1
  IsAnimated: 1
  Color: {r: 1, g: 0.972549, b: 0.8666667, a: 1}
  MainTexture: {fileID: 0}
  Metallic: 0.89
  Smoothness: 0.5
  BaseOpacity: 1
