%YAML 1.1
%TAG !u! tag:unity3d.com,2011:
--- !u!114 &11400000
MonoBehaviour:
  m_ObjectHideFlags: 0
  m_CorrespondingSourceObject: {fileID: 0}
  m_PrefabInstance: {fileID: 0}
  m_PrefabAsset: {fileID: 0}
  m_GameObject: {fileID: 0}
  m_Enabled: 1
  m_EditorHideFlags: 0
  m_Script: {fileID: 11500000, guid: b67d257523d849342b69b82f3f9a8889, type: 3}
  m_Name: DebugModelState
  m_EditorClassIdentifier: 
  modelTransform:
    localPosition: {x: 0, y: 0, z: 0}
    localRotation: {x: 0, y: 0, z: 0, w: 1}
    localScale: {x: 1, y: 1, z: 1}
  selectedLayerIdx: 0
  layerStates:
  - localTransform:
      localPosition: {x: 0, y: 0, z: 0}
      localRotation: {x: 0, y: 0, z: 0, w: 0}
      localScale: {x: 0.0001, y: 0.0001, z: 0.0001}
    isHidden: 0
    isOutlined: 0
    isFaded: 1
    tooltipShowing: 0
  - localTransform:
      localPosition: {x: 0, y: 0, z: 0}
      localRotation: {x: 0, y: 0, z: 0, w: 0}
      localScale: {x: 0.0001, y: 0.0001, z: 0.0001}
    isHidden: 0
    isOutlined: 0
    isFaded: 1
    tooltipShowing: 1
  interfaceState:
    sideMenuButton: 1
    boundingBoxButton: 1
    freeMoveButton: 1
    explodeViewButton: 1
    resetViewButton: 1
    animationMenuActive: 1
    sideMenuActive: 1
    currentTab: 0
    tabsActive: 010101
  animationState:
    currentTime: 0
    isPlaying: 1
    animationSpeed: 1
    animationMode: 0
  clippingPlaneState:
    isActive: 1
    volumetricTextureIdx: 0
    type: 0
    transform:
      localPosition: {x: 0, y: 0, z: 0}
      localRotation: {x: 0.116148345, y: 0.006326859, z: -0.00074032997, w: 0.99321145}
      localScale: {x: 0.6, y: 1.57, z: 1.79}
  boundsActive: 0
  freeMovementActive: 0
  autoRotation: 1
  rotationSpeed: 1.85
