%YAML 1.1
%TAG !u! tag:unity3d.com,2011:
--- !u!114 &11400000
MonoBehaviour:
  m_ObjectHideFlags: 0
  m_CorrespondingSourceObject: {fileID: 0}
  m_PrefabInstance: {fileID: 0}
  m_PrefabAsset: {fileID: 0}
  m_GameObject: {fileID: 0}
  m_Enabled: 1
  m_EditorHideFlags: 0
  m_Script: {fileID: 11500000, guid: fb1059335113d6c4a9b5cd5c961a2560, type: 3}
  m_Name: New Model
  m_EditorClassIdentifier: 
  Name: Networking Test Model
  Description: Networking Test
  guidString: 63781d82-4c42-418a-973c-15ee1421c233
  Icon: {fileID: 0}
  VolumetricTextures: []
  annotations: []
  serializedNodes:
  - data: {fileID: 11400000, guid: bac94a5e52ce9e942849517224f31972, type: 2}
    parentIdx: -1
    children: 0100000002000000
  - data: {fileID: 11400000, guid: 418bf83597da61444be6494c15496c6f, type: 2}
    parentIdx: 0
    children: 
  - data: {fileID: 11400000, guid: 189114a18b469564b9cb0e5a45e43f88, type: 2}
    parentIdx: 0
    children: 
