%YAML 1.1
%TAG !u! tag:unity3d.com,2011:
--- !u!114 &11400000
MonoBehaviour:
  m_ObjectHideFlags: 0
  m_CorrespondingSourceObject: {fileID: 0}
  m_PrefabInstance: {fileID: 0}
  m_PrefabAsset: {fileID: 0}
  m_GameObject: {fileID: 0}
  m_Enabled: 1
  m_EditorHideFlags: 0
  m_Script: {fileID: 11500000, guid: 997bf3f184894634c92d6ab0cbc7999b, type: 3}
  m_Name: Anterior interventricular sulcus
  m_EditorClassIdentifier: 
  Name: Anterior interventricular sulcus
  Description: The anterior interventricular sulcus, also known as the anterior interventricular
    groove or the anterior interventricular artery, is a prominent groove on the
    external surface of the heart. It contains the left anterior descending artery,
    a major branch of the left coronary artery. This sulcus marks the boundary between
    the right and left ventricles on the heart's anterior surface and plays a crucial
    role in supplying blood to the heart muscle.
  Type: 0
  IsAnimated: 0
  LayerIndex: 0
  LayerPrefabReference:
    m_AssetGUID: 0eba18d3b213fc348a85db4a20856041
    m_SubObjectName: 
    m_SubObjectType: 
    m_EditorAssetChanged: 0
  OpaqueMaterial: {fileID: 2100000, guid: 4707b7a7a890c784eaf9a14eb4397be9, type: 2}
  TransparentMaterial: {fileID: 2100000, guid: 9c838485901a0bc4691a6071881b4cf7, type: 2}
  Color: {r: 1, g: 0.12156863, b: 0, a: 1}
