%YAML 1.1
%TAG !u! tag:unity3d.com,2011:
--- !u!114 &11400000
MonoBehaviour:
  m_ObjectHideFlags: 0
  m_CorrespondingSourceObject: {fileID: 0}
  m_PrefabInstance: {fileID: 0}
  m_PrefabAsset: {fileID: 0}
  m_GameObject: {fileID: 0}
  m_Enabled: 1
  m_EditorHideFlags: 0
  m_Script: {fileID: 11500000, guid: 997bf3f184894634c92d6ab0cbc7999b, type: 3}
  m_Name: Apex of heart
  m_EditorClassIdentifier: 
  Name: Apex of heart
  Description: The apex of the heart is the pointed, inferior tip of the heart's
    cone-shaped structure. It is formed primarily by the left ventricle. The apex
    is located at the level of the fifth intercostal space, midclavicular line. It
    is an important landmark for assessing the heart's position, rhythm, and sounds,
    and it is often used as a reference point during cardiac examinations and procedures.
  Type: 0
  IsAnimated: 0
  LayerIndex: 0
  LayerPrefabReference:
    m_AssetGUID: feab533590479b448a20480297b664d8
    m_SubObjectName: 
    m_SubObjectType: 
    m_EditorAssetChanged: 0
  OpaqueMaterial: {fileID: 2100000, guid: 4707b7a7a890c784eaf9a14eb4397be9, type: 2}
  TransparentMaterial: {fileID: 2100000, guid: 9c838485901a0bc4691a6071881b4cf7, type: 2}
  Color: {r: 1, g: 0.12156863, b: 0, a: 1}
