%YAML 1.1
%TAG !u! tag:unity3d.com,2011:
--- !u!114 &11400000
MonoBehaviour:
  m_ObjectHideFlags: 0
  m_CorrespondingSourceObject: {fileID: 0}
  m_PrefabInstance: {fileID: 0}
  m_PrefabAsset: {fileID: 0}
  m_GameObject: {fileID: 0}
  m_Enabled: 1
  m_EditorHideFlags: 0
  m_Script: {fileID: 11500000, guid: 997bf3f184894634c92d6ab0cbc7999b, type: 3}
  m_Name: Apical segmental artery of left lung
  m_EditorClassIdentifier: 
  Name: Apical segmental artery of left lung
  Description: The apical segmental artery of the left lung is a branch of the pulmonary
    artery responsible for supplying blood to the apical segment of the upper lobe
    of the left lung. This artery supports the oxygenation of blood and the overall
    function of the lung's apical region, contributing to efficient respiratory processes.
  Type: 0
  IsAnimated: 0
  LayerIndex: 0
  LayerPrefabReference:
    m_AssetGUID: 3b8ef6fce538ef44d95eeef914fe4bfa
    m_SubObjectName: 
    m_SubObjectType: 
    m_EditorAssetChanged: 0
  OpaqueMaterial: {fileID: 2100000, guid: 4707b7a7a890c784eaf9a14eb4397be9, type: 2}
  TransparentMaterial: {fileID: 2100000, guid: 9c838485901a0bc4691a6071881b4cf7, type: 2}
  Color: {r: 0.39607844, g: 0.23137255, b: 0.8, a: 1}
