%YAML 1.1
%TAG !u! tag:unity3d.com,2011:
--- !u!114 &11400000
MonoBehaviour:
  m_ObjectHideFlags: 0
  m_CorrespondingSourceObject: {fileID: 0}
  m_PrefabInstance: {fileID: 0}
  m_PrefabAsset: {fileID: 0}
  m_GameObject: {fileID: 0}
  m_Enabled: 1
  m_EditorHideFlags: 0
  m_Script: {fileID: 11500000, guid: 997bf3f184894634c92d6ab0cbc7999b, type: 3}
  m_Name: Femoral artery (right)
  m_EditorClassIdentifier: 
  Name: Femoral artery (right)
  Description: Similar to its left counterpart, the right femoral artery is a significant
    blood vessel in the thigh responsible for supplying oxygenated blood to the lower
    limb. It continues from the external iliac artery and runs down the thigh, providing
    essential blood flow to the leg's muscles, bones, and skin. The right femoral
    artery plays a crucial role in sustaining circulation in the lower extremity.
  Type: 0
  IsAnimated: 0
  LayerIndex: 0
  LayerPrefabReference:
    m_AssetGUID: dc28a844ff3a66a4aa108c2da9ecff17
    m_SubObjectName: 
    m_SubObjectType: 
    m_EditorAssetChanged: 0
  OpaqueMaterial: {fileID: 2100000, guid: 4707b7a7a890c784eaf9a14eb4397be9, type: 2}
  TransparentMaterial: {fileID: 2100000, guid: 9c838485901a0bc4691a6071881b4cf7, type: 2}
  Color: {r: 0.8, g: 0.16078432, b: 0.16078432, a: 1}
