%YAML 1.1
%TAG !u! tag:unity3d.com,2011:
--- !u!114 &11400000
MonoBehaviour:
  m_ObjectHideFlags: 0
  m_CorrespondingSourceObject: {fileID: 0}
  m_PrefabInstance: {fileID: 0}
  m_PrefabAsset: {fileID: 0}
  m_GameObject: {fileID: 0}
  m_Enabled: 1
  m_EditorHideFlags: 0
  m_Script: {fileID: 11500000, guid: 997bf3f184894634c92d6ab0cbc7999b, type: 3}
  m_Name: Inferior ophthalmic vein (left)
  m_EditorClassIdentifier: 
  Name: Inferior ophthalmic vein (left)
  Description: The left inferior ophthalmic vein is a vein located in the eye region.
    It drains deoxygenated blood from the lower portion of the orbit and surrounding
    structures. The inferior ophthalmic vein is part of the complex network of veins
    in the eye area that plays a role in maintaining circulation within the region.
  Type: 0
  IsAnimated: 0
  LayerIndex: 0
  LayerPrefabReference:
    m_AssetGUID: 7f37a268fd6ce324c862c36643792a64
    m_SubObjectName: 
    m_SubObjectType: 
    m_EditorAssetChanged: 0
  OpaqueMaterial: {fileID: 2100000, guid: 4707b7a7a890c784eaf9a14eb4397be9, type: 2}
  TransparentMaterial: {fileID: 2100000, guid: 9c838485901a0bc4691a6071881b4cf7, type: 2}
  Color: {r: 0.19215687, g: 0.1764706, b: 0.8, a: 1}
