%YAML 1.1
%TAG !u! tag:unity3d.com,2011:
--- !u!114 &11400000
MonoBehaviour:
  m_ObjectHideFlags: 0
  m_CorrespondingSourceObject: {fileID: 0}
  m_PrefabInstance: {fileID: 0}
  m_PrefabAsset: {fileID: 0}
  m_GameObject: {fileID: 0}
  m_Enabled: 1
  m_EditorHideFlags: 0
  m_Script: {fileID: 11500000, guid: 997bf3f184894634c92d6ab0cbc7999b, type: 3}
  m_Name: Inferior ophthalmic vein (right)
  m_EditorClassIdentifier: 
  Name: Inferior ophthalmic vein (right)
  Description: Similar to its left counterpart, the right inferior ophthalmic vein
    is a vein situated in the eye region. It collects deoxygenated blood from the
    lower part of the orbit and adjacent areas. The inferior ophthalmic vein contributes
    to the overall venous drainage of the eye and its associated structures.
  Type: 0
  IsAnimated: 0
  LayerIndex: 0
  LayerPrefabReference:
    m_AssetGUID: 27d87bf1c32bfbf4b8feb40f5623cf96
    m_SubObjectName: 
    m_SubObjectType: 
    m_EditorAssetChanged: 0
  OpaqueMaterial: {fileID: 2100000, guid: 4707b7a7a890c784eaf9a14eb4397be9, type: 2}
  TransparentMaterial: {fileID: 2100000, guid: 9c838485901a0bc4691a6071881b4cf7, type: 2}
  Color: {r: 0.19215687, g: 0.1764706, b: 0.8, a: 1}
