%YAML 1.1
%TAG !u! tag:unity3d.com,2011:
--- !u!114 &11400000
MonoBehaviour:
  m_ObjectHideFlags: 0
  m_CorrespondingSourceObject: {fileID: 0}
  m_PrefabInstance: {fileID: 0}
  m_PrefabAsset: {fileID: 0}
  m_GameObject: {fileID: 0}
  m_Enabled: 1
  m_EditorHideFlags: 0
  m_Script: {fileID: 11500000, guid: 997bf3f184894634c92d6ab0cbc7999b, type: 3}
  m_Name: Inferior border of heart
  m_EditorClassIdentifier: 
  Name: Inferior border of heart
  Description: The inferior border of the heart is the lower margin of the heart's
    muscular walls. It is primarily formed by the right ventricle. The inferior border
    of the heart is in close proximity to the diaphragm and other abdominal organs.
    This border is an important anatomical landmark used to describe the heart's
    orientation within the thoracic cavity.
  Type: 0
  IsAnimated: 0
  LayerIndex: 0
  LayerPrefabReference:
    m_AssetGUID: c03172f1298859a4090cdcd154ce8c73
    m_SubObjectName: 
    m_SubObjectType: 
    m_EditorAssetChanged: 0
  OpaqueMaterial: {fileID: 2100000, guid: 4707b7a7a890c784eaf9a14eb4397be9, type: 2}
  TransparentMaterial: {fileID: 2100000, guid: 9c838485901a0bc4691a6071881b4cf7, type: 2}
  Color: {r: 1, g: 0.12156863, b: 0, a: 1}
