%YAML 1.1
%TAG !u! tag:unity3d.com,2011:
--- !u!114 &11400000
MonoBehaviour:
  m_ObjectHideFlags: 0
  m_CorrespondingSourceObject: {fileID: 0}
  m_PrefabInstance: {fileID: 0}
  m_PrefabAsset: {fileID: 0}
  m_GameObject: {fileID: 0}
  m_Enabled: 1
  m_EditorHideFlags: 0
  m_Script: {fileID: 11500000, guid: 997bf3f184894634c92d6ab0cbc7999b, type: 3}
  m_Name: Left common carotid artery
  m_EditorClassIdentifier: 
  Name: Left common carotid artery
  Description: The left common carotid artery is a major blood vessel that originates
    directly from the aortic arch. It ascends along the left side of the neck and
    divides into the internal carotid artery, which supplies the brain, and the external
    carotid artery, which provides blood to the face and neck. The left common carotid
    artery plays a critical role in delivering oxygenated blood to these regions.
  Type: 0
  IsAnimated: 0
  LayerIndex: 0
  LayerPrefabReference:
    m_AssetGUID: 70c1e99c597545a478a2bf4f6fbecd0a
    m_SubObjectName: 
    m_SubObjectType: 
    m_EditorAssetChanged: 0
  OpaqueMaterial: {fileID: 2100000, guid: 4707b7a7a890c784eaf9a14eb4397be9, type: 2}
  TransparentMaterial: {fileID: 2100000, guid: 9c838485901a0bc4691a6071881b4cf7, type: 2}
  Color: {r: 1, g: 0.12156863, b: 0, a: 1}
