%YAML 1.1
%TAG !u! tag:unity3d.com,2011:
--- !u!114 &11400000
MonoBehaviour:
  m_ObjectHideFlags: 0
  m_CorrespondingSourceObject: {fileID: 0}
  m_PrefabInstance: {fileID: 0}
  m_PrefabAsset: {fileID: 0}
  m_GameObject: {fileID: 0}
  m_Enabled: 1
  m_EditorHideFlags: 0
  m_Script: {fileID: 11500000, guid: 997bf3f184894634c92d6ab0cbc7999b, type: 3}
  m_Name: Left semilunar leaflet of pulmonary valve
  m_EditorClassIdentifier: 
  Name: Left semilunar leaflet of pulmonary valve
  Description: The left semilunar leaflet of the pulmonary valve is one of three
    leaflets that form the pulmonary valve. It is situated on the left side of the
    valve and plays a critical role in preventing the backflow of blood from the
    pulmonary artery into the right ventricle during ventricular relaxation. The
    left semilunar leaflet contributes to efficient pulmonary circulation.
  Type: 0
  IsAnimated: 0
  LayerIndex: 0
  LayerPrefabReference:
    m_AssetGUID: f9d881e1fd78f1b4b90761415f333497
    m_SubObjectName: 
    m_SubObjectType: 
    m_EditorAssetChanged: 0
  OpaqueMaterial: {fileID: 2100000, guid: 4707b7a7a890c784eaf9a14eb4397be9, type: 2}
  TransparentMaterial: {fileID: 2100000, guid: 9c838485901a0bc4691a6071881b4cf7, type: 2}
  Color: {r: 1, g: 0.12156863, b: 0, a: 1}
