%YAML 1.1
%TAG !u! tag:unity3d.com,2011:
--- !u!114 &11400000
MonoBehaviour:
  m_ObjectHideFlags: 0
  m_CorrespondingSourceObject: {fileID: 0}
  m_PrefabInstance: {fileID: 0}
  m_PrefabAsset: {fileID: 0}
  m_GameObject: {fileID: 0}
  m_Enabled: 1
  m_EditorHideFlags: 0
  m_Script: {fileID: 11500000, guid: 997bf3f184894634c92d6ab0cbc7999b, type: 3}
  m_Name: Septal leaflet of right atrioventricular valve
  m_EditorClassIdentifier: 
  Name: Septal leaflet of right atrioventricular valve
  Description: The septal leaflet of the right atrioventricular (AV) valve, also
    known as the tricuspid valve, is one of three leaflets that compose the valve.
    Positioned along the interventricular septum, it regulates blood flow between
    the right atrium and right ventricle. The septal leaflet prevents backflow of
    blood into the right atrium during ventricular contraction, maintaining efficient
    circulation.
  Type: 0
  IsAnimated: 0
  LayerIndex: 0
  LayerPrefabReference:
    m_AssetGUID: c69e74fd64cfccd4d9304af9844fd78e
    m_SubObjectName: 
    m_SubObjectType: 
    m_EditorAssetChanged: 0
  OpaqueMaterial: {fileID: 2100000, guid: 4707b7a7a890c784eaf9a14eb4397be9, type: 2}
  TransparentMaterial: {fileID: 2100000, guid: 9c838485901a0bc4691a6071881b4cf7, type: 2}
  Color: {r: 1, g: 0.12156863, b: 0, a: 1}
