%YAML 1.1
%TAG !u! tag:unity3d.com,2011:
--- !u!1 &201938300658660728
GameObject:
  m_ObjectHideFlags: 0
  m_CorrespondingSourceObject: {fileID: 0}
  m_PrefabInstance: {fileID: 0}
  m_PrefabAsset: {fileID: 0}
  serializedVersion: 6
  m_Component:
  - component: {fileID: 6412008622008300943}
  - component: {fileID: 2741324015689417758}
  - component: {fileID: 5095746839500215027}
  - component: {fileID: 7245587814888172855}
  m_Layer: 0
  m_Name: UIButtonFontIcon
  m_TagString: Untagged
  m_Icon: {fileID: 0}
  m_NavMeshLayer: 0
  m_StaticEditorFlags: 0
  m_IsActive: 1
--- !u!224 &6412008622008300943
RectTransform:
  m_ObjectHideFlags: 0
  m_CorrespondingSourceObject: {fileID: 0}
  m_PrefabInstance: {fileID: 0}
  m_PrefabAsset: {fileID: 0}
  m_GameObject: {fileID: 201938300658660728}
  m_LocalRotation: {x: -0, y: -0, z: -0, w: 1}
  m_LocalPosition: {x: 0, y: 0, z: 0}
  m_LocalScale: {x: 1, y: 1, z: 1}
  m_ConstrainProportionsScale: 0
  m_Children: []
  m_Father: {fileID: 7216918420766221479}
  m_RootOrder: 1
  m_LocalEulerAnglesHint: {x: 0, y: 0, z: 0}
  m_AnchorMin: {x: 0.5, y: 0.5}
  m_AnchorMax: {x: 0.5, y: 0.5}
  m_AnchoredPosition: {x: 0, y: 0}
  m_SizeDelta: {x: 32, y: 32}
  m_Pivot: {x: 0.5, y: 0.5}
--- !u!222 &2741324015689417758
CanvasRenderer:
  m_ObjectHideFlags: 0
  m_CorrespondingSourceObject: {fileID: 0}
  m_PrefabInstance: {fileID: 0}
  m_PrefabAsset: {fileID: 0}
  m_GameObject: {fileID: 201938300658660728}
  m_CullTransparentMesh: 1
--- !u!114 &5095746839500215027
MonoBehaviour:
  m_ObjectHideFlags: 0
  m_CorrespondingSourceObject: {fileID: 0}
  m_PrefabInstance: {fileID: 0}
  m_PrefabAsset: {fileID: 0}
  m_GameObject: {fileID: 201938300658660728}
  m_Enabled: 1
  m_EditorHideFlags: 0
  m_Script: {fileID: 11500000, guid: f4688fdb7df04437aeb418b961361dc5, type: 3}
  m_Name: 
  m_EditorClassIdentifier: 
  m_Material: {fileID: 0}
  m_Color: {r: 1, g: 1, b: 1, a: 1}
  m_RaycastTarget: 1
  m_RaycastPadding: {x: 0, y: 0, z: 0, w: 0}
  m_Maskable: 1
  m_OnCullStateChanged:
    m_PersistentCalls:
      m_Calls: []
  m_text: "\uF5BE"
  m_isRightToLeft: 0
  m_fontAsset: {fileID: 11400000, guid: 9b0d0ee11ff70b04d901a29b519cbaa0, type: 2}
  m_sharedMaterial: {fileID: 5762245003366665926, guid: 9b0d0ee11ff70b04d901a29b519cbaa0, type: 2}
  m_fontSharedMaterials: []
  m_fontMaterial: {fileID: 0}
  m_fontMaterials: []
  m_fontColor32:
    serializedVersion: 2
    rgba: 4294967295
  m_fontColor: {r: 1, g: 1, b: 1, a: 1}
  m_enableVertexGradient: 0
  m_colorMode: 3
  m_fontColorGradient:
    topLeft: {r: 1, g: 1, b: 1, a: 1}
    topRight: {r: 1, g: 1, b: 1, a: 1}
    bottomLeft: {r: 1, g: 1, b: 1, a: 1}
    bottomRight: {r: 1, g: 1, b: 1, a: 1}
  m_fontColorGradientPreset: {fileID: 0}
  m_spriteAsset: {fileID: 0}
  m_tintAllSprites: 0
  m_StyleSheet: {fileID: 0}
  m_TextStyleHashCode: -1183493901
  m_overrideHtmlColors: 0
  m_faceColor:
    serializedVersion: 2
    rgba: 4294967295
  m_fontSize: 10
  m_fontSizeBase: 10
  m_fontWeight: 400
  m_enableAutoSizing: 0
  m_fontSizeMin: 18
  m_fontSizeMax: 72
  m_fontStyle: 0
  m_HorizontalAlignment: 2
  m_VerticalAlignment: 4096
  m_textAlignment: 65535
  m_characterSpacing: 0
  m_wordSpacing: 0
  m_lineSpacing: 0
  m_lineSpacingMax: 0
  m_paragraphSpacing: 0
  m_charWidthMaxAdj: 0
  m_enableWordWrapping: 1
  m_wordWrappingRatios: 0.4
  m_overflowMode: 0
  m_linkedTextComponent: {fileID: 0}
  parentLinkedComponent: {fileID: 0}
  m_enableKerning: 1
  m_enableExtraPadding: 0
  checkPaddingRequired: 0
  m_isRichText: 1
  m_parseCtrlCharacters: 1
  m_isOrthographic: 1
  m_isCullingEnabled: 0
  m_horizontalMapping: 0
  m_verticalMapping: 0
  m_uvLineOffset: 0
  m_geometrySortingOrder: 0
  m_IsTextObjectScaleStatic: 0
  m_VertexBufferAutoSizeReduction: 0
  m_useMaxVisibleDescender: 1
  m_pageToDisplay: 1
  m_margin: {x: 0, y: 0, z: 0, w: 0}
  m_isUsingLegacyAnimationComponent: 0
  m_isVolumetricText: 0
  m_hasFontAssetChanged: 0
  m_baseMaterial: {fileID: 0}
  m_maskOffset: {x: 0, y: 0, z: 0, w: 0}
--- !u!114 &7245587814888172855
MonoBehaviour:
  m_ObjectHideFlags: 0
  m_CorrespondingSourceObject: {fileID: 0}
  m_PrefabInstance: {fileID: 0}
  m_PrefabAsset: {fileID: 0}
  m_GameObject: {fileID: 201938300658660728}
  m_Enabled: 1
  m_EditorHideFlags: 0
  m_Script: {fileID: 11500000, guid: 258623d14a250c648b5b9f7b96354ba7, type: 3}
  m_Name: 
  m_EditorClassIdentifier: 
  fontIcons: {fileID: 11400000, guid: b490f983baa13694cb7e5ecc6bd0dae3, type: 2}
  currentIconName: Icon 117
  textMeshProComponent: {fileID: 5095746839500215027}
  iconFontAsset: {fileID: 0}
--- !u!1 &410843422125320171
GameObject:
  m_ObjectHideFlags: 0
  m_CorrespondingSourceObject: {fileID: 0}
  m_PrefabInstance: {fileID: 0}
  m_PrefabAsset: {fileID: 0}
  serializedVersion: 6
  m_Component:
  - component: {fileID: 7216918420766221479}
  - component: {fileID: 237495410432951788}
  m_Layer: 5
  m_Name: Icon
  m_TagString: Untagged
  m_Icon: {fileID: 0}
  m_NavMeshLayer: 0
  m_StaticEditorFlags: 0
  m_IsActive: 0
--- !u!224 &7216918420766221479
RectTransform:
  m_ObjectHideFlags: 0
  m_CorrespondingSourceObject: {fileID: 0}
  m_PrefabInstance: {fileID: 0}
  m_PrefabAsset: {fileID: 0}
  m_GameObject: {fileID: 410843422125320171}
  m_LocalRotation: {x: -0, y: -0, z: -0, w: 1}
  m_LocalPosition: {x: 0, y: 0, z: 0}
  m_LocalScale: {x: 1, y: 1, z: 1}
  m_ConstrainProportionsScale: 0
  m_Children:
  - {fileID: 3103173967884524515}
  - {fileID: 6412008622008300943}
  - {fileID: 1520311476867378557}
  m_Father: {fileID: 6922469056340231698}
  m_RootOrder: 0
  m_LocalEulerAnglesHint: {x: 0, y: 0, z: 0}
  m_AnchorMin: {x: 0, y: 1}
  m_AnchorMax: {x: 0, y: 1}
  m_AnchoredPosition: {x: 16, y: -15.999994}
  m_SizeDelta: {x: 12, y: 31.999989}
  m_Pivot: {x: 0.5, y: 0.5}
--- !u!114 &237495410432951788
MonoBehaviour:
  m_ObjectHideFlags: 0
  m_CorrespondingSourceObject: {fileID: 0}
  m_PrefabInstance: {fileID: 0}
  m_PrefabAsset: {fileID: 0}
  m_GameObject: {fileID: 410843422125320171}
  m_Enabled: 1
  m_EditorHideFlags: 0
  m_Script: {fileID: 11500000, guid: 306cc8c2b49d7114eaa3623786fc2126, type: 3}
  m_Name: 
  m_EditorClassIdentifier: 
  m_IgnoreLayout: 0
  m_MinWidth: 12
  m_MinHeight: 12
  m_PreferredWidth: -1
  m_PreferredHeight: -1
  m_FlexibleWidth: -1
  m_FlexibleHeight: -1
  m_LayoutPriority: 1
--- !u!1 &2044856827291504467
GameObject:
  m_ObjectHideFlags: 0
  m_CorrespondingSourceObject: {fileID: 0}
  m_PrefabInstance: {fileID: 0}
  m_PrefabAsset: {fileID: 0}
  serializedVersion: 6
  m_Component:
  - component: {fileID: 4897024374970528438}
  - component: {fileID: 3217071270568297238}
  - component: {fileID: 8467006667157818416}
  - component: {fileID: 2650124607149202423}
  - component: {fileID: 8689816762975716001}
  m_Layer: 5
  m_Name: ToggleBar
  m_TagString: Untagged
  m_Icon: {fileID: 0}
  m_NavMeshLayer: 0
  m_StaticEditorFlags: 0
  m_IsActive: 0
--- !u!224 &4897024374970528438
RectTransform:
  m_ObjectHideFlags: 0
  m_CorrespondingSourceObject: {fileID: 0}
  m_PrefabInstance: {fileID: 0}
  m_PrefabAsset: {fileID: 0}
  m_GameObject: {fileID: 2044856827291504467}
  m_LocalRotation: {x: -0, y: -0, z: -0, w: 1}
  m_LocalPosition: {x: 0, y: 0, z: 0}
  m_LocalScale: {x: 1, y: 1, z: 1}
  m_ConstrainProportionsScale: 0
  m_Children: []
  m_Father: {fileID: 4185972052008607586}
  m_RootOrder: 0
  m_LocalEulerAnglesHint: {x: 0, y: 0, z: 0}
  m_AnchorMin: {x: 0.5, y: 0.5}
  m_AnchorMax: {x: 0.5, y: 0.5}
  m_AnchoredPosition: {x: 0, y: -9}
  m_SizeDelta: {x: 8, y: 2}
  m_Pivot: {x: 0.5, y: 0.5}
--- !u!222 &3217071270568297238
CanvasRenderer:
  m_ObjectHideFlags: 0
  m_CorrespondingSourceObject: {fileID: 0}
  m_PrefabInstance: {fileID: 0}
  m_PrefabAsset: {fileID: 0}
  m_GameObject: {fileID: 2044856827291504467}
  m_CullTransparentMesh: 1
--- !u!114 &8467006667157818416
MonoBehaviour:
  m_ObjectHideFlags: 0
  m_CorrespondingSourceObject: {fileID: 0}
  m_PrefabInstance: {fileID: 0}
  m_PrefabAsset: {fileID: 0}
  m_GameObject: {fileID: 2044856827291504467}
  m_Enabled: 1
  m_EditorHideFlags: 0
  m_Script: {fileID: 11500000, guid: 1344c3c82d62a2a41a3576d8abb8e3ea, type: 3}
  m_Name: 
  m_EditorClassIdentifier: 
  m_Material: {fileID: 2100000, guid: b332d87877c99c84fadd6f1cba5c861b, type: 2}
  m_Color: {r: 1, g: 1, b: 1, a: 0}
  m_RaycastTarget: 0
  m_RaycastPadding: {x: 0, y: 0, z: 0, w: 0}
  m_Maskable: 1
  m_OnCullStateChanged:
    m_PersistentCalls:
      m_Calls: []
  m_Texture: {fileID: 0}
  m_UVRect:
    serializedVersion: 2
    x: 0
    y: 0
    width: 1
    height: 1
--- !u!114 &2650124607149202423
MonoBehaviour:
  m_ObjectHideFlags: 0
  m_CorrespondingSourceObject: {fileID: 0}
  m_PrefabInstance: {fileID: 0}
  m_PrefabAsset: {fileID: 0}
  m_GameObject: {fileID: 2044856827291504467}
  m_Enabled: 1
  m_EditorHideFlags: 0
  m_Script: {fileID: 11500000, guid: 0fda4953718e0264291c42cb2a637fb5, type: 3}
  m_Name: 
  m_EditorClassIdentifier: 
--- !u!114 &8689816762975716001
MonoBehaviour:
  m_ObjectHideFlags: 0
  m_CorrespondingSourceObject: {fileID: 0}
  m_PrefabInstance: {fileID: 0}
  m_PrefabAsset: {fileID: 0}
  m_GameObject: {fileID: 2044856827291504467}
  m_Enabled: 1
  m_EditorHideFlags: 0
  m_Script: {fileID: 11500000, guid: 8c32952b3c466d34ba06bd1204afec4c, type: 3}
  m_Name: 
  m_EditorClassIdentifier: 
  materialPropertiesFoldedOut: 0
  instanceMaterials: 1
  _Relative_To_Height_: 0
  _Bevel_Radius_: 0.01
  _Line_Width_: 0.01
  _Outer_Fuzz_Start_: 0.0021
  _Outer_Fuzz_End_: 0.001
  _Fixed_Unit_Multiplier_: 1000
  _Motion_: 0
  _Max_Intensity_: 0.746
  _Intensity_Fade_In_Exponent_: 2
  _Color_: {r: 0.58825207, g: 0.62312603, b: 0.65800005, a: 1}
  _Inner_Color_: {r: 0.007999993, g: 0.404, b: 0.8, a: 1}
  _Blend_Exponent_: 1
  _Falloff_: 2.5
  _Bias_: 0.5
  _SrcBlend: 1
  _DstBlend: 1
  _StencilReference: 0
  _StencilComparison: 0
  _StencilOperation: 0
  _ZTest: 4
  _ZWrite: 0
  _MainTex: {fileID: 0}
  _ClipRect: {x: 0, y: 0, z: 0, w: 0}
  _ClipRectRadii: {x: 0, y: 0, z: 0, w: 0}
--- !u!1 &2142167140070017856
GameObject:
  m_ObjectHideFlags: 0
  m_CorrespondingSourceObject: {fileID: 0}
  m_PrefabInstance: {fileID: 0}
  m_PrefabAsset: {fileID: 0}
  serializedVersion: 6
  m_Component:
  - component: {fileID: 5319578128471115350}
  - component: {fileID: 6308192756412013337}
  - component: {fileID: 1922220768106560367}
  - component: {fileID: 2325143273400926206}
  m_Layer: 5
  m_Name: Text
  m_TagString: Untagged
  m_Icon: {fileID: 0}
  m_NavMeshLayer: 0
  m_StaticEditorFlags: 0
  m_IsActive: 1
--- !u!224 &5319578128471115350
RectTransform:
  m_ObjectHideFlags: 0
  m_CorrespondingSourceObject: {fileID: 0}
  m_PrefabInstance: {fileID: 0}
  m_PrefabAsset: {fileID: 0}
  m_GameObject: {fileID: 2142167140070017856}
  m_LocalRotation: {x: -0, y: -0, z: -0, w: 1}
  m_LocalPosition: {x: 0, y: 0, z: 0}
  m_LocalScale: {x: 1, y: 1, z: 1}
  m_ConstrainProportionsScale: 0
  m_Children: []
  m_Father: {fileID: 6922469056340231698}
  m_RootOrder: 1
  m_LocalEulerAnglesHint: {x: 0, y: 0, z: 0}
  m_AnchorMin: {x: 0, y: 0}
  m_AnchorMax: {x: 0, y: 0}
  m_AnchoredPosition: {x: 0, y: 0}
  m_SizeDelta: {x: 0, y: 0}
  m_Pivot: {x: 0.5, y: 0.5}
--- !u!222 &6308192756412013337
CanvasRenderer:
  m_ObjectHideFlags: 0
  m_CorrespondingSourceObject: {fileID: 0}
  m_PrefabInstance: {fileID: 0}
  m_PrefabAsset: {fileID: 0}
  m_GameObject: {fileID: 2142167140070017856}
  m_CullTransparentMesh: 1
--- !u!114 &1922220768106560367
MonoBehaviour:
  m_ObjectHideFlags: 0
  m_CorrespondingSourceObject: {fileID: 0}
  m_PrefabInstance: {fileID: 0}
  m_PrefabAsset: {fileID: 0}
  m_GameObject: {fileID: 2142167140070017856}
  m_Enabled: 1
  m_EditorHideFlags: 0
  m_Script: {fileID: 11500000, guid: f4688fdb7df04437aeb418b961361dc5, type: 3}
  m_Name: 
  m_EditorClassIdentifier: 
  m_Material: {fileID: 0}
  m_Color: {r: 1, g: 1, b: 1, a: 1}
  m_RaycastTarget: 0
  m_RaycastPadding: {x: 0, y: 0, z: 0, w: 0}
  m_Maskable: 1
  m_OnCullStateChanged:
    m_PersistentCalls:
      m_Calls: []
  m_text: Button
  m_isRightToLeft: 0
  m_fontAsset: {fileID: 11400000, guid: 533bdd8d5c92b52448ee2ecf7bd828a4, type: 2}
  m_sharedMaterial: {fileID: -1005824763306460071, guid: 533bdd8d5c92b52448ee2ecf7bd828a4, type: 2}
  m_fontSharedMaterials: []
  m_fontMaterial: {fileID: 0}
  m_fontMaterials: []
  m_fontColor32:
    serializedVersion: 2
    rgba: 4294967295
  m_fontColor: {r: 1, g: 1, b: 1, a: 1}
  m_enableVertexGradient: 0
  m_colorMode: 3
  m_fontColorGradient:
    topLeft: {r: 1, g: 1, b: 1, a: 1}
    topRight: {r: 1, g: 1, b: 1, a: 1}
    bottomLeft: {r: 1, g: 1, b: 1, a: 1}
    bottomRight: {r: 1, g: 1, b: 1, a: 1}
  m_fontColorGradientPreset: {fileID: 0}
  m_spriteAsset: {fileID: 0}
  m_tintAllSprites: 0
  m_StyleSheet: {fileID: 0}
  m_TextStyleHashCode: -1183493901
  m_overrideHtmlColors: 0
  m_faceColor:
    serializedVersion: 2
    rgba: 4294967295
  m_fontSize: 8
  m_fontSizeBase: 6
  m_fontWeight: 400
  m_enableAutoSizing: 0
  m_fontSizeMin: 18
  m_fontSizeMax: 72
  m_fontStyle: 0
  m_HorizontalAlignment: 2
  m_VerticalAlignment: 512
  m_textAlignment: 65535
  m_characterSpacing: 0
  m_wordSpacing: 0
  m_lineSpacing: 0
  m_lineSpacingMax: 0
  m_paragraphSpacing: 0
  m_charWidthMaxAdj: 0
  m_enableWordWrapping: 1
  m_wordWrappingRatios: 0.4
  m_overflowMode: 0
  m_linkedTextComponent: {fileID: 0}
  parentLinkedComponent: {fileID: 0}
  m_enableKerning: 1
  m_enableExtraPadding: 0
  checkPaddingRequired: 0
  m_isRichText: 1
  m_parseCtrlCharacters: 1
  m_isOrthographic: 1
  m_isCullingEnabled: 0
  m_horizontalMapping: 0
  m_verticalMapping: 0
  m_uvLineOffset: 0
  m_geometrySortingOrder: 0
  m_IsTextObjectScaleStatic: 0
  m_VertexBufferAutoSizeReduction: 0
  m_useMaxVisibleDescender: 1
  m_pageToDisplay: 1
  m_margin: {x: 0, y: 0, z: 0, w: 0}
  m_isUsingLegacyAnimationComponent: 0
  m_isVolumetricText: 0
  m_hasFontAssetChanged: 0
  m_baseMaterial: {fileID: 0}
  m_maskOffset: {x: 0, y: 0, z: 0, w: 0}
--- !u!114 &2325143273400926206
MonoBehaviour:
  m_ObjectHideFlags: 0
  m_CorrespondingSourceObject: {fileID: 0}
  m_PrefabInstance: {fileID: 0}
  m_PrefabAsset: {fileID: 0}
  m_GameObject: {fileID: 2142167140070017856}
  m_Enabled: 1
  m_EditorHideFlags: 0
  m_Script: {fileID: 11500000, guid: 306cc8c2b49d7114eaa3623786fc2126, type: 3}
  m_Name: 
  m_EditorClassIdentifier: 
  m_IgnoreLayout: 0
  m_MinWidth: -1
  m_MinHeight: -1
  m_PreferredWidth: -1
  m_PreferredHeight: -1
  m_FlexibleWidth: 1
  m_FlexibleHeight: -1
  m_LayoutPriority: 0
--- !u!1 &2302024426645924609
GameObject:
  m_ObjectHideFlags: 0
  m_CorrespondingSourceObject: {fileID: 0}
  m_PrefabInstance: {fileID: 0}
  m_PrefabAsset: {fileID: 0}
  serializedVersion: 6
  m_Component:
  - component: {fileID: 3103173967884524515}
  - component: {fileID: 4898182839223366794}
  - component: {fileID: 2228947736508096533}
  - component: {fileID: 2609775521690836970}
  m_Layer: 5
  m_Name: UIButtonSpriteIcon
  m_TagString: Untagged
  m_Icon: {fileID: 0}
  m_NavMeshLayer: 0
  m_StaticEditorFlags: 0
  m_IsActive: 0
--- !u!224 &3103173967884524515
RectTransform:
  m_ObjectHideFlags: 0
  m_CorrespondingSourceObject: {fileID: 0}
  m_PrefabInstance: {fileID: 0}
  m_PrefabAsset: {fileID: 0}
  m_GameObject: {fileID: 2302024426645924609}
  m_LocalRotation: {x: -0, y: -0, z: -0, w: 1}
  m_LocalPosition: {x: 0, y: 0, z: 0}
  m_LocalScale: {x: 1, y: 1, z: 1}
  m_ConstrainProportionsScale: 0
  m_Children: []
  m_Father: {fileID: 7216918420766221479}
  m_RootOrder: 0
  m_LocalEulerAnglesHint: {x: 0, y: 0, z: 0}
  m_AnchorMin: {x: 0.5, y: 0.5}
  m_AnchorMax: {x: 0.5, y: 0.5}
  m_AnchoredPosition: {x: 0, y: 0}
  m_SizeDelta: {x: 32, y: 32}
  m_Pivot: {x: 0.5, y: 0.5}
--- !u!222 &4898182839223366794
CanvasRenderer:
  m_ObjectHideFlags: 0
  m_CorrespondingSourceObject: {fileID: 0}
  m_PrefabInstance: {fileID: 0}
  m_PrefabAsset: {fileID: 0}
  m_GameObject: {fileID: 2302024426645924609}
  m_CullTransparentMesh: 1
--- !u!114 &2228947736508096533
MonoBehaviour:
  m_ObjectHideFlags: 0
  m_CorrespondingSourceObject: {fileID: 0}
  m_PrefabInstance: {fileID: 0}
  m_PrefabAsset: {fileID: 0}
  m_GameObject: {fileID: 2302024426645924609}
  m_Enabled: 1
  m_EditorHideFlags: 0
  m_Script: {fileID: 11500000, guid: fe87c0e1cc204ed48ad3b37840f39efc, type: 3}
  m_Name: 
  m_EditorClassIdentifier: 
  m_Material: {fileID: 2100000, guid: 2157a29b6ece02542b46ddae766e70e8, type: 2}
  m_Color: {r: 1, g: 1, b: 1, a: 1}
  m_RaycastTarget: 0
  m_RaycastPadding: {x: 0, y: 0, z: 0, w: 0}
  m_Maskable: 1
  m_OnCullStateChanged:
    m_PersistentCalls:
      m_Calls: []
  m_Sprite: {fileID: 21300000, guid: 2108070cd361cfd4395534f728a8e5cf, type: 3}
  m_Type: 0
  m_PreserveAspect: 1
  m_FillCenter: 1
  m_FillMethod: 4
  m_FillAmount: 1
  m_FillClockwise: 1
  m_FillOrigin: 0
  m_UseSpriteMesh: 0
  m_PixelsPerUnitMultiplier: 1
--- !u!114 &2609775521690836970
MonoBehaviour:
  m_ObjectHideFlags: 0
  m_CorrespondingSourceObject: {fileID: 0}
  m_PrefabInstance: {fileID: 0}
  m_PrefabAsset: {fileID: 0}
  m_GameObject: {fileID: 2302024426645924609}
  m_Enabled: 1
  m_EditorHideFlags: 0
  m_Script: {fileID: 11500000, guid: 0fda4953718e0264291c42cb2a637fb5, type: 3}
  m_Name: 
  m_EditorClassIdentifier: 
--- !u!1 &7594107385585372191
GameObject:
  m_ObjectHideFlags: 0
  m_CorrespondingSourceObject: {fileID: 0}
  m_PrefabInstance: {fileID: 0}
  m_PrefabAsset: {fileID: 0}
  serializedVersion: 6
  m_Component:
  - component: {fileID: 1520311476867378557}
  - component: {fileID: 4770749099995753258}
  - component: {fileID: 8493469810320727241}
  - component: {fileID: 2318240793594773292}
  m_Layer: 5
  m_Name: Label
  m_TagString: Untagged
  m_Icon: {fileID: 0}
  m_NavMeshLayer: 0
  m_StaticEditorFlags: 0
  m_IsActive: 0
--- !u!224 &1520311476867378557
RectTransform:
  m_ObjectHideFlags: 0
  m_CorrespondingSourceObject: {fileID: 0}
  m_PrefabInstance: {fileID: 0}
  m_PrefabAsset: {fileID: 0}
  m_GameObject: {fileID: 7594107385585372191}
  m_LocalRotation: {x: -0, y: -0, z: -0, w: 1}
  m_LocalPosition: {x: 0, y: 0, z: 0}
  m_LocalScale: {x: 1, y: 1, z: 1}
  m_ConstrainProportionsScale: 0
  m_Children: []
  m_Father: {fileID: 7216918420766221479}
  m_RootOrder: 2
  m_LocalEulerAnglesHint: {x: 0, y: 0, z: 0}
  m_AnchorMin: {x: 0.5, y: 0.5}
  m_AnchorMax: {x: 0.5, y: 0.5}
  m_AnchoredPosition: {x: 0, y: -7.97}
  m_SizeDelta: {x: 32, y: 6}
  m_Pivot: {x: 0.5, y: 0.5}
--- !u!222 &4770749099995753258
CanvasRenderer:
  m_ObjectHideFlags: 0
  m_CorrespondingSourceObject: {fileID: 0}
  m_PrefabInstance: {fileID: 0}
  m_PrefabAsset: {fileID: 0}
  m_GameObject: {fileID: 7594107385585372191}
  m_CullTransparentMesh: 1
--- !u!114 &8493469810320727241
MonoBehaviour:
  m_ObjectHideFlags: 0
  m_CorrespondingSourceObject: {fileID: 0}
  m_PrefabInstance: {fileID: 0}
  m_PrefabAsset: {fileID: 0}
  m_GameObject: {fileID: 7594107385585372191}
  m_Enabled: 1
  m_EditorHideFlags: 0
  m_Script: {fileID: 11500000, guid: f4688fdb7df04437aeb418b961361dc5, type: 3}
  m_Name: 
  m_EditorClassIdentifier: 
  m_Material: {fileID: 0}
  m_Color: {r: 1, g: 1, b: 1, a: 1}
  m_RaycastTarget: 0
  m_RaycastPadding: {x: 0, y: 0, z: 0, w: 0}
  m_Maskable: 1
  m_OnCullStateChanged:
    m_PersistentCalls:
      m_Calls: []
  m_text: Label
  m_isRightToLeft: 0
  m_fontAsset: {fileID: 11400000, guid: 533bdd8d5c92b52448ee2ecf7bd828a4, type: 2}
  m_sharedMaterial: {fileID: -1005824763306460071, guid: 533bdd8d5c92b52448ee2ecf7bd828a4, type: 2}
  m_fontSharedMaterials: []
  m_fontMaterial: {fileID: 0}
  m_fontMaterials: []
  m_fontColor32:
    serializedVersion: 2
    rgba: 4294967295
  m_fontColor: {r: 1, g: 1, b: 1, a: 1}
  m_enableVertexGradient: 0
  m_colorMode: 3
  m_fontColorGradient:
    topLeft: {r: 1, g: 1, b: 1, a: 1}
    topRight: {r: 1, g: 1, b: 1, a: 1}
    bottomLeft: {r: 1, g: 1, b: 1, a: 1}
    bottomRight: {r: 1, g: 1, b: 1, a: 1}
  m_fontColorGradientPreset: {fileID: 0}
  m_spriteAsset: {fileID: 0}
  m_tintAllSprites: 0
  m_StyleSheet: {fileID: 0}
  m_TextStyleHashCode: -1183493901
  m_overrideHtmlColors: 0
  m_faceColor:
    serializedVersion: 2
    rgba: 4294967295
  m_fontSize: 4.66
  m_fontSizeBase: 4.66
  m_fontWeight: 400
  m_enableAutoSizing: 0
  m_fontSizeMin: 18
  m_fontSizeMax: 72
  m_fontStyle: 0
  m_HorizontalAlignment: 2
  m_VerticalAlignment: 512
  m_textAlignment: 65535
  m_characterSpacing: 0
  m_wordSpacing: 0
  m_lineSpacing: 0
  m_lineSpacingMax: 0
  m_paragraphSpacing: 0
  m_charWidthMaxAdj: 0
  m_enableWordWrapping: 1
  m_wordWrappingRatios: 0.4
  m_overflowMode: 0
  m_linkedTextComponent: {fileID: 0}
  parentLinkedComponent: {fileID: 0}
  m_enableKerning: 1
  m_enableExtraPadding: 0
  checkPaddingRequired: 0
  m_isRichText: 1
  m_parseCtrlCharacters: 1
  m_isOrthographic: 1
  m_isCullingEnabled: 0
  m_horizontalMapping: 0
  m_verticalMapping: 0
  m_uvLineOffset: 0
  m_geometrySortingOrder: 0
  m_IsTextObjectScaleStatic: 0
  m_VertexBufferAutoSizeReduction: 0
  m_useMaxVisibleDescender: 1
  m_pageToDisplay: 1
  m_margin: {x: 0, y: 0, z: 0, w: 0}
  m_isUsingLegacyAnimationComponent: 0
  m_isVolumetricText: 0
  m_hasFontAssetChanged: 0
  m_baseMaterial: {fileID: 0}
  m_maskOffset: {x: 0, y: 0, z: 0, w: 0}
--- !u!114 &2318240793594773292
MonoBehaviour:
  m_ObjectHideFlags: 0
  m_CorrespondingSourceObject: {fileID: 0}
  m_PrefabInstance: {fileID: 0}
  m_PrefabAsset: {fileID: 0}
  m_GameObject: {fileID: 7594107385585372191}
  m_Enabled: 1
  m_EditorHideFlags: 0
  m_Script: {fileID: 11500000, guid: 306cc8c2b49d7114eaa3623786fc2126, type: 3}
  m_Name: 
  m_EditorClassIdentifier: 
  m_IgnoreLayout: 0
  m_MinWidth: -1
  m_MinHeight: -1
  m_PreferredWidth: -1
  m_PreferredHeight: -1
  m_FlexibleWidth: 1
  m_FlexibleHeight: -1
  m_LayoutPriority: 0
--- !u!1001 &5139722473249402816
PrefabInstance:
  m_ObjectHideFlags: 0
  serializedVersion: 2
  m_Modification:
    m_TransformParent: {fileID: 0}
    m_Modifications:
    - target: {fileID: 3705378105823492738, guid: b85e005d231192249b7077b40a4d4e45, type: 3}
      propertyPath: m_Name
      value: ButtonWithText
      objectReference: {fileID: 0}
    - target: {fileID: 3705378105823492760, guid: b85e005d231192249b7077b40a4d4e45, type: 3}
      propertyPath: m_Size.x
      value: 140
      objectReference: {fileID: 0}
    - target: {fileID: 3705378105823492760, guid: b85e005d231192249b7077b40a4d4e45, type: 3}
      propertyPath: m_Size.y
      value: 32
      objectReference: {fileID: 0}
    - target: {fileID: 3705378105823492760, guid: b85e005d231192249b7077b40a4d4e45, type: 3}
      propertyPath: m_Center.x
      value: 70
      objectReference: {fileID: 0}
    - target: {fileID: 3705378105823492760, guid: b85e005d231192249b7077b40a4d4e45, type: 3}
      propertyPath: m_Center.y
      value: -16
      objectReference: {fileID: 0}
    - target: {fileID: 3705378105823492761, guid: b85e005d231192249b7077b40a4d4e45, type: 3}
      propertyPath: rectTransform
      value: 
      objectReference: {fileID: 8376646494505211229}
    - target: {fileID: 3705378105823492765, guid: b85e005d231192249b7077b40a4d4e45, type: 3}
      propertyPath: m_Pivot.x
      value: 0
      objectReference: {fileID: 0}
    - target: {fileID: 3705378105823492765, guid: b85e005d231192249b7077b40a4d4e45, type: 3}
      propertyPath: m_Pivot.y
      value: 1
      objectReference: {fileID: 0}
    - target: {fileID: 3705378105823492765, guid: b85e005d231192249b7077b40a4d4e45, type: 3}
      propertyPath: m_RootOrder
      value: 0
      objectReference: {fileID: 0}
    - target: {fileID: 3705378105823492765, guid: b85e005d231192249b7077b40a4d4e45, type: 3}
      propertyPath: m_AnchorMax.x
      value: 0
      objectReference: {fileID: 0}
    - target: {fileID: 3705378105823492765, guid: b85e005d231192249b7077b40a4d4e45, type: 3}
      propertyPath: m_AnchorMax.y
      value: 1
      objectReference: {fileID: 0}
    - target: {fileID: 3705378105823492765, guid: b85e005d231192249b7077b40a4d4e45, type: 3}
      propertyPath: m_AnchorMin.x
      value: 0
      objectReference: {fileID: 0}
    - target: {fileID: 3705378105823492765, guid: b85e005d231192249b7077b40a4d4e45, type: 3}
      propertyPath: m_AnchorMin.y
      value: 1
      objectReference: {fileID: 0}
    - target: {fileID: 3705378105823492765, guid: b85e005d231192249b7077b40a4d4e45, type: 3}
      propertyPath: m_SizeDelta.x
      value: 140
      objectReference: {fileID: 0}
    - target: {fileID: 3705378105823492765, guid: b85e005d231192249b7077b40a4d4e45, type: 3}
      propertyPath: m_SizeDelta.y
      value: 32
      objectReference: {fileID: 0}
    - target: {fileID: 3705378105823492765, guid: b85e005d231192249b7077b40a4d4e45, type: 3}
      propertyPath: m_LocalPosition.x
      value: 0
      objectReference: {fileID: 0}
    - target: {fileID: 3705378105823492765, guid: b85e005d231192249b7077b40a4d4e45, type: 3}
      propertyPath: m_LocalPosition.y
      value: 0
      objectReference: {fileID: 0}
    - target: {fileID: 3705378105823492765, guid: b85e005d231192249b7077b40a4d4e45, type: 3}
      propertyPath: m_LocalPosition.z
      value: 0
      objectReference: {fileID: 0}
    - target: {fileID: 3705378105823492765, guid: b85e005d231192249b7077b40a4d4e45, type: 3}
      propertyPath: m_LocalRotation.w
      value: 1
      objectReference: {fileID: 0}
    - target: {fileID: 3705378105823492765, guid: b85e005d231192249b7077b40a4d4e45, type: 3}
      propertyPath: m_LocalRotation.x
      value: -0
      objectReference: {fileID: 0}
    - target: {fileID: 3705378105823492765, guid: b85e005d231192249b7077b40a4d4e45, type: 3}
      propertyPath: m_LocalRotation.y
      value: -0
      objectReference: {fileID: 0}
    - target: {fileID: 3705378105823492765, guid: b85e005d231192249b7077b40a4d4e45, type: 3}
      propertyPath: m_LocalRotation.z
      value: -0
      objectReference: {fileID: 0}
    - target: {fileID: 3705378105823492765, guid: b85e005d231192249b7077b40a4d4e45, type: 3}
      propertyPath: m_AnchoredPosition.x
      value: 0
      objectReference: {fileID: 0}
    - target: {fileID: 3705378105823492765, guid: b85e005d231192249b7077b40a4d4e45, type: 3}
      propertyPath: m_AnchoredPosition.y
      value: 0
      objectReference: {fileID: 0}
    - target: {fileID: 3705378105823492765, guid: b85e005d231192249b7077b40a4d4e45, type: 3}
      propertyPath: m_LocalEulerAnglesHint.x
      value: 0
      objectReference: {fileID: 0}
    - target: {fileID: 3705378105823492765, guid: b85e005d231192249b7077b40a4d4e45, type: 3}
      propertyPath: m_LocalEulerAnglesHint.y
      value: 0
      objectReference: {fileID: 0}
    - target: {fileID: 3705378105823492765, guid: b85e005d231192249b7077b40a4d4e45, type: 3}
      propertyPath: m_LocalEulerAnglesHint.z
      value: 0
      objectReference: {fileID: 0}
    - target: {fileID: 8714766618717182506, guid: b85e005d231192249b7077b40a4d4e45, type: 3}
      propertyPath: managedReferences[1393819269385945089]
      value: MixedReality.Toolkit.UXCore MixedReality.Toolkit.UX.GraphicTintEffect
      objectReference: {fileID: 0}
    - target: {fileID: 8714766618717182506, guid: b85e005d231192249b7077b40a4d4e45, type: 3}
      propertyPath: managedReferences[1393819269385945090]
      value: MixedReality.Toolkit.UXCore MixedReality.Toolkit.UX.GraphicTintEffect
      objectReference: {fileID: 0}
    - target: {fileID: 8714766618717182506, guid: b85e005d231192249b7077b40a4d4e45, type: 3}
      propertyPath: managedReferences[1393819269385945089].name
      value: GraphicTint
      objectReference: {fileID: 0}
    - target: {fileID: 8714766618717182506, guid: b85e005d231192249b7077b40a4d4e45, type: 3}
      propertyPath: managedReferences[1393819269385945090].name
      value: GraphicTint
      objectReference: {fileID: 0}
    - target: {fileID: 8714766618717182506, guid: b85e005d231192249b7077b40a4d4e45, type: 3}
      propertyPath: managedReferences[1393819269385945089].color.a
      value: 0.5019608
      objectReference: {fileID: 0}
    - target: {fileID: 8714766618717182506, guid: b85e005d231192249b7077b40a4d4e45, type: 3}
      propertyPath: managedReferences[1393819269385945089].color.b
      value: 1
      objectReference: {fileID: 0}
    - target: {fileID: 8714766618717182506, guid: b85e005d231192249b7077b40a4d4e45, type: 3}
      propertyPath: managedReferences[1393819269385945089].color.g
      value: 1
      objectReference: {fileID: 0}
    - target: {fileID: 8714766618717182506, guid: b85e005d231192249b7077b40a4d4e45, type: 3}
      propertyPath: managedReferences[1393819269385945089].color.r
      value: 1
      objectReference: {fileID: 0}
    - target: {fileID: 8714766618717182506, guid: b85e005d231192249b7077b40a4d4e45, type: 3}
      propertyPath: managedReferences[1393819269385945090].color.a
      value: 1
      objectReference: {fileID: 0}
    - target: {fileID: 8714766618717182506, guid: b85e005d231192249b7077b40a4d4e45, type: 3}
      propertyPath: managedReferences[1393819269385945090].color.b
      value: 1
      objectReference: {fileID: 0}
    - target: {fileID: 8714766618717182506, guid: b85e005d231192249b7077b40a4d4e45, type: 3}
      propertyPath: managedReferences[1393819269385945090].color.g
      value: 1
      objectReference: {fileID: 0}
    - target: {fileID: 8714766618717182506, guid: b85e005d231192249b7077b40a4d4e45, type: 3}
      propertyPath: managedReferences[1393819269385945090].color.r
      value: 1
      objectReference: {fileID: 0}
    - target: {fileID: 8714766618717182506, guid: b85e005d231192249b7077b40a4d4e45, type: 3}
      propertyPath: managedReferences[1393819269385945089].blendMode
      value: 2
      objectReference: {fileID: 0}
    - target: {fileID: 8714766618717182506, guid: b85e005d231192249b7077b40a4d4e45, type: 3}
      propertyPath: managedReferences[1393819269385945090].blendMode
      value: 0
      objectReference: {fileID: 0}
    - target: {fileID: 8714766618717182506, guid: b85e005d231192249b7077b40a4d4e45, type: 3}
      propertyPath: managedReferences[1393819269385945089].playbackMode
      value: 0
      objectReference: {fileID: 0}
    - target: {fileID: 8714766618717182506, guid: b85e005d231192249b7077b40a4d4e45, type: 3}
      propertyPath: managedReferences[1393819269385945090].playbackMode
      value: 0
      objectReference: {fileID: 0}
    - target: {fileID: 8714766618717182506, guid: b85e005d231192249b7077b40a4d4e45, type: 3}
      propertyPath: managedReferences[1393819269385945089].transitionDuration
      value: 0.15
      objectReference: {fileID: 0}
    - target: {fileID: 8714766618717182506, guid: b85e005d231192249b7077b40a4d4e45, type: 3}
      propertyPath: managedReferences[1393819269385945090].transitionDuration
      value: 0.15
      objectReference: {fileID: 0}
    - target: {fileID: 8714766618717182506, guid: b85e005d231192249b7077b40a4d4e45, type: 3}
      propertyPath: managedReferences[1393819269385945089].tintables.Array.size
      value: 5
      objectReference: {fileID: 0}
    - target: {fileID: 8714766618717182506, guid: b85e005d231192249b7077b40a4d4e45, type: 3}
      propertyPath: managedReferences[1393819269385945090].tintables.Array.size
      value: 1
      objectReference: {fileID: 0}
    - target: {fileID: 8714766618717182506, guid: b85e005d231192249b7077b40a4d4e45, type: 3}
      propertyPath: managedReferences[1393819269385945089].tintables.Array.data[0]
      value: 
      objectReference: {fileID: 2228947736508096533}
    - target: {fileID: 8714766618717182506, guid: b85e005d231192249b7077b40a4d4e45, type: 3}
      propertyPath: managedReferences[1393819269385945089].tintables.Array.data[1]
      value: 
      objectReference: {fileID: 8493469810320727241}
    - target: {fileID: 8714766618717182506, guid: b85e005d231192249b7077b40a4d4e45, type: 3}
      propertyPath: managedReferences[1393819269385945089].tintables.Array.data[2]
      value: 
      objectReference: {fileID: 8467006667157818416}
    - target: {fileID: 8714766618717182506, guid: b85e005d231192249b7077b40a4d4e45, type: 3}
      propertyPath: managedReferences[1393819269385945089].tintables.Array.data[3]
      value: 
      objectReference: {fileID: 1922220768106560367}
    - target: {fileID: 8714766618717182506, guid: b85e005d231192249b7077b40a4d4e45, type: 3}
      propertyPath: managedReferences[1393819269385945089].tintables.Array.data[4]
      value: 
      objectReference: {fileID: 5095746839500215027}
    - target: {fileID: 8714766618717182506, guid: b85e005d231192249b7077b40a4d4e45, type: 3}
      propertyPath: managedReferences[1393819269385945090].tintables.Array.data[0]
      value: 
      objectReference: {fileID: 8467006667157818416}
    - target: {fileID: 8714766618717182506, guid: b85e005d231192249b7077b40a4d4e45, type: 3}
      propertyPath: stateContainers.entries.Array.data[0].value.effects.Array.size
      value: 2
      objectReference: {fileID: 0}
    - target: {fileID: 8714766618717182506, guid: b85e005d231192249b7077b40a4d4e45, type: 3}
      propertyPath: stateContainers.entries.Array.data[4].value.effects.Array.size
      value: 2
      objectReference: {fileID: 0}
    - target: {fileID: 8714766618717182506, guid: b85e005d231192249b7077b40a4d4e45, type: 3}
      propertyPath: stateContainers.entries.Array.data[0].value.effects.Array.data[1]
      value: 1393819269385945089
      objectReference: {fileID: 0}
    - target: {fileID: 8714766618717182506, guid: b85e005d231192249b7077b40a4d4e45, type: 3}
      propertyPath: stateContainers.entries.Array.data[4].value.effects.Array.data[1]
      value: 1393819269385945090
      objectReference: {fileID: 0}
    - target: {fileID: 8714766618717182506, guid: b85e005d231192249b7077b40a4d4e45, type: 3}
      propertyPath: stateContainers.entries.Array.data[0].value.effects.Array.data[1].name
      value: GraphicTint
      objectReference: {fileID: 0}
    - target: {fileID: 8714766618717182506, guid: b85e005d231192249b7077b40a4d4e45, type: 3}
      propertyPath: stateContainers.entries.Array.data[4].value.effects.Array.data[1].name
      value: GraphicTint
      objectReference: {fileID: 0}
    - target: {fileID: 8714766618717182506, guid: b85e005d231192249b7077b40a4d4e45, type: 3}
      propertyPath: stateContainers.entries.Array.data[0].value.effects.Array.data[1].color.a
      value: 0.5019608
      objectReference: {fileID: 0}
    - target: {fileID: 8714766618717182506, guid: b85e005d231192249b7077b40a4d4e45, type: 3}
      propertyPath: stateContainers.entries.Array.data[0].value.effects.Array.data[1].color.b
      value: 1
      objectReference: {fileID: 0}
    - target: {fileID: 8714766618717182506, guid: b85e005d231192249b7077b40a4d4e45, type: 3}
      propertyPath: stateContainers.entries.Array.data[0].value.effects.Array.data[1].color.g
      value: 1
      objectReference: {fileID: 0}
    - target: {fileID: 8714766618717182506, guid: b85e005d231192249b7077b40a4d4e45, type: 3}
      propertyPath: stateContainers.entries.Array.data[0].value.effects.Array.data[1].color.r
      value: 1
      objectReference: {fileID: 0}
    - target: {fileID: 8714766618717182506, guid: b85e005d231192249b7077b40a4d4e45, type: 3}
      propertyPath: stateContainers.entries.Array.data[4].value.effects.Array.data[1].color.a
      value: 1
      objectReference: {fileID: 0}
    - target: {fileID: 8714766618717182506, guid: b85e005d231192249b7077b40a4d4e45, type: 3}
      propertyPath: stateContainers.entries.Array.data[4].value.effects.Array.data[1].color.b
      value: 1
      objectReference: {fileID: 0}
    - target: {fileID: 8714766618717182506, guid: b85e005d231192249b7077b40a4d4e45, type: 3}
      propertyPath: stateContainers.entries.Array.data[4].value.effects.Array.data[1].color.g
      value: 1
      objectReference: {fileID: 0}
    - target: {fileID: 8714766618717182506, guid: b85e005d231192249b7077b40a4d4e45, type: 3}
      propertyPath: stateContainers.entries.Array.data[4].value.effects.Array.data[1].color.r
      value: 1
      objectReference: {fileID: 0}
    - target: {fileID: 8714766618717182506, guid: b85e005d231192249b7077b40a4d4e45, type: 3}
      propertyPath: stateContainers.entries.Array.data[0].value.effects.Array.data[1].blendMode
      value: 2
      objectReference: {fileID: 0}
    - target: {fileID: 8714766618717182506, guid: b85e005d231192249b7077b40a4d4e45, type: 3}
      propertyPath: stateContainers.entries.Array.data[4].value.effects.Array.data[1].blendMode
      value: 0
      objectReference: {fileID: 0}
    - target: {fileID: 8714766618717182506, guid: b85e005d231192249b7077b40a4d4e45, type: 3}
      propertyPath: stateContainers.entries.Array.data[0].value.effects.Array.data[1].playbackMode
      value: 0
      objectReference: {fileID: 0}
    - target: {fileID: 8714766618717182506, guid: b85e005d231192249b7077b40a4d4e45, type: 3}
      propertyPath: stateContainers.entries.Array.data[4].value.effects.Array.data[1].playbackMode
      value: 0
      objectReference: {fileID: 0}
    - target: {fileID: 8714766618717182506, guid: b85e005d231192249b7077b40a4d4e45, type: 3}
      propertyPath: stateContainers.entries.Array.data[0].value.effects.Array.data[1].transitionDuration
      value: 0.15
      objectReference: {fileID: 0}
    - target: {fileID: 8714766618717182506, guid: b85e005d231192249b7077b40a4d4e45, type: 3}
      propertyPath: stateContainers.entries.Array.data[4].value.effects.Array.data[1].transitionDuration
      value: 0.15
      objectReference: {fileID: 0}
    - target: {fileID: 8714766618717182506, guid: b85e005d231192249b7077b40a4d4e45, type: 3}
      propertyPath: stateContainers.entries.Array.data[0].value.effects.Array.data[1].tintables.Array.size
      value: 5
      objectReference: {fileID: 0}
    - target: {fileID: 8714766618717182506, guid: b85e005d231192249b7077b40a4d4e45, type: 3}
      propertyPath: stateContainers.entries.Array.data[4].value.effects.Array.data[1].tintables.Array.size
      value: 1
      objectReference: {fileID: 0}
    - target: {fileID: 8714766618717182506, guid: b85e005d231192249b7077b40a4d4e45, type: 3}
      propertyPath: stateContainers.entries.Array.data[0].value.effects.Array.data[1].tintables.Array.data[0]
      value: 
      objectReference: {fileID: 2228947736508096533}
    - target: {fileID: 8714766618717182506, guid: b85e005d231192249b7077b40a4d4e45, type: 3}
      propertyPath: stateContainers.entries.Array.data[0].value.effects.Array.data[1].tintables.Array.data[1]
      value: 
      objectReference: {fileID: 8493469810320727241}
    - target: {fileID: 8714766618717182506, guid: b85e005d231192249b7077b40a4d4e45, type: 3}
      propertyPath: stateContainers.entries.Array.data[0].value.effects.Array.data[1].tintables.Array.data[2]
      value: 
      objectReference: {fileID: 8467006667157818416}
    - target: {fileID: 8714766618717182506, guid: b85e005d231192249b7077b40a4d4e45, type: 3}
      propertyPath: stateContainers.entries.Array.data[0].value.effects.Array.data[1].tintables.Array.data[3]
      value: 
      objectReference: {fileID: 1922220768106560367}
    - target: {fileID: 8714766618717182506, guid: b85e005d231192249b7077b40a4d4e45, type: 3}
      propertyPath: stateContainers.entries.Array.data[0].value.effects.Array.data[1].tintables.Array.data[4]
      value: 
      objectReference: {fileID: 5095746839500215027}
    - target: {fileID: 8714766618717182506, guid: b85e005d231192249b7077b40a4d4e45, type: 3}
      propertyPath: stateContainers.entries.Array.data[4].value.effects.Array.data[1].tintables.Array.data[0]
      value: 
      objectReference: {fileID: 8467006667157818416}
    m_RemovedComponents:
    - {fileID: 3705378105823492762, guid: b85e005d231192249b7077b40a4d4e45, type: 3}
  m_SourcePrefab: {fileID: 100100000, guid: b85e005d231192249b7077b40a4d4e45, type: 3}
--- !u!224 &4185972052008607586 stripped
RectTransform:
  m_CorrespondingSourceObject: {fileID: 9026472854072389794, guid: b85e005d231192249b7077b40a4d4e45, type: 3}
  m_PrefabInstance: {fileID: 5139722473249402816}
  m_PrefabAsset: {fileID: 0}
--- !u!1 &6922469056340231697 stripped
GameObject:
  m_CorrespondingSourceObject: {fileID: 2828958436599032273, guid: b85e005d231192249b7077b40a4d4e45, type: 3}
  m_PrefabInstance: {fileID: 5139722473249402816}
  m_PrefabAsset: {fileID: 0}
--- !u!114 &3015392985318836008
MonoBehaviour:
  m_ObjectHideFlags: 0
  m_CorrespondingSourceObject: {fileID: 0}
  m_PrefabInstance: {fileID: 0}
  m_PrefabAsset: {fileID: 0}
  m_GameObject: {fileID: 6922469056340231697}
  m_Enabled: 1
  m_EditorHideFlags: 0
  m_Script: {fileID: 11500000, guid: 30649d3a9faa99c48a7b1166b86bf2a0, type: 3}
  m_Name: 
  m_EditorClassIdentifier: 
  m_Padding:
    m_Left: 10
    m_Right: 10
    m_Top: 0
    m_Bottom: 0
  m_ChildAlignment: 3
  m_Spacing: 9
  m_ChildForceExpandWidth: 0
  m_ChildForceExpandHeight: 1
  m_ChildControlWidth: 1
  m_ChildControlHeight: 1
  m_ChildScaleWidth: 0
  m_ChildScaleHeight: 0
  m_ReverseArrangement: 0
--- !u!224 &6922469056340231698 stripped
RectTransform:
  m_CorrespondingSourceObject: {fileID: 2828958436599032274, guid: b85e005d231192249b7077b40a4d4e45, type: 3}
  m_PrefabInstance: {fileID: 5139722473249402816}
  m_PrefabAsset: {fileID: 0}
--- !u!1 &8376646494505211202 stripped
GameObject:
  m_CorrespondingSourceObject: {fileID: 3705378105823492738, guid: b85e005d231192249b7077b40a4d4e45, type: 3}
  m_PrefabInstance: {fileID: 5139722473249402816}
  m_PrefabAsset: {fileID: 0}
--- !u!114 &4610321631761047244
MonoBehaviour:
  m_ObjectHideFlags: 0
  m_CorrespondingSourceObject: {fileID: 0}
  m_PrefabInstance: {fileID: 0}
  m_PrefabAsset: {fileID: 0}
  m_GameObject: {fileID: 8376646494505211202}
  m_Enabled: 1
  m_EditorHideFlags: 0
  m_Script: {fileID: 11500000, guid: 74145cabf163d894584fd298847f29fd, type: 3}
  m_Name: 
  m_EditorClassIdentifier: 
  m_InteractionManager: {fileID: 0}
  m_Colliders: []
  m_InteractionLayerMask:
    serializedVersion: 2
    m_Bits: 4294967295
  m_InteractionLayers:
    m_Bits: 1
  m_DistanceCalculationMode: 1
  m_SelectMode: 1
  m_CustomReticle: {fileID: 0}
  m_AllowGazeInteraction: 0
  m_AllowGazeSelect: 0
  m_OverrideGazeTimeToSelect: 0
  m_GazeTimeToSelect: 0.5
  m_OverrideTimeToAutoDeselectGaze: 0
  m_TimeToAutoDeselectGaze: 3
  m_AllowGazeAssistance: 0
  m_FirstHoverEntered:
    m_PersistentCalls:
      m_Calls: []
  m_LastHoverExited:
    m_PersistentCalls:
      m_Calls: []
  m_HoverEntered:
    m_PersistentCalls:
      m_Calls: []
  m_HoverExited:
    m_PersistentCalls:
      m_Calls: []
  m_FirstSelectEntered:
    m_PersistentCalls:
      m_Calls:
      - m_Target: {fileID: 8376646494505211228}
        m_TargetAssemblyTypeName: UnityEngine.AudioSource, UnityEngine
        m_MethodName: PlayOneShot
        m_Mode: 2
        m_Arguments:
          m_ObjectArgument: {fileID: 8300000, guid: 51de19e15e660e845bdedcfbb9c6a0e8, type: 3}
          m_ObjectArgumentAssemblyTypeName: UnityEngine.AudioClip, UnityEngine
          m_IntArgument: 0
          m_FloatArgument: 0
          m_StringArgument: 
          m_BoolArgument: 0
        m_CallState: 2
  m_LastSelectExited:
    m_PersistentCalls:
      m_Calls:
      - m_Target: {fileID: 8376646494505211228}
        m_TargetAssemblyTypeName: UnityEngine.AudioSource, UnityEngine
        m_MethodName: PlayOneShot
        m_Mode: 2
        m_Arguments:
          m_ObjectArgument: {fileID: 8300000, guid: 55c56ad83252ca647b56e238abee1047, type: 3}
          m_ObjectArgumentAssemblyTypeName: UnityEngine.AudioClip, UnityEngine
          m_IntArgument: 0
          m_FloatArgument: 0
          m_StringArgument: 
          m_BoolArgument: 0
        m_CallState: 2
  m_SelectEntered:
    m_PersistentCalls:
      m_Calls: []
  m_SelectExited:
    m_PersistentCalls:
      m_Calls: []
  m_Activated:
    m_PersistentCalls:
      m_Calls: []
  m_Deactivated:
    m_PersistentCalls:
      m_Calls: []
  m_StartingHoverFilters: []
  m_StartingSelectFilters: []
  m_StartingInteractionStrengthFilters: []
  m_OnFirstHoverEntered:
    m_PersistentCalls:
      m_Calls: []
  m_OnLastHoverExited:
    m_PersistentCalls:
      m_Calls: []
  m_OnHoverEntered:
    m_PersistentCalls:
      m_Calls: []
  m_OnHoverExited:
    m_PersistentCalls:
      m_Calls: []
  m_OnSelectEntered:
    m_PersistentCalls:
      m_Calls: []
  m_OnSelectExited:
    m_PersistentCalls:
      m_Calls: []
  m_OnSelectCanceled:
    m_PersistentCalls:
      m_Calls: []
  m_OnActivate:
    m_PersistentCalls:
      m_Calls: []
  m_OnDeactivate:
    m_PersistentCalls:
      m_Calls: []
  isGazePinchSelected:
    active: 0
    onEntered:
      m_PersistentCalls:
        m_Calls: []
    onExited:
      m_PersistentCalls:
        m_Calls: []
  isRaySelected:
    active: 0
    onEntered:
      m_PersistentCalls:
        m_Calls: []
    onExited:
      m_PersistentCalls:
        m_Calls: []
  isPokeSelected:
    active: 0
    onEntered:
      m_PersistentCalls:
        m_Calls: []
    onExited:
      m_PersistentCalls:
        m_Calls: []
  isGrabSelected:
    active: 0
    onEntered:
      m_PersistentCalls:
        m_Calls: []
    onExited:
      m_PersistentCalls:
        m_Calls: []
  isGazeHovered:
    active: 0
    onEntered:
      m_PersistentCalls:
        m_Calls: []
    onExited:
      m_PersistentCalls:
        m_Calls: []
  isGazePinchHovered:
    active: 0
    onEntered:
      m_PersistentCalls:
        m_Calls: []
    onExited:
      m_PersistentCalls:
        m_Calls: []
  isRayHovered:
    active: 0
    onEntered:
      m_PersistentCalls:
        m_Calls: []
    onExited:
      m_PersistentCalls:
        m_Calls: []
  isGrabHovered:
    active: 0
    onEntered:
      m_PersistentCalls:
        m_Calls: []
    onExited:
      m_PersistentCalls:
        m_Calls: []
  isPokeHovered:
    active: 0
    onEntered:
      m_PersistentCalls:
        m_Calls: []
    onExited:
      m_PersistentCalls:
        m_Calls: []
  isActiveHovered:
    active: 0
    onEntered:
      m_PersistentCalls:
        m_Calls: []
    onExited:
      m_PersistentCalls:
        m_Calls: []
  disabledInteractorTypes:
  - reference: MixedReality.Toolkit.IGrabInteractor, MixedReality.Toolkit.Core
  <ToggleMode>k__BackingField: 0
  <SelectThreshold>k__BackingField: 0.9
  <DeselectThreshold>k__BackingField: 0.1
  <TriggerOnRelease>k__BackingField: 1
  <UseGazeDwell>k__BackingField: 0
  <GazeDwellTime>k__BackingField: 1
  <UseFarDwell>k__BackingField: 0
  <FarDwellTime>k__BackingField: 1
  allowSelectByVoice: 1
  speechRecognitionKeyword: select
  <VoiceRequiresFocus>k__BackingField: 1
  <SelectRequiresHover>k__BackingField: 0
  <IsToggled>k__BackingField:
    active: 0
    onEntered:
      m_PersistentCalls:
        m_Calls: []
    onExited:
      m_PersistentCalls:
        m_Calls: []
  <OnClicked>k__BackingField:
    m_PersistentCalls:
      m_Calls: []
  <OnEnabled>k__BackingField:
    m_PersistentCalls:
      m_Calls: []
  <OnDisabled>k__BackingField:
    m_PersistentCalls:
      m_Calls: []
  smoothSelectionProgress: 1
  distanceSpaceMode: 1
  startPushPlane: -8.392723
  endPushPlane: -0.67
  returnSpeed: 0.25
  enforceFrontPush: 1
  rejectXYRollOff: 1
  rollOffXYDepth: 3
  rejectZRollOff: 0
  extendSpeed: 0.5
  buttonText: {fileID: 1922220768106560367}
--- !u!82 &8376646494505211228 stripped
AudioSource:
  m_CorrespondingSourceObject: {fileID: 3705378105823492764, guid: b85e005d231192249b7077b40a4d4e45, type: 3}
  m_PrefabInstance: {fileID: 5139722473249402816}
  m_PrefabAsset: {fileID: 0}
--- !u!224 &8376646494505211229 stripped
RectTransform:
  m_CorrespondingSourceObject: {fileID: 3705378105823492765, guid: b85e005d231192249b7077b40a4d4e45, type: 3}
  m_PrefabInstance: {fileID: 5139722473249402816}
  m_PrefabAsset: {fileID: 0}
