%YAML 1.1
%TAG !u! tag:unity3d.com,2011:
--- !u!114 &11400000
MonoBehaviour:
  m_ObjectHideFlags: 0
  m_CorrespondingSourceObject: {fileID: 0}
  m_PrefabInstance: {fileID: 0}
  m_PrefabAsset: {fileID: 0}
  m_GameObject: {fileID: 0}
  m_Enabled: 1
  m_EditorHideFlags: 0
  m_Script: {fileID: 11500000, guid: fb1059335113d6c4a9b5cd5c961a2560, type: 3}
  m_Name: Model
  m_EditorClassIdentifier: 
  Name: Cardiovascular System
  Description: 'The human cardiovascular system is a complex network of organs, vessels,
    and tissues that work together to circulate blood throughout the body, providing
    essential nutrients, oxygen, and removing waste products. It plays a crucial
    role in maintaining homeostasis and supporting the proper functioning of various
    bodily systems. The cardiovascular system consists of the heart, blood vessels,
    and blood itself. The heart is a muscular organ located slightly to the left
    of the chest, between the lungs. It is responsible for pumping blood throughout
    the body. The heart has four chambers: two atria (upper chambers) and two ventricles
    (lower chambers). The right side of the heart receives deoxygenated blood from
    the body and pumps it to the lungs for oxygenation. The left side receives oxygenated
    blood from the lungs and pumps it to the rest of the body. Blood vessels are
    the conduits through which blood flows. They can be categorized into three types:
    Arteries: These vessels carry oxygenated blood away from the heart to various
    parts of the body. The largest artery is the aorta, which branches into smaller
    arteries that supply oxygen-rich blood to organs and tissues. Veins: Veins carry
    deoxygenated blood from various body parts back to the heart. The largest vein
    is the superior and inferior vena cava, which return blood to the right atrium
    of the heart. Capillaries: Capillaries are tiny, thin-walled vessels that connect
    arteries to veins. They facilitate the exchange of nutrients, oxygen, and waste
    products between blood and surrounding tissues. Blood is a fluid connective tissue
    that consists of various components: Red Blood Cells (RBCs): These cells contain
    hemoglobin, a protein that binds to oxygen and helps transport it to tissues.
    RBCs also carry carbon dioxide away from tissues to the lungs for exhalation.
    White Blood Cells (WBCs): WBCs are part of the immune system and help defend
    the body against infections and foreign substances. Platelets: Platelets are
    cell fragments that play a vital role in blood clotting, preventing excessive
    bleeding. Plasma: Plasma is the liquid component of blood, consisting of water,
    electrolytes, hormones, nutrients, waste products, and proteins. It transports
    these substances throughout the body. The cardiovascular system works through
    a process called circulation. Oxygenated blood is pumped by the heart''s left
    ventricle into the aorta, which branches into arteries. These arteries progressively
    divide into smaller vessels, eventually leading to capillaries. In capillaries,
    oxygen and nutrients diffuse from the blood into tissues, while carbon dioxide
    and waste products move from tissues into the blood. Deoxygenated blood then
    flows through veins, which gradually merge into larger veins that return blood
    to the heart. The continuous circulation of blood ensures that all cells receive
    the necessary oxygen and nutrients while waste products are efficiently removed.
    This system is crucial for maintaining the body''s overall health and proper
    functioning.'
  Icon: {fileID: 2800000, guid: 39c30c7ec0b29aa47b021b99fdab23f4, type: 3}
  Layers:
  - {fileID: 11400000, guid: 8fd3e1d343ab50f4fb8428f5d19b7cc0, type: 2}
  - {fileID: 11400000, guid: 1bad1e07519eef9419e176d7e91bb7b3, type: 2}
  - {fileID: 11400000, guid: f145c867bfc557041a8f8b769ffe7774, type: 2}
  - {fileID: 11400000, guid: 3bf61b582b6582f409e1c77911f92f63, type: 2}
  - {fileID: 11400000, guid: 4ea49b8879d60a6438347a20003ac78e, type: 2}
  - {fileID: 11400000, guid: 6a2d65cd175a1ca468125c7f53774b14, type: 2}
  - {fileID: 11400000, guid: aa6281cae15808c4a85ccc364834db4c, type: 2}
  - {fileID: 11400000, guid: b7c3dcf6078b853449172c67b202ae4a, type: 2}
  - {fileID: 11400000, guid: 54095df4a650dd946a887d2f13befa8e, type: 2}
  - {fileID: 11400000, guid: 5af261caca331dd43acf1a6a8706f7ef, type: 2}
  - {fileID: 11400000, guid: 4f4e72e183f888d41b7544e1d159d76e, type: 2}
  - {fileID: 11400000, guid: 99e0c30f460664f4fb5268ea83f0bd9a, type: 2}
  - {fileID: 11400000, guid: 3e257ad699d44b944bf444035f390762, type: 2}
  - {fileID: 11400000, guid: 9aea869ea3d0cdf4e9fdb4c3a202e8fa, type: 2}
  - {fileID: 11400000, guid: 70c31b85489cc474092d7ae87ea6404d, type: 2}
  - {fileID: 11400000, guid: ed19b5deb795d2f4b9ae82a09d7580cc, type: 2}
  - {fileID: 11400000, guid: 3efae4323ac8db8479ef2f3862627bbc, type: 2}
  - {fileID: 11400000, guid: 3eb2cc15dac61f84ea3cc21ae944250d, type: 2}
  - {fileID: 11400000, guid: 9dae4240d2ff3a947962fb2caa3487ea, type: 2}
  - {fileID: 11400000, guid: a50eab601f47d5943a385d3d7a696adc, type: 2}
  - {fileID: 11400000, guid: 2223bb81a2e164046be93d394fd2f008, type: 2}
  - {fileID: 11400000, guid: 48bcdac8a1b99f8448e4196b4ae377bc, type: 2}
  - {fileID: 11400000, guid: 8f49f7daa3d779f4abeed9715c9bca04, type: 2}
  - {fileID: 11400000, guid: de84e014cefc4484b81c5b2232231e96, type: 2}
  - {fileID: 11400000, guid: adb836d06f036c34a90f72a4a6a4bd72, type: 2}
  - {fileID: 11400000, guid: 36cb87bce1e6684468580b11197e3fc3, type: 2}
  - {fileID: 11400000, guid: eb1a1f03febf49148a392fe088db5045, type: 2}
  - {fileID: 11400000, guid: d5e88897c1634754a844cd0a970c5843, type: 2}
  - {fileID: 11400000, guid: 0215e33bd6ebf0d4fbf6eccd1b6143f9, type: 2}
  - {fileID: 11400000, guid: 993aa82d4ffc2c549bcb3cd1e1f7ae77, type: 2}
  - {fileID: 11400000, guid: 51aa885d6d72b3d4794d578a109a9011, type: 2}
  - {fileID: 11400000, guid: 20e0f3bc1a7a9a3468192d4c4dbda8e0, type: 2}
  - {fileID: 11400000, guid: e09ebe2cf9e5b314d8bd546c762fe1ec, type: 2}
  - {fileID: 11400000, guid: 42038ee0315be1540a6ae529f3a846c1, type: 2}
  - {fileID: 11400000, guid: e1146d3e38cbead45a34ca3c6fd7b6a7, type: 2}
  - {fileID: 11400000, guid: c105563d9727dbe418dc4deb5aaf207e, type: 2}
  - {fileID: 11400000, guid: 2a8143f61b1d7ae46932cc055c7a337c, type: 2}
  - {fileID: 11400000, guid: 577ccc7c7d978c14c8a6695794b8f48c, type: 2}
  - {fileID: 11400000, guid: ed7dabd6c2f5bc94791b7cd701c7e693, type: 2}
  - {fileID: 11400000, guid: 873491690f7464648a376c4b6ef48a9b, type: 2}
  - {fileID: 11400000, guid: 928327bbb649f4744973e73109ff9c11, type: 2}
  - {fileID: 11400000, guid: d779c1a7a0621084eb90052c10e65ef9, type: 2}
  - {fileID: 11400000, guid: 45138fe042a65314988a5a4b2c40f022, type: 2}
  - {fileID: 11400000, guid: 7519ed08c27f97a4bad47205f1ca464e, type: 2}
  - {fileID: 11400000, guid: 08378295d690c434ea3140b8e24cf202, type: 2}
  - {fileID: 11400000, guid: 867669d575a282e468487a6d3af82e25, type: 2}
  - {fileID: 11400000, guid: 744e3019e9663b344a8548a83969276c, type: 2}
  - {fileID: 11400000, guid: cd49b167905594e4bbcf7178defbecde, type: 2}
  - {fileID: 11400000, guid: 193bbd3a24973e248a26e967aba8b7d3, type: 2}
  - {fileID: 11400000, guid: b7c24137a0997ca4796c20353a7dea5b, type: 2}
  - {fileID: 11400000, guid: 8f24f78ec013efb4d831adb1d2bdfd4e, type: 2}
  - {fileID: 11400000, guid: 9c25f40d6ceeb7447aaad1ac33f2cf06, type: 2}
  - {fileID: 11400000, guid: d07b4f81eaf0e1149898f3e4d82d4efb, type: 2}
  - {fileID: 11400000, guid: c95fafe86ae109c49afa6c6afed6ff50, type: 2}
  - {fileID: 11400000, guid: cbdd8c98b2edb254b84679efa661a23b, type: 2}
  - {fileID: 11400000, guid: f3f05eac9c8248348be592dcbc3592c8, type: 2}
  - {fileID: 11400000, guid: d0fceeb8dd05924478f089b71c1865a0, type: 2}
  - {fileID: 11400000, guid: 33050c8b8d0329c4f8eb0ba165eb4c23, type: 2}
  - {fileID: 11400000, guid: 858de5a94512e8941b1fe1c518f18aa4, type: 2}
  - {fileID: 11400000, guid: 076d06ae0cc29894582f9b29172b3f36, type: 2}
  - {fileID: 11400000, guid: 4fded5b9324bd934c9b4ce360860c329, type: 2}
  - {fileID: 11400000, guid: 0f49ea95347900c4e802247732192c90, type: 2}
  - {fileID: 11400000, guid: c5732a01280223d4096ee4fc53015bc4, type: 2}
  - {fileID: 11400000, guid: 398b6f5a7a262334ab682dc037ebd437, type: 2}
  - {fileID: 11400000, guid: d7c1f2e322115334d9b28376fd97f332, type: 2}
  - {fileID: 11400000, guid: 1b107d996536eca49a62d3a4d1a0c6cb, type: 2}
  - {fileID: 11400000, guid: 78ecb16b1bdbfd24c80ee4cae912f7c7, type: 2}
  - {fileID: 11400000, guid: c94c4458744d0df4f9d91d1c5a638bb6, type: 2}
  - {fileID: 11400000, guid: 337e6a89c4dcbc44eb7722df639b7e50, type: 2}
  - {fileID: 11400000, guid: 20a7b89dd28516d47bc64ee7fa1a25a7, type: 2}
  - {fileID: 11400000, guid: e66aa771afcf0da4bba7255d7759e044, type: 2}
  - {fileID: 11400000, guid: 1d6cf10a807570c4387062ab70294646, type: 2}
  - {fileID: 11400000, guid: 849cb99fd021c6d4baf13539f03934f2, type: 2}
  - {fileID: 11400000, guid: 6507ee481b98ca4409f77913c9ec9761, type: 2}
  - {fileID: 11400000, guid: 733e6233c23d5494892cfaee17512dab, type: 2}
  - {fileID: 11400000, guid: 83038207bae931f4a8bbc9c0bdcb65e9, type: 2}
  - {fileID: 11400000, guid: d02341d0d1b7c0b49a26d66c2aaf60c7, type: 2}
  - {fileID: 11400000, guid: 86ffe77f26863d649b3d8fe79b055421, type: 2}
  - {fileID: 11400000, guid: 42c3209486e74834c89604cdf318486d, type: 2}
  - {fileID: 11400000, guid: a7e6e14317ffded4ab8d6157f1e6cefb, type: 2}
  - {fileID: 11400000, guid: 9ace6e55d1a38374c8975fb7dc256316, type: 2}
  - {fileID: 11400000, guid: dbe704591b06fb04daabfda616d01ae8, type: 2}
  - {fileID: 11400000, guid: f93f35d372742da438599ebc55e1cad4, type: 2}
  - {fileID: 11400000, guid: e6cba20fdffe104488f5979c788dd2b5, type: 2}
  - {fileID: 11400000, guid: 9aaae8cee95f81e4f932ca3df5978ccb, type: 2}
  - {fileID: 11400000, guid: 88d6d4b635fdc47439caf89901c27f1b, type: 2}
